1 Q0 327 0 4.4003161750657425 BM25b0.75
1 Q0 501 1 3.5175402322224976 BM25b0.75
1 Q0 343 2 3.0706284675495743 BM25b0.75
1 Q0 300 3 2.6401782094212214 BM25b0.75
1 Q0 435 4 1.6988411460554527 BM25b0.75
1 Q0 324 5 1.486396648042244 BM25b0.75
1 Q0 89 6 1.238823860484253 BM25b0.75
1 Q0 1 7 1.2260696120241268 BM25b0.75
1 Q0 350 8 1.202623733315629 BM25b0.75
1 Q0 24 9 1.1855045978500987 BM25b0.75
1 Q0 255 10 1.1600557119721764 BM25b0.75
1 Q0 194 11 1.1600557119721764 BM25b0.75
1 Q0 468 12 1.135546216015072 BM25b0.75
1 Q0 394 13 1.1302138738666576 BM25b0.75
1 Q0 406 14 1.1033423122744048 BM25b0.75
1 Q0 196 15 1.0883633827404617 BM25b0.75
1 Q0 329 16 1.0759653356715024 BM25b0.75
1 Q0 92 17 1.0401332161443877 BM25b0.75
1 Q0 199 18 1.0358921507261223 BM25b0.75
1 Q0 323 19 0.9746796308698991 BM25b0.75
1 Q0 361 20 0.9665925609809921 BM25b0.75
1 Q0 393 21 0.9605532348117546 BM25b0.75
1 Q0 195 22 0.9238324535671607 BM25b0.75
1 Q0 151 23 0.8914580659697724 BM25b0.75
1 Q0 110 24 0.8803278900683691 BM25b0.75
1 Q0 396 25 0.8790760927358447 BM25b0.75
1 Q0 48 26 0.8776006632330866 BM25b0.75
1 Q0 466 27 0.8770956949101345 BM25b0.75
1 Q0 338 28 0.8745795449991971 BM25b0.75
1 Q0 155 29 0.87207779009763 BM25b0.75
1 Q0 215 30 0.8651484146757529 BM25b0.75
1 Q0 317 31 0.8521872746817722 BM25b0.75
1 Q0 492 32 0.8441126392183622 BM25b0.75
1 Q0 74 33 0.7951487479386985 BM25b0.75
1 Q0 126 34 0.7843132911315236 BM25b0.75
1 Q0 58 35 0.7639965026757881 BM25b0.75
1 Q0 365 36 0.7632500259006003 BM25b0.75
1 Q0 117 37 0.7616754698205048 BM25b0.75
1 Q0 276 38 0.7497949405222457 BM25b0.75
1 Q0 379 39 0.7489234999349845 BM25b0.75
1 Q0 403 40 0.7381343465464039 BM25b0.75
1 Q0 521 41 0.7357825105592993 BM25b0.75
1 Q0 334 42 0.7212438498604696 BM25b0.75
1 Q0 451 43 0.7210266311347527 BM25b0.75
1 Q0 429 44 0.7113012498940969 BM25b0.75
1 Q0 398 45 0.702158446187247 BM25b0.75
1 Q0 301 46 0.6986648135559493 BM25b0.75
1 Q0 143 47 0.6984308178896821 BM25b0.75
1 Q0 175 48 0.6764252373460071 BM25b0.75
1 Q0 95 49 0.6746457206676892 BM25b0.75
1 Q0 455 50 0.6600110340616943 BM25b0.75
1 Q0 23 51 0.6573562253105718 BM25b0.75
1 Q0 407 52 0.6567863786057127 BM25b0.75
1 Q0 108 53 0.6512092085532497 BM25b0.75
1 Q0 510 54 0.65080034724723 BM25b0.75
1 Q0 246 55 0.6506534447760457 BM25b0.75
1 Q0 420 56 0.6418108929352446 BM25b0.75
1 Q0 281 57 0.6413325496780502 BM25b0.75
1 Q0 402 58 0.6303576156326771 BM25b0.75
1 Q0 346 59 0.6272015723486077 BM25b0.75
1 Q0 376 60 0.6270274525017806 BM25b0.75
1 Q0 494 61 0.6262908094524207 BM25b0.75
1 Q0 441 62 0.6228108307592922 BM25b0.75
1 Q0 312 63 0.6169511215707089 BM25b0.75
1 Q0 299 64 0.6097165095702781 BM25b0.75
1 Q0 526 65 0.6080972621873321 BM25b0.75
1 Q0 380 66 0.5952387324959529 BM25b0.75
1 Q0 313 67 0.5864703796429213 BM25b0.75
1 Q0 416 68 0.5705234823654769 BM25b0.75
1 Q0 362 69 0.5703400700401641 BM25b0.75
1 Q0 357 70 0.5690694509182672 BM25b0.75
1 Q0 522 71 0.5571738212793085 BM25b0.75
1 Q0 25 72 0.5483505614608345 BM25b0.75
1 Q0 485 73 0.5416745202051257 BM25b0.75
1 Q0 272 74 0.5412679302149542 BM25b0.75
1 Q0 128 75 0.5395685789105196 BM25b0.75
1 Q0 114 76 0.5298932771312712 BM25b0.75
1 Q0 73 77 0.5228310410293694 BM25b0.75
1 Q0 375 78 0.5162594494867523 BM25b0.75
1 Q0 372 79 0.5129189125784867 BM25b0.75
1 Q0 20 80 0.5093238344337176 BM25b0.75
1 Q0 57 81 0.5066744387629284 BM25b0.75
1 Q0 498 82 0.4949811163614495 BM25b0.75
1 Q0 87 83 0.49427374058732026 BM25b0.75
1 Q0 481 84 0.4921533119906075 BM25b0.75
1 Q0 383 85 0.4910297572195597 BM25b0.75
1 Q0 97 86 0.4854719437282736 BM25b0.75
1 Q0 288 87 0.45650959645591604 BM25b0.75
1 Q0 517 88 0.45603835715395286 BM25b0.75
1 Q0 103 89 0.4509615188043472 BM25b0.75
1 Q0 506 90 0.44798698927022984 BM25b0.75
1 Q0 450 91 0.42831472704198137 BM25b0.75
1 Q0 363 92 0.42809702987662396 BM25b0.75
1 Q0 511 93 0.4272670189499381 BM25b0.75
1 Q0 309 94 0.42466469712004007 BM25b0.75
1 Q0 132 95 0.42067211701383467 BM25b0.75
1 Q0 397 96 0.4159188009851542 BM25b0.75
1 Q0 46 97 0.40914367630373316 BM25b0.75
1 Q0 401 98 0.40777528655221007 BM25b0.75
1 Q0 102 99 0.38939791398324386 BM25b0.75
1 Q0 378 100 0.3845812046891848 BM25b0.75
1 Q0 298 101 0.38344107973529645 BM25b0.75
1 Q0 122 102 0.38200757901061827 BM25b0.75
1 Q0 305 103 0.3785399582769979 BM25b0.75
1 Q0 390 104 0.3671218490100445 BM25b0.75
1 Q0 315 105 0.3617713321331594 BM25b0.75
1 Q0 368 106 0.35072312980912435 BM25b0.75
1 Q0 308 107 0.34788147608890446 BM25b0.75
1 Q0 125 108 0.33586314277336726 BM25b0.75
1 Q0 513 109 0.30478157364821334 BM25b0.75
1 Q0 374 110 0.3046829851767533 BM25b0.75
1 Q0 123 111 0.2912899466860468 BM25b0.75
1 Q0 86 112 0.27612731897191467 BM25b0.75
1 Q0 244 113 0.27044748431010485 BM25b0.75
1 Q0 328 114 0.261759469094757 BM25b0.75
1 Q0 306 115 0.26075079792070843 BM25b0.75
1 Q0 438 116 0.24449752336931524 BM25b0.75
1 Q0 422 117 0.2247767628879418 BM25b0.75
1 Q0 491 118 0.21766322282478545 BM25b0.75
1 Q0 100 119 0.21255488646053722 BM25b0.75
1 Q0 367 120 0.21167566425708595 BM25b0.75
1 Q0 490 121 0.21039484615088389 BM25b0.75
1 Q0 369 122 0.1969379346162462 BM25b0.75
1 Q0 116 123 0.19057265979979843 BM25b0.75
1 Q0 389 124 0.18523808332779584 BM25b0.75
1 Q0 471 125 0.18370969373486812 BM25b0.75
1 Q0 229 126 0.17940211413718188 BM25b0.75
1 Q0 505 127 0.1627268948015682 BM25b0.75
1 Q0 358 128 0.14896923093925463 BM25b0.75
1 Q0 520 129 0.1456698002729243 BM25b0.75
1 Q0 85 130 0.14558239242676685 BM25b0.75
1 Q0 405 131 0.14445981642138106 BM25b0.75
1 Q0 340 132 0.12141478828795715 BM25b0.75
1 Q0 51 133 0.08855771144540703 BM25b0.75
1 Q0 248 134 0.07632787837689958 BM25b0.75
1 Q0 339 135 0.07427317876003081 BM25b0.75
1 Q0 507 136 0.07217359085614383 BM25b0.75
1 Q0 359 137 0.07176567013202695 BM25b0.75
1 Q0 514 138 0.06402141723021615 BM25b0.75
1 Q0 523 139 0.05213284097181092 BM25b0.75
1 Q0 66 140 0.048706393301465534 BM25b0.75
1 Q0 428 141 0.045770443637473845 BM25b0.75
1 Q0 291 142 -0.03251207652593946 BM25b0.75
1 Q0 16 143 -0.0523214439046098 BM25b0.75
1 Q0 270 144 -0.0832923652074743 BM25b0.75
1 Q0 307 145 -0.0892414579302025 BM25b0.75
1 Q0 321 146 -0.09525158382264043 BM25b0.75
1 Q0 115 147 -0.11210324967264546 BM25b0.75
1 Q0 524 148 -0.18766956714407318 BM25b0.75
1 Q0 274 149 -0.1898117062751175 BM25b0.75
1 Q0 55 150 -0.22620438376502303 BM25b0.75
1 Q0 186 151 -0.2393691314041928 BM25b0.75
1 Q0 377 152 -0.24005096010290808 BM25b0.75
1 Q0 364 153 -0.29509778901477063 BM25b0.75
1 Q0 192 154 -0.30125706466331525 BM25b0.75
1 Q0 388 155 -0.31911072697608633 BM25b0.75
1 Q0 154 156 -0.32723939364973725 BM25b0.75
1 Q0 293 157 -0.3386931258767504 BM25b0.75
1 Q0 319 158 -0.34544521804596967 BM25b0.75
1 Q0 168 159 -0.3575461405235087 BM25b0.75
1 Q0 447 160 -0.3587511982001835 BM25b0.75
1 Q0 456 161 -0.3594816647075668 BM25b0.75
1 Q0 263 162 -0.3604868681642884 BM25b0.75
1 Q0 71 163 -0.36997368448411305 BM25b0.75
1 Q0 421 164 -0.3718969854965667 BM25b0.75
1 Q0 182 165 -0.38151328635155757 BM25b0.75
1 Q0 213 166 -0.38991541307452304 BM25b0.75
1 Q0 222 167 -0.3901195645262607 BM25b0.75
1 Q0 226 168 -0.39466561275116324 BM25b0.75
1 Q0 90 169 -0.3957136208300388 BM25b0.75
1 Q0 149 170 -0.39953297979486074 BM25b0.75
1 Q0 93 171 -0.3999619089840112 BM25b0.75
1 Q0 250 172 -0.4032084723186383 BM25b0.75
1 Q0 337 173 -0.4112195368168755 BM25b0.75
1 Q0 484 174 -0.4144215895984478 BM25b0.75
1 Q0 366 175 -0.4148831010188188 BM25b0.75
1 Q0 408 176 -0.42457590169196435 BM25b0.75
1 Q0 458 177 -0.4253029433949262 BM25b0.75
1 Q0 289 178 -0.4270090960789683 BM25b0.75
1 Q0 269 179 -0.42749908544058696 BM25b0.75
1 Q0 225 180 -0.4319601210321822 BM25b0.75
1 Q0 527 181 -0.43496470909602114 BM25b0.75
1 Q0 436 182 -0.43542245434684973 BM25b0.75
1 Q0 384 183 -0.4380550397187695 BM25b0.75
1 Q0 83 184 -0.44485497564538656 BM25b0.75
1 Q0 84 185 -0.4453868023380049 BM25b0.75
1 Q0 134 186 -0.44698993950071797 BM25b0.75
1 Q0 392 187 -0.44779584366595243 BM25b0.75
1 Q0 467 188 -0.44995919730023415 BM25b0.75
1 Q0 201 189 -0.44995919730023415 BM25b0.75
1 Q0 331 190 -0.45434922485735213 BM25b0.75
1 Q0 295 191 -0.45546014925805833 BM25b0.75
1 Q0 345 192 -0.46052728565614853 BM25b0.75
1 Q0 311 193 -0.46396848182615774 BM25b0.75
1 Q0 258 194 -0.4648368314189942 BM25b0.75
1 Q0 261 195 -0.466266594939781 BM25b0.75
1 Q0 144 196 -0.46716840066066934 BM25b0.75
1 Q0 453 197 -0.4723672255408213 BM25b0.75
1 Q0 45 198 -0.4734015388936081 BM25b0.75
1 Q0 442 199 -0.4752131028091493 BM25b0.75
1 Q0 39 200 -0.4752131028091493 BM25b0.75
1 Q0 193 201 -0.4758200424071425 BM25b0.75
1 Q0 96 202 -0.4761614781472964 BM25b0.75
1 Q0 460 203 -0.477344195953645 BM25b0.75
1 Q0 53 204 -0.4776501991397754 BM25b0.75
1 Q0 189 205 -0.4776501991397754 BM25b0.75
1 Q0 266 206 -0.47795659490642184 BM25b0.75
1 Q0 171 207 -0.47977707072317494 BM25b0.75
1 Q0 454 208 -0.47980325616745717 BM25b0.75
1 Q0 314 209 -0.48353972128156336 BM25b0.75
1 Q0 318 210 -0.483853721956003 BM25b0.75
1 Q0 503 211 -0.48416813070650055 BM25b0.75
1 Q0 294 212 -0.4857463235332854 BM25b0.75
1 Q0 59 213 -0.4870163049140445 BM25b0.75
1 Q0 470 214 -0.48733483855041476 BM25b0.75
1 Q0 185 215 -0.48861315077218964 BM25b0.75
1 Q0 478 216 -0.4889337773587761 BM25b0.75
1 Q0 68 217 -0.4892548250102076 BM25b0.75
1 Q0 400 218 -0.4892548250102076 BM25b0.75
1 Q0 349 219 -0.4892548250102076 BM25b0.75
1 Q0 444 220 -0.48964717903398225 BM25b0.75
1 Q0 162 221 -0.48964717903398225 BM25b0.75
1 Q0 105 222 -0.49083900148348264 BM25b0.75
1 Q0 303 223 -0.4911899999134107 BM25b0.75
1 Q0 253 224 -0.4918109490812697 BM25b0.75
1 Q0 36 225 -0.4918384646155792 BM25b0.75
1 Q0 8 226 -0.4921633394638047 BM25b0.75
1 Q0 355 227 -0.49248864377591167 BM25b0.75
1 Q0 170 228 -0.4938662839600503 BM25b0.75
1 Q0 488 229 -0.4942438485156023 BM25b0.75
1 Q0 335 230 -0.4950787592957432 BM25b0.75
1 Q0 482 231 -0.4969109190235679 BM25b0.75
1 Q0 21 232 -0.4970884791951832 BM25b0.75
1 Q0 4 233 -0.49808535961986267 BM25b0.75
1 Q0 19 234 -0.5000911638687281 BM25b0.75
1 Q0 9 235 -0.5004270362435324 BM25b0.75
1 Q0 11 236 -0.5017750494832278 BM25b0.75
1 Q0 284 237 -0.5017750494832278 BM25b0.75
1 Q0 489 238 -0.5017750494832278 BM25b0.75
1 Q0 419 239 -0.5021131883009946 BM25b0.75
1 Q0 26 240 -0.5021131883009946 BM25b0.75
1 Q0 218 241 -0.5024517831596216 BM25b0.75
1 Q0 174 242 -0.5027908349823108 BM25b0.75
1 Q0 487 243 -0.5031303446947581 BM25b0.75
1 Q0 282 244 -0.5031303446947581 BM25b0.75
1 Q0 265 245 -0.5039994204303264 BM25b0.75
1 Q0 259 246 -0.5044929810437822 BM25b0.75
1 Q0 5 247 -0.5051480426453393 BM25b0.75
1 Q0 47 248 -0.5058339112921623 BM25b0.75
1 Q0 200 249 -0.507124653077299 BM25b0.75
1 Q0 497 250 -0.5089287784327936 BM25b0.75
1 Q0 310 251 -0.5094654974902765 BM25b0.75
1 Q0 101 252 -0.5096220049099688 BM25b0.75
1 Q0 146 253 -0.510561110423802 BM25b0.75
1 Q0 404 254 -0.5122676127991456 BM25b0.75
1 Q0 52 255 -0.51428570440272 BM25b0.75
1 Q0 135 256 -0.5165290613093019 BM25b0.75
1 Q0 252 257 -0.5185060108514512 BM25b0.75
1 Q0 373 258 -0.5201828096198889 BM25b0.75
1 Q0 472 259 -0.5269398835500188 BM25b0.75
1 Q0 10 260 -0.5275511545215344 BM25b0.75
1 Q0 107 261 -0.5276028601312486 BM25b0.75
1 Q0 391 262 -0.5289974871382359 BM25b0.75
1 Q0 42 263 -0.5324520196139919 BM25b0.75
1 Q0 433 264 -0.5342991078630458 BM25b0.75
1 Q0 17 265 -0.5352678555115956 BM25b0.75
1 Q0 316 266 -0.5371002813769367 BM25b0.75
1 Q0 371 267 -0.5377790057861173 BM25b0.75
1 Q0 35 268 -0.5405640823003814 BM25b0.75
1 Q0 417 269 -0.5407059239103404 BM25b0.75
1 Q0 198 270 -0.5430704980067551 BM25b0.75
1 Q0 439 271 -0.5431526911047496 BM25b0.75
1 Q0 29 272 -0.5463501415521564 BM25b0.75
1 Q0 518 273 -0.5470373255367048 BM25b0.75
1 Q0 290 274 -0.5478622370905792 BM25b0.75
1 Q0 3 275 -0.5494783297821637 BM25b0.75
1 Q0 499 276 -0.5505217946212253 BM25b0.75
1 Q0 262 277 -0.550900252274382 BM25b0.75
1 Q0 285 278 -0.550900252274382 BM25b0.75
1 Q0 41 279 -0.5511039850330983 BM25b0.75
1 Q0 190 280 -0.5514888377279787 BM25b0.75
1 Q0 457 281 -0.551491144163287 BM25b0.75
1 Q0 153 282 -0.5523295530712673 BM25b0.75
1 Q0 496 283 -0.552472541378871 BM25b0.75
1 Q0 109 284 -0.554882896342986 BM25b0.75
1 Q0 463 285 -0.5558142140159936 BM25b0.75
1 Q0 88 286 -0.5561684413040056 BM25b0.75
1 Q0 176 287 -0.5568703217519937 BM25b0.75
1 Q0 475 288 -0.5570784949479762 BM25b0.75
1 Q0 287 289 -0.5574953086139454 BM25b0.75
1 Q0 91 290 -0.5585223339170352 BM25b0.75
1 Q0 140 291 -0.5588075027326727 BM25b0.75
1 Q0 121 292 -0.5610420850653219 BM25b0.75
1 Q0 37 293 -0.5635919009816889 BM25b0.75
1 Q0 448 294 -0.5644639109268097 BM25b0.75
1 Q0 469 295 -0.5668256543080663 BM25b0.75
1 Q0 65 296 -0.5670114150380948 BM25b0.75
1 Q0 322 297 -0.5674732000501325 BM25b0.75
1 Q0 7 298 -0.5679057197946112 BM25b0.75
1 Q0 256 299 -0.5686242602807892 BM25b0.75
1 Q0 227 300 -0.5694726881062209 BM25b0.75
1 Q0 166 301 -0.5696239569781406 BM25b0.75
1 Q0 118 302 -0.5719194010618739 BM25b0.75
1 Q0 297 303 -0.5726948837231209 BM25b0.75
1 Q0 70 304 -0.5745655237812048 BM25b0.75
1 Q0 446 305 -0.5773480651770989 BM25b0.75
1 Q0 223 306 -0.5774163142120321 BM25b0.75
1 Q0 465 307 -0.5786445300669297 BM25b0.75
1 Q0 163 308 -0.5806285556065143 BM25b0.75
1 Q0 202 309 -0.5819387867589036 BM25b0.75
1 Q0 28 310 -0.583108852914893 BM25b0.75
1 Q0 342 311 -0.5836314890002392 BM25b0.75
1 Q0 197 312 -0.5860452682124992 BM25b0.75
1 Q0 283 313 -0.5862119857151803 BM25b0.75
1 Q0 18 314 -0.5863483789702897 BM25b0.75
1 Q0 459 315 -0.5877359127053701 BM25b0.75
1 Q0 271 316 -0.5890749450961326 BM25b0.75
1 Q0 34 317 -0.5899249931245893 BM25b0.75
1 Q0 434 318 -0.5904571871187445 BM25b0.75
1 Q0 228 319 -0.5905484054334529 BM25b0.75
1 Q0 120 320 -0.5942428143125563 BM25b0.75
1 Q0 330 321 -0.5946329241010694 BM25b0.75
1 Q0 43 322 -0.5951011392384675 BM25b0.75
1 Q0 473 323 -0.5958149412532714 BM25b0.75
1 Q0 493 324 -0.5980024472771945 BM25b0.75
1 Q0 72 325 -0.5988276242548213 BM25b0.75
1 Q0 502 326 -0.5989279739589709 BM25b0.75
1 Q0 94 327 -0.5995303672629619 BM25b0.75
1 Q0 98 328 -0.6013360253529487 BM25b0.75
1 Q0 220 329 -0.603190604463336 BM25b0.75
1 Q0 509 330 -0.6037942151678912 BM25b0.75
1 Q0 75 331 -0.6049944433904375 BM25b0.75
1 Q0 519 332 -0.6068547586894609 BM25b0.75
1 Q0 104 333 -0.6069678714167365 BM25b0.75
1 Q0 245 334 -0.6082080028334964 BM25b0.75
1 Q0 49 335 -0.6111199271859735 BM25b0.75
1 Q0 464 336 -0.6114103245166032 BM25b0.75
1 Q0 217 337 -0.6141596980478755 BM25b0.75
1 Q0 500 338 -0.6149305180971704 BM25b0.75
1 Q0 204 339 -0.6170158598823285 BM25b0.75
1 Q0 184 340 -0.6196916443664926 BM25b0.75
1 Q0 247 341 -0.6207940575677254 BM25b0.75
1 Q0 512 342 -0.6246124040437632 BM25b0.75
1 Q0 515 343 -0.6274446112596785 BM25b0.75
1 Q0 111 344 -0.6292182376891692 BM25b0.75
1 Q0 69 345 -0.6301939039195544 BM25b0.75
1 Q0 27 346 -0.6309944296972241 BM25b0.75
2 Q0 155 0 6.913499254333258 BM25b0.75
2 Q0 142 1 6.624279315280092 BM25b0.75
2 Q0 131 2 6.36913754058284 BM25b0.75
2 Q0 84 3 5.890952497119032 BM25b0.75
2 Q0 98 4 5.78769970053661 BM25b0.75
2 Q0 99 5 5.673442037171644 BM25b0.75
2 Q0 215 6 4.927538861050024 BM25b0.75
2 Q0 108 7 4.625347957577911 BM25b0.75
2 Q0 163 8 3.311926890493283 BM25b0.75
2 Q0 362 9 2.5170403757872117 BM25b0.75
2 Q0 493 10 2.3917443502065088 BM25b0.75
2 Q0 126 11 2.364384186163141 BM25b0.75
2 Q0 450 12 2.3426375520726506 BM25b0.75
2 Q0 195 13 2.3417019726717405 BM25b0.75
2 Q0 319 14 2.3363505994329716 BM25b0.75
2 Q0 339 15 2.2795480735576303 BM25b0.75
2 Q0 328 16 2.256325582604244 BM25b0.75
2 Q0 373 17 2.2247763157603195 BM25b0.75
2 Q0 471 18 2.2018479321120377 BM25b0.75
2 Q0 297 19 2.1952612311066875 BM25b0.75
2 Q0 100 20 2.1870580873062537 BM25b0.75
2 Q0 276 21 2.1833126150837208 BM25b0.75
2 Q0 369 22 2.150558811274169 BM25b0.75
2 Q0 288 23 2.145405725492944 BM25b0.75
2 Q0 258 24 2.1419861683382275 BM25b0.75
2 Q0 488 25 2.12946710183534 BM25b0.75
2 Q0 125 26 2.118457727816414 BM25b0.75
2 Q0 496 27 2.114355024566342 BM25b0.75
2 Q0 376 28 2.1075029435804424 BM25b0.75
2 Q0 119 29 2.1039634500833526 BM25b0.75
2 Q0 492 30 2.0689803424694655 BM25b0.75
2 Q0 407 31 2.057129872956082 BM25b0.75
2 Q0 109 32 2.0497540666363214 BM25b0.75
2 Q0 358 33 2.044685261550326 BM25b0.75
2 Q0 383 34 2.0373042666311245 BM25b0.75
2 Q0 405 35 2.017607400137539 BM25b0.75
2 Q0 507 36 1.9947963014219923 BM25b0.75
2 Q0 368 37 1.98301214730564 BM25b0.75
2 Q0 346 38 1.9639586727924425 BM25b0.75
2 Q0 372 39 1.9605068768658673 BM25b0.75
2 Q0 499 40 1.9588027281283953 BM25b0.75
2 Q0 517 41 1.9399520324205348 BM25b0.75
2 Q0 183 42 1.9266846665104076 BM25b0.75
2 Q0 361 43 1.8772939874554755 BM25b0.75
2 Q0 490 44 1.8714321622443912 BM25b0.75
2 Q0 520 45 1.853936501696671 BM25b0.75
2 Q0 526 46 1.8538756477293403 BM25b0.75
2 Q0 71 47 1.8423835910233706 BM25b0.75
2 Q0 421 48 1.817724408235251 BM25b0.75
2 Q0 452 49 1.8172979694468476 BM25b0.75
2 Q0 514 50 1.8083523642046004 BM25b0.75
2 Q0 491 51 1.8029353877795078 BM25b0.75
2 Q0 117 52 1.7944672412318647 BM25b0.75
2 Q0 494 53 1.7856543861741072 BM25b0.75
2 Q0 375 54 1.7623782746177121 BM25b0.75
2 Q0 121 55 1.7607943123896939 BM25b0.75
2 Q0 365 56 1.7585850522523518 BM25b0.75
2 Q0 37 57 1.742291244660976 BM25b0.75
2 Q0 414 58 1.7410779539477654 BM25b0.75
2 Q0 274 59 1.7393809134186182 BM25b0.75
2 Q0 143 60 1.7291107506271746 BM25b0.75
2 Q0 74 61 1.7257861698931674 BM25b0.75
2 Q0 523 62 1.6853912116089624 BM25b0.75
2 Q0 498 63 1.6568539884687898 BM25b0.75
2 Q0 122 64 1.6557533171197707 BM25b0.75
2 Q0 75 65 1.6501615623261099 BM25b0.75
2 Q0 412 66 1.6208873256245668 BM25b0.75
2 Q0 497 67 1.620525848044236 BM25b0.75
2 Q0 329 68 1.6182049142588306 BM25b0.75
2 Q0 16 69 1.6163255938846615 BM25b0.75
2 Q0 114 70 1.6108472549494304 BM25b0.75
2 Q0 97 71 1.60607918926399 BM25b0.75
2 Q0 398 72 1.596730005471301 BM25b0.75
2 Q0 86 73 1.5833354806170332 BM25b0.75
2 Q0 509 74 1.582107596860057 BM25b0.75
2 Q0 270 75 1.578631314852462 BM25b0.75
2 Q0 402 76 1.572618301930219 BM25b0.75
2 Q0 357 77 1.572267816170279 BM25b0.75
2 Q0 444 78 1.5689482432042854 BM25b0.75
2 Q0 370 79 1.5408666266546769 BM25b0.75
2 Q0 406 80 1.5099953229671959 BM25b0.75
2 Q0 244 81 1.4891942624135532 BM25b0.75
2 Q0 379 82 1.4777358393500302 BM25b0.75
2 Q0 413 83 1.4759894221213474 BM25b0.75
2 Q0 438 84 1.4682848504485753 BM25b0.75
2 Q0 272 85 1.4346090186324685 BM25b0.75
2 Q0 481 86 1.4104985464748263 BM25b0.75
2 Q0 518 87 1.4020636361497043 BM25b0.75
2 Q0 10 88 1.3411284975224185 BM25b0.75
2 Q0 513 89 1.3268390797976688 BM25b0.75
2 Q0 393 90 1.3145792342875666 BM25b0.75
2 Q0 298 91 1.294639099482414 BM25b0.75
2 Q0 350 92 1.2869378728731153 BM25b0.75
2 Q0 186 93 1.2671404815347196 BM25b0.75
2 Q0 340 94 1.258466384083516 BM25b0.75
2 Q0 374 95 1.219216872742615 BM25b0.75
2 Q0 524 96 1.2033474686779733 BM25b0.75
2 Q0 299 97 1.1553002331967401 BM25b0.75
2 Q0 309 98 1.1369074565462731 BM25b0.75
2 Q0 102 99 1.1332423746282618 BM25b0.75
2 Q0 312 100 1.105576606108092 BM25b0.75
2 Q0 401 101 1.091691320282868 BM25b0.75
2 Q0 110 102 1.0633130410156795 BM25b0.75
2 Q0 505 103 1.0427498698628366 BM25b0.75
2 Q0 416 104 1.0056188576468532 BM25b0.75
2 Q0 315 105 0.9685300611428147 BM25b0.75
2 Q0 390 106 0.9562827302654583 BM25b0.75
2 Q0 378 107 0.9358950817295566 BM25b0.75
2 Q0 308 108 0.9313442978472989 BM25b0.75
2 Q0 204 109 0.9202516427449949 BM25b0.75
2 Q0 170 110 0.9174187694725123 BM25b0.75
2 Q0 197 111 0.9170564334049057 BM25b0.75
2 Q0 510 112 0.9162270877412572 BM25b0.75
2 Q0 46 113 0.9152951279446495 BM25b0.75
2 Q0 162 114 0.9019495164636012 BM25b0.75
2 Q0 112 115 0.9017449348889015 BM25b0.75
2 Q0 103 116 0.8984428769617206 BM25b0.75
2 Q0 441 117 0.8918061630133005 BM25b0.75
2 Q0 396 118 0.890780731569961 BM25b0.75
2 Q0 58 119 0.889637750431877 BM25b0.75
2 Q0 394 120 0.8869783539517669 BM25b0.75
2 Q0 118 121 0.8803403607207018 BM25b0.75
2 Q0 25 122 0.8801657369909894 BM25b0.75
2 Q0 291 123 0.8787768333092825 BM25b0.75
2 Q0 453 124 0.8692007306944618 BM25b0.75
2 Q0 434 125 0.8624662258963326 BM25b0.75
2 Q0 521 126 0.8618216749403693 BM25b0.75
2 Q0 468 127 0.8543906219397959 BM25b0.75
2 Q0 337 128 0.8466122262339404 BM25b0.75
2 Q0 77 129 0.8443269685254488 BM25b0.75
2 Q0 420 130 0.8408106648634661 BM25b0.75
2 Q0 73 131 0.8377934910362546 BM25b0.75
2 Q0 363 132 0.8377497544313681 BM25b0.75
2 Q0 381 133 0.8359340096251 BM25b0.75
2 Q0 128 134 0.8252020436182247 BM25b0.75
2 Q0 343 135 0.820566566393207 BM25b0.75
2 Q0 83 136 0.8189230618555118 BM25b0.75
2 Q0 367 137 0.8116623774791931 BM25b0.75
2 Q0 1 138 0.8082466019789186 BM25b0.75
2 Q0 380 139 0.8025536168826521 BM25b0.75
2 Q0 28 140 0.8023099183923756 BM25b0.75
2 Q0 140 141 0.7981225462561913 BM25b0.75
2 Q0 397 142 0.7959565187968052 BM25b0.75
2 Q0 506 143 0.7941308444128984 BM25b0.75
2 Q0 168 144 0.7935053680395113 BM25b0.75
2 Q0 404 145 0.7885199456423821 BM25b0.75
2 Q0 70 146 0.7815348407184622 BM25b0.75
2 Q0 246 147 0.7803252435827044 BM25b0.75
2 Q0 403 148 0.7802057150834386 BM25b0.75
2 Q0 284 149 0.7723690213036213 BM25b0.75
2 Q0 301 150 0.7702282931771249 BM25b0.75
2 Q0 149 151 0.7669024577453618 BM25b0.75
2 Q0 352 152 0.7467228226091944 BM25b0.75
2 Q0 123 153 0.7396988612706947 BM25b0.75
2 Q0 522 154 0.7340830635942172 BM25b0.75
2 Q0 87 155 0.7274997083177034 BM25b0.75
2 Q0 3 156 0.7231807422869839 BM25b0.75
2 Q0 300 157 0.7215720997832252 BM25b0.75
2 Q0 451 158 0.7208695172809797 BM25b0.75
2 Q0 482 159 0.7200583273398666 BM25b0.75
2 Q0 127 160 0.7168526422846726 BM25b0.75
2 Q0 435 161 0.7146748695668237 BM25b0.75
2 Q0 311 162 0.7141743747379665 BM25b0.75
2 Q0 33 163 0.6892451534861634 BM25b0.75
2 Q0 476 164 0.6880397549864111 BM25b0.75
2 Q0 134 165 0.6880397549864111 BM25b0.75
2 Q0 196 166 0.6847072641680372 BM25b0.75
2 Q0 54 167 0.6792443613171192 BM25b0.75
2 Q0 200 168 0.6754329127986229 BM25b0.75
2 Q0 511 169 0.6677754279650754 BM25b0.75
2 Q0 388 170 0.6627589610763205 BM25b0.75
2 Q0 256 171 0.6616533200084168 BM25b0.75
2 Q0 338 172 0.658038000434647 BM25b0.75
2 Q0 18 173 0.6454162491060402 BM25b0.75
2 Q0 245 174 0.6305433579766202 BM25b0.75
2 Q0 364 175 0.628268947622193 BM25b0.75
2 Q0 306 176 0.6267530660318941 BM25b0.75
2 Q0 56 177 0.6244395934877879 BM25b0.75
2 Q0 55 178 0.6203863521012982 BM25b0.75
2 Q0 429 179 0.6156507552913599 BM25b0.75
2 Q0 115 180 0.5565953263372034 BM25b0.75
2 Q0 447 181 0.5522162015244623 BM25b0.75
2 Q0 192 182 0.5460381595745348 BM25b0.75
2 Q0 439 183 0.5438371179299825 BM25b0.75
2 Q0 229 184 0.5435793669268913 BM25b0.75
2 Q0 307 185 0.5402819699717073 BM25b0.75
2 Q0 158 186 0.5327225857659377 BM25b0.75
2 Q0 65 187 0.5309752800615237 BM25b0.75
2 Q0 29 188 0.49482485580691365 BM25b0.75
2 Q0 436 189 0.4689808113542812 BM25b0.75
2 Q0 428 190 0.43451723125103975 BM25b0.75
2 Q0 182 191 0.41256962950624776 BM25b0.75
2 Q0 382 192 0.39468078305648474 BM25b0.75
2 Q0 313 193 0.38409547299028535 BM25b0.75
2 Q0 377 194 0.36950407420342474 BM25b0.75
2 Q0 85 195 0.3026216637764106 BM25b0.75
2 Q0 456 196 0.28919192989772835 BM25b0.75
2 Q0 342 197 0.26747521446757777 BM25b0.75
3 Q0 420 0 7.441130179192617 BM25b0.75
3 Q0 274 1 7.23431657420242 BM25b0.75
3 Q0 97 2 5.617658483054244 BM25b0.75
3 Q0 199 3 5.222607932819186 BM25b0.75
3 Q0 380 4 4.79536706734053 BM25b0.75
3 Q0 496 5 4.576823246655193 BM25b0.75
3 Q0 346 6 4.518042723452746 BM25b0.75
3 Q0 117 7 4.396549504854814 BM25b0.75
3 Q0 200 8 4.356806081378507 BM25b0.75
3 Q0 259 9 4.2873868910871655 BM25b0.75
3 Q0 31 10 4.21321716752409 BM25b0.75
3 Q0 453 11 3.652369217691308 BM25b0.75
3 Q0 135 12 3.600013514886987 BM25b0.75
3 Q0 128 13 3.465749908577364 BM25b0.75
3 Q0 362 14 3.2055156580345843 BM25b0.75
3 Q0 10 15 3.190123902003307 BM25b0.75
3 Q0 364 16 3.0498175684180127 BM25b0.75
3 Q0 402 17 3.0125973862574495 BM25b0.75
3 Q0 112 18 2.8821883732936295 BM25b0.75
3 Q0 379 19 2.7054782197025515 BM25b0.75
3 Q0 414 20 2.638947057963767 BM25b0.75
3 Q0 450 21 2.5905894899616273 BM25b0.75
3 Q0 3 22 2.576393652184532 BM25b0.75
3 Q0 88 23 2.5618964567526668 BM25b0.75
3 Q0 367 24 2.558019442161419 BM25b0.75
3 Q0 361 25 2.533515825249384 BM25b0.75
3 Q0 33 26 2.455495195606325 BM25b0.75
3 Q0 306 27 2.445572150199994 BM25b0.75
3 Q0 339 28 2.424203560985429 BM25b0.75
3 Q0 444 29 2.376240385156608 BM25b0.75
3 Q0 100 30 2.3427734993287577 BM25b0.75
3 Q0 372 31 2.339804622984647 BM25b0.75
3 Q0 373 32 2.3355648345298663 BM25b0.75
3 Q0 468 33 2.302051666151288 BM25b0.75
3 Q0 15 34 2.2955849822463263 BM25b0.75
3 Q0 522 35 2.2948310673432437 BM25b0.75
3 Q0 74 36 2.264937483158863 BM25b0.75
3 Q0 334 37 2.2451859080524676 BM25b0.75
3 Q0 423 38 2.206805071005992 BM25b0.75
3 Q0 114 39 2.194976309240418 BM25b0.75
3 Q0 416 40 2.1005226378086257 BM25b0.75
3 Q0 140 41 2.067927504563098 BM25b0.75
3 Q0 354 42 2.0379669719875517 BM25b0.75
3 Q0 374 43 2.0298607086294846 BM25b0.75
3 Q0 394 44 2.014901715764143 BM25b0.75
3 Q0 403 45 1.992685870924917 BM25b0.75
3 Q0 305 46 1.984917144868083 BM25b0.75
3 Q0 5 47 1.9817606513979573 BM25b0.75
3 Q0 118 48 1.9720298786319523 BM25b0.75
3 Q0 490 49 1.9211078841957752 BM25b0.75
3 Q0 208 50 1.8735041786037185 BM25b0.75
3 Q0 363 51 1.8671338235187402 BM25b0.75
3 Q0 95 52 1.8556072195347857 BM25b0.75
3 Q0 186 53 1.8531079721142703 BM25b0.75
3 Q0 491 54 1.838538085867746 BM25b0.75
3 Q0 412 55 1.8348046637822943 BM25b0.75
3 Q0 126 56 1.814275015823958 BM25b0.75
3 Q0 25 57 1.7974733550340747 BM25b0.75
3 Q0 143 58 1.7504676638158083 BM25b0.75
3 Q0 121 59 1.6922807937738225 BM25b0.75
3 Q0 85 60 1.6623097575742225 BM25b0.75
3 Q0 518 61 1.567520947794732 BM25b0.75
3 Q0 119 62 1.5303559621090435 BM25b0.75
3 Q0 398 63 1.3640335219934305 BM25b0.75
3 Q0 29 64 1.3532662156039332 BM25b0.75
3 Q0 514 65 1.267160565896166 BM25b0.75
3 Q0 365 66 1.2081807939232843 BM25b0.75
3 Q0 482 67 1.2077109516492546 BM25b0.75
3 Q0 436 68 1.1786861649303417 BM25b0.75
3 Q0 276 69 1.151170394832763 BM25b0.75
3 Q0 369 70 1.1400485447104527 BM25b0.75
3 Q0 507 71 1.124858755620517 BM25b0.75
3 Q0 73 72 1.0913861657766242 BM25b0.75
3 Q0 521 73 1.023560849521263 BM25b0.75
3 Q0 513 74 0.9539669561476583 BM25b0.75
3 Q0 435 75 0.867157108046207 BM25b0.75
3 Q0 125 76 0.8591345139746962 BM25b0.75
3 Q0 517 77 0.8029730853385169 BM25b0.75
3 Q0 46 78 0.5760643635932079 BM25b0.75
3 Q0 407 79 0.48905832624860335 BM25b0.75
3 Q0 272 80 0.25138442774708813 BM25b0.75
4 Q0 468 0 4.623862823780363 BM25b0.75
4 Q0 378 1 4.280152173405294 BM25b0.75
4 Q0 369 2 3.8199019464742765 BM25b0.75
4 Q0 215 3 3.6204039080836896 BM25b0.75
4 Q0 490 4 3.5393570880837704 BM25b0.75
4 Q0 368 5 3.506200521790718 BM25b0.75
4 Q0 491 6 3.49296691785995 BM25b0.75
4 Q0 168 7 3.3346412346779206 BM25b0.75
4 Q0 362 8 3.153785452594501 BM25b0.75
4 Q0 46 9 2.9929873377209844 BM25b0.75
4 Q0 37 10 2.9554890557402547 BM25b0.75
4 Q0 140 11 2.900993655388939 BM25b0.75
4 Q0 444 12 2.8830147504608084 BM25b0.75
4 Q0 17 13 2.806957101580982 BM25b0.75
4 Q0 421 14 2.7267178195766792 BM25b0.75
4 Q0 270 15 2.636184325259515 BM25b0.75
4 Q0 526 16 2.629852431872634 BM25b0.75
4 Q0 18 17 1.9752802277113402 BM25b0.75
4 Q0 65 18 1.4206114556813665 BM25b0.75
4 Q0 517 19 1.417991812429649 BM25b0.75
4 Q0 456 20 1.1028099007490337 BM25b0.75
4 Q0 85 21 1.0556336610921617 BM25b0.75
4 Q0 291 22 1.0435401339775165 BM25b0.75
4 Q0 186 23 0.9830969384339449 BM25b0.75
4 Q0 119 24 0.9077892397424397 BM25b0.75
4 Q0 112 25 0.9017449348889015 BM25b0.75
4 Q0 394 26 0.8869783539517669 BM25b0.75
4 Q0 131 27 0.8520632366469307 BM25b0.75
4 Q0 361 28 0.8485869671958224 BM25b0.75
4 Q0 77 29 0.8443269685254488 BM25b0.75
4 Q0 381 30 0.8359340096251 BM25b0.75
4 Q0 1 31 0.8082466019789186 BM25b0.75
4 Q0 183 32 0.7791456651171719 BM25b0.75
4 Q0 342 33 0.7688500626908985 BM25b0.75
4 Q0 352 34 0.7467228226091944 BM25b0.75
4 Q0 127 35 0.7168526422846726 BM25b0.75
4 Q0 33 36 0.6892451534861634 BM25b0.75
4 Q0 476 37 0.6880397549864111 BM25b0.75
4 Q0 196 38 0.6847072641680372 BM25b0.75
4 Q0 412 39 0.6841061867460375 BM25b0.75
4 Q0 54 40 0.6792443613171192 BM25b0.75
4 Q0 99 41 0.6778732750383506 BM25b0.75
4 Q0 338 42 0.658038000434647 BM25b0.75
4 Q0 370 43 0.6576287091022573 BM25b0.75
4 Q0 155 44 0.6561556676012096 BM25b0.75
4 Q0 195 45 0.65306146350775 BM25b0.75
4 Q0 413 46 0.6356535410554572 BM25b0.75
4 Q0 142 47 0.6257272456060602 BM25b0.75
4 Q0 56 48 0.6244395934877879 BM25b0.75
4 Q0 414 49 0.6176400065466445 BM25b0.75
4 Q0 433 50 0.6063017620317422 BM25b0.75
4 Q0 329 51 0.5740513177887392 BM25b0.75
4 Q0 521 52 0.5706544330068503 BM25b0.75
4 Q0 452 53 0.5374658149810801 BM25b0.75
4 Q0 158 54 0.5327225857659377 BM25b0.75
4 Q0 324 55 0.5312881740402576 BM25b0.75
4 Q0 276 56 0.48857180459702104 BM25b0.75
4 Q0 288 57 0.4867282277217524 BM25b0.75
4 Q0 319 58 0.4833652302496327 BM25b0.75
4 Q0 416 59 0.4828224232228038 BM25b0.75
4 Q0 74 60 0.4722285114207761 BM25b0.75
4 Q0 103 61 0.46723271615959494 BM25b0.75
4 Q0 379 62 0.44389967287739246 BM25b0.75
4 Q0 407 63 0.43655453421090856 BM25b0.75
4 Q0 71 64 0.43655175233189036 BM25b0.75
4 Q0 365 65 0.4363171444397783 BM25b0.75
4 Q0 337 66 0.4353926894170649 BM25b0.75
4 Q0 84 67 0.4312063261406429 BM25b0.75
4 Q0 363 68 0.4284026562988082 BM25b0.75
4 Q0 125 69 0.4261589306041452 BM25b0.75
4 Q0 390 70 0.4069206458890462 BM25b0.75
4 Q0 16 71 0.40379864335963256 BM25b0.75
4 Q0 126 72 0.4010276714853011 BM25b0.75
4 Q0 402 73 0.39726180563068353 BM25b0.75
4 Q0 453 74 0.3968335051536405 BM25b0.75
4 Q0 358 75 0.39656057206621553 BM25b0.75
4 Q0 382 76 0.39468078305648474 BM25b0.75
4 Q0 55 77 0.39418196833627517 BM25b0.75
4 Q0 246 78 0.39387065503366353 BM25b0.75
4 Q0 441 79 0.3765273303533926 BM25b0.75
4 Q0 376 80 0.3762892557564862 BM25b0.75
4 Q0 258 81 0.37569184846925 BM25b0.75
4 Q0 83 82 0.3740680862101252 BM25b0.75
4 Q0 100 83 0.37278111427757576 BM25b0.75
4 Q0 149 84 0.36736947795050107 BM25b0.75
4 Q0 117 85 0.362324039719234 BM25b0.75
4 Q0 498 86 0.36002085115789173 BM25b0.75
4 Q0 488 87 0.3590667976105275 BM25b0.75
4 Q0 297 88 0.3589480644642631 BM25b0.75
4 Q0 143 89 0.35800035551702725 BM25b0.75
4 Q0 346 90 0.3573758969839572 BM25b0.75
4 Q0 25 91 0.3558320102233853 BM25b0.75
4 Q0 375 92 0.3521175451656125 BM25b0.75
4 Q0 58 93 0.3460613883314425 BM25b0.75
4 Q0 388 94 0.34364823410023415 BM25b0.75
4 Q0 272 95 0.34305967487543 BM25b0.75
4 Q0 73 96 0.3378615725161066 BM25b0.75
4 Q0 364 97 0.33317115860742236 BM25b0.75
4 Q0 380 98 0.3311412188556367 BM25b0.75
4 Q0 197 99 0.3310111651924065 BM25b0.75
4 Q0 493 100 0.33060929548039486 BM25b0.75
4 Q0 244 101 0.3298632407163447 BM25b0.75
4 Q0 510 102 0.32593243516904025 BM25b0.75
4 Q0 499 103 0.3227684124981173 BM25b0.75
4 Q0 373 104 0.322082166702816 BM25b0.75
4 Q0 496 105 0.32198525563318303 BM25b0.75
4 Q0 522 106 0.3156080145563339 BM25b0.75
4 Q0 122 107 0.312953668322201 BM25b0.75
4 Q0 450 108 0.3099050775402823 BM25b0.75
4 Q0 118 109 0.3084209596588279 BM25b0.75
4 Q0 405 110 0.2919970306940729 BM25b0.75
4 Q0 300 111 0.28464144611416786 BM25b0.75
4 Q0 298 112 0.2811557420004695 BM25b0.75
4 Q0 404 113 0.2762523328432366 BM25b0.75
4 Q0 420 114 0.27482498104241704 BM25b0.75
4 Q0 403 115 0.2733395015313621 BM25b0.75
4 Q0 434 116 0.2720090387775881 BM25b0.75
4 Q0 328 117 0.27091217459723416 BM25b0.75
4 Q0 284 118 0.27059397182039346 BM25b0.75
4 Q0 520 119 0.27039066966061565 BM25b0.75
4 Q0 301 120 0.26984398300629187 BM25b0.75
4 Q0 471 121 0.2690881097278319 BM25b0.75
4 Q0 114 122 0.2641566095064959 BM25b0.75
4 Q0 274 123 0.2639890441120347 BM25b0.75
4 Q0 123 124 0.25914821452112147 BM25b0.75
4 Q0 367 125 0.25615894985493026 BM25b0.75
4 Q0 357 126 0.25516648905791234 BM25b0.75
4 Q0 87 127 0.2548743283872332 BM25b0.75
4 Q0 383 128 0.25320155475136313 BM25b0.75
4 Q0 311 129 0.2502058929118088 BM25b0.75
4 Q0 134 130 0.24104981548569315 BM25b0.75
4 Q0 482 131 0.22314740831629876 BM25b0.75
4 Q0 121 132 0.22306013658565227 BM25b0.75
4 Q0 115 133 0.22228674676615867 BM25b0.75
4 Q0 343 134 0.22088986787713505 BM25b0.75
4 Q0 507 135 0.21936365349854892 BM25b0.75
4 Q0 28 136 0.21920106547748264 BM25b0.75
4 Q0 429 137 0.21568884630734875 BM25b0.75
4 Q0 70 138 0.2069693169372574 BM25b0.75
4 Q0 451 139 0.20201264203898628 BM25b0.75
4 Q0 492 140 0.19424808769183805 BM25b0.75
4 Q0 447 141 0.1934650033242788 BM25b0.75
4 Q0 372 142 0.18982721477714437 BM25b0.75
4 Q0 299 143 0.18945941164622704 BM25b0.75
4 Q0 506 144 0.1866611699073133 BM25b0.75
4 Q0 523 145 0.18141350172559823 BM25b0.75
4 Q0 3 146 0.17370241250482021 BM25b0.75
4 Q0 398 147 0.16937166042880902 BM25b0.75
4 Q0 200 148 0.1683082597213239 BM25b0.75
4 Q0 514 149 0.15425960112275416 BM25b0.75
4 Q0 307 150 0.152907710899309 BM25b0.75
4 Q0 98 151 0.15246144201449208 BM25b0.75
4 Q0 377 152 0.12945311410051666 BM25b0.75
4 Q0 374 153 0.12564399493464184 BM25b0.75
4 Q0 513 154 0.10476551519968158 BM25b0.75
4 Q0 511 155 0.09244156837439466 BM25b0.75
4 Q0 86 156 0.0912939401649544 BM25b0.75
4 Q0 75 157 0.08862748680493615 BM25b0.75
4 Q0 339 158 0.07325750908042283 BM25b0.75
4 Q0 438 159 0.07309477690037275 BM25b0.75
4 Q0 494 160 0.056509397366055314 BM25b0.75
4 Q0 306 161 0.054504233300626814 BM25b0.75
4 Q0 340 162 0.05137209116183372 BM25b0.75
4 Q0 182 163 0.03105634315469019 BM25b0.75
4 Q0 245 164 0.022335355143123792 BM25b0.75
4 Q0 109 165 0.02060863939088653 BM25b0.75
4 Q0 97 166 0.01926537573187792 BM25b0.75
4 Q0 439 167 6.844268252328423E-4 BM25b0.75
4 Q0 229 168 5.256425200089732E-4 BM25b0.75
4 Q0 524 169 -0.025727195466328845 BM25b0.75
4 Q0 509 170 -0.042548267353507474 BM25b0.75
4 Q0 497 171 -0.04607688833353002 BM25b0.75
4 Q0 518 172 -0.049661207800683116 BM25b0.75
4 Q0 481 173 -0.0824618119769775 BM25b0.75
4 Q0 428 174 -0.09721678860878397 BM25b0.75
4 Q0 102 175 -0.10435353064269332 BM25b0.75
4 Q0 436 176 -0.1653510158493034 BM25b0.75
4 Q0 505 177 -0.18866335073763096 BM25b0.75
4 Q0 313 178 -0.19119066953635167 BM25b0.75
4 Q0 248 179 -0.2689396668541909 BM25b0.75
4 Q0 128 180 -0.29473440864581557 BM25b0.75
4 Q0 192 181 -0.30125706466331525 BM25b0.75
4 Q0 154 182 -0.32723939364973725 BM25b0.75
4 Q0 308 183 -0.33264485103319924 BM25b0.75
4 Q0 293 184 -0.3386931258767504 BM25b0.75
4 Q0 317 185 -0.3419573650924685 BM25b0.75
4 Q0 315 186 -0.3459263546839799 BM25b0.75
4 Q0 263 187 -0.3604868681642884 BM25b0.75
4 Q0 305 188 -0.36196054313333276 BM25b0.75
4 Q0 110 189 -0.3797796464184844 BM25b0.75
4 Q0 401 190 -0.38991541307452304 BM25b0.75
4 Q0 213 191 -0.38991541307452304 BM25b0.75
4 Q0 222 192 -0.3901195645262607 BM25b0.75
4 Q0 226 193 -0.39466561275116324 BM25b0.75
4 Q0 312 194 -0.394874770044401 BM25b0.75
4 Q0 90 195 -0.3957136208300388 BM25b0.75
4 Q0 397 196 -0.39770225523665403 BM25b0.75
4 Q0 93 197 -0.3999619089840112 BM25b0.75
4 Q0 250 198 -0.4032084723186383 BM25b0.75
4 Q0 309 199 -0.40606509579272165 BM25b0.75
4 Q0 484 200 -0.4144215895984478 BM25b0.75
4 Q0 366 201 -0.4148831010188188 BM25b0.75
4 Q0 408 202 -0.42457590169196435 BM25b0.75
4 Q0 458 203 -0.4253029433949262 BM25b0.75
4 Q0 289 204 -0.4270090960789683 BM25b0.75
4 Q0 269 205 -0.42749908544058696 BM25b0.75
4 Q0 225 206 -0.4319601210321822 BM25b0.75
4 Q0 422 207 -0.4325657980515676 BM25b0.75
4 Q0 527 208 -0.43496470909602114 BM25b0.75
4 Q0 384 209 -0.4380550397187695 BM25b0.75
4 Q0 281 210 -0.4401250815686812 BM25b0.75
4 Q0 392 211 -0.44779584366595243 BM25b0.75
4 Q0 201 212 -0.44995919730023415 BM25b0.75
4 Q0 467 213 -0.44995919730023415 BM25b0.75
4 Q0 331 214 -0.45434922485735213 BM25b0.75
4 Q0 295 215 -0.45546014925805833 BM25b0.75
4 Q0 345 216 -0.46052728565614853 BM25b0.75
4 Q0 108 217 -0.4622414792601934 BM25b0.75
4 Q0 334 218 -0.46281571649200154 BM25b0.75
4 Q0 261 219 -0.466266594939781 BM25b0.75
4 Q0 144 220 -0.46716840066066934 BM25b0.75
4 Q0 45 221 -0.4734015388936081 BM25b0.75
4 Q0 442 222 -0.4752131028091493 BM25b0.75
4 Q0 39 223 -0.4752131028091493 BM25b0.75
4 Q0 193 224 -0.4758200424071425 BM25b0.75
4 Q0 96 225 -0.4761614781472964 BM25b0.75
4 Q0 460 226 -0.477344195953645 BM25b0.75
4 Q0 23 227 -0.4776501991397754 BM25b0.75
4 Q0 53 228 -0.4776501991397754 BM25b0.75
4 Q0 189 229 -0.4776501991397754 BM25b0.75
4 Q0 266 230 -0.47795659490642184 BM25b0.75
4 Q0 171 231 -0.47977707072317494 BM25b0.75
4 Q0 454 232 -0.47980325616745717 BM25b0.75
4 Q0 314 233 -0.48353972128156336 BM25b0.75
4 Q0 318 234 -0.483853721956003 BM25b0.75
4 Q0 503 235 -0.48416813070650055 BM25b0.75
4 Q0 57 236 -0.4844829483290781 BM25b0.75
4 Q0 455 237 -0.4847981756218296 BM25b0.75
4 Q0 294 238 -0.4857463235332854 BM25b0.75
4 Q0 59 239 -0.4870163049140445 BM25b0.75
4 Q0 20 240 -0.4870163049140445 BM25b0.75
4 Q0 470 241 -0.48733483855041476 BM25b0.75
4 Q0 185 242 -0.48861315077218964 BM25b0.75
4 Q0 478 243 -0.4889337773587761 BM25b0.75
4 Q0 400 244 -0.4892548250102076 BM25b0.75
4 Q0 68 245 -0.4892548250102076 BM25b0.75
4 Q0 349 246 -0.4892548250102076 BM25b0.75
4 Q0 162 247 -0.48964717903398225 BM25b0.75
4 Q0 105 248 -0.49083900148348264 BM25b0.75
4 Q0 303 249 -0.4911899999134107 BM25b0.75
4 Q0 253 250 -0.4918109490812697 BM25b0.75
4 Q0 36 251 -0.4918384646155792 BM25b0.75
4 Q0 8 252 -0.4921633394638047 BM25b0.75
4 Q0 355 253 -0.49248864377591167 BM25b0.75
4 Q0 170 254 -0.4938662839600503 BM25b0.75
4 Q0 335 255 -0.4950787592957432 BM25b0.75
4 Q0 21 256 -0.4970884791951832 BM25b0.75
4 Q0 4 257 -0.49808535961986267 BM25b0.75
4 Q0 389 258 -0.49892764034801745 BM25b0.75
4 Q0 19 259 -0.5000911638687281 BM25b0.75
4 Q0 9 260 -0.5004270362435324 BM25b0.75
4 Q0 489 261 -0.5017750494832278 BM25b0.75
4 Q0 11 262 -0.5017750494832278 BM25b0.75
4 Q0 419 263 -0.5021131883009946 BM25b0.75
4 Q0 26 264 -0.5021131883009946 BM25b0.75
4 Q0 218 265 -0.5024517831596216 BM25b0.75
4 Q0 174 266 -0.5027908349823108 BM25b0.75
4 Q0 487 267 -0.5031303446947581 BM25b0.75
4 Q0 282 268 -0.5031303446947581 BM25b0.75
4 Q0 265 269 -0.5039994204303264 BM25b0.75
4 Q0 259 270 -0.5044929810437822 BM25b0.75
4 Q0 5 271 -0.5051480426453393 BM25b0.75
4 Q0 47 272 -0.5058339112921623 BM25b0.75
4 Q0 310 273 -0.5094654974902765 BM25b0.75
4 Q0 101 274 -0.5096220049099688 BM25b0.75
4 Q0 146 275 -0.510561110423802 BM25b0.75
4 Q0 52 276 -0.51428570440272 BM25b0.75
4 Q0 135 277 -0.5165290613093019 BM25b0.75
4 Q0 485 278 -0.5179500849193407 BM25b0.75
4 Q0 252 279 -0.5185060108514512 BM25b0.75
4 Q0 472 280 -0.5269398835500188 BM25b0.75
4 Q0 10 281 -0.5275511545215344 BM25b0.75
4 Q0 107 282 -0.5276028601312486 BM25b0.75
4 Q0 391 283 -0.5289974871382359 BM25b0.75
4 Q0 359 284 -0.529091075640052 BM25b0.75
4 Q0 95 285 -0.5321984792043097 BM25b0.75
4 Q0 42 286 -0.5324520196139919 BM25b0.75
4 Q0 316 287 -0.5371002813769367 BM25b0.75
4 Q0 371 288 -0.5377790057861173 BM25b0.75
4 Q0 175 289 -0.5393360740163988 BM25b0.75
4 Q0 35 290 -0.5405640823003814 BM25b0.75
4 Q0 417 291 -0.5407059239103404 BM25b0.75
4 Q0 198 292 -0.5430704980067551 BM25b0.75
4 Q0 29 293 -0.5463501415521564 BM25b0.75
4 Q0 290 294 -0.5478622370905792 BM25b0.75
4 Q0 51 295 -0.5496344626319714 BM25b0.75
4 Q0 262 296 -0.550900252274382 BM25b0.75
4 Q0 285 297 -0.550900252274382 BM25b0.75
4 Q0 41 298 -0.5511039850330983 BM25b0.75
4 Q0 190 299 -0.5514888377279787 BM25b0.75
4 Q0 457 300 -0.551491144163287 BM25b0.75
4 Q0 153 301 -0.5523295530712673 BM25b0.75
4 Q0 132 302 -0.5539546944654673 BM25b0.75
4 Q0 463 303 -0.5558142140159936 BM25b0.75
4 Q0 88 304 -0.5561684413040056 BM25b0.75
4 Q0 176 305 -0.5568703217519937 BM25b0.75
4 Q0 475 306 -0.5570784949479762 BM25b0.75
4 Q0 287 307 -0.5574953086139454 BM25b0.75
4 Q0 91 308 -0.5585223339170352 BM25b0.75
4 Q0 448 309 -0.5644639109268097 BM25b0.75
4 Q0 435 310 -0.5666908586892253 BM25b0.75
4 Q0 469 311 -0.5668256543080663 BM25b0.75
4 Q0 322 312 -0.5674732000501325 BM25b0.75
4 Q0 7 313 -0.5679057197946112 BM25b0.75
4 Q0 256 314 -0.5686242602807892 BM25b0.75
4 Q0 227 315 -0.5694726881062209 BM25b0.75
4 Q0 166 316 -0.5696239569781406 BM25b0.75
4 Q0 446 317 -0.5773480651770989 BM25b0.75
4 Q0 223 318 -0.5774163142120321 BM25b0.75
4 Q0 465 319 -0.5786445300669297 BM25b0.75
4 Q0 163 320 -0.5806285556065143 BM25b0.75
4 Q0 202 321 -0.5819387867589036 BM25b0.75
4 Q0 283 322 -0.5862119857151803 BM25b0.75
4 Q0 459 323 -0.5877359127053701 BM25b0.75
4 Q0 321 324 -0.5883211149764164 BM25b0.75
4 Q0 271 325 -0.5890749450961326 BM25b0.75
4 Q0 34 326 -0.5899249931245893 BM25b0.75
4 Q0 228 327 -0.5905484054334529 BM25b0.75
4 Q0 120 328 -0.5942428143125563 BM25b0.75
4 Q0 330 329 -0.5946329241010694 BM25b0.75
4 Q0 43 330 -0.5951011392384675 BM25b0.75
4 Q0 473 331 -0.5958149412532714 BM25b0.75
4 Q0 72 332 -0.5988276242548213 BM25b0.75
4 Q0 502 333 -0.5989279739589709 BM25b0.75
4 Q0 94 334 -0.5995303672629619 BM25b0.75
4 Q0 220 335 -0.603190604463336 BM25b0.75
4 Q0 519 336 -0.6068547586894609 BM25b0.75
4 Q0 104 337 -0.6069678714167365 BM25b0.75
4 Q0 49 338 -0.6111199271859735 BM25b0.75
4 Q0 464 339 -0.6114103245166032 BM25b0.75
4 Q0 116 340 -0.6128631207143572 BM25b0.75
4 Q0 217 341 -0.6141596980478755 BM25b0.75
4 Q0 500 342 -0.6149305180971704 BM25b0.75
4 Q0 66 343 -0.6160653291004494 BM25b0.75
4 Q0 204 344 -0.6170158598823285 BM25b0.75
4 Q0 184 345 -0.6196916443664926 BM25b0.75
4 Q0 247 346 -0.6207940575677254 BM25b0.75
4 Q0 512 347 -0.6246124040437632 BM25b0.75
4 Q0 515 348 -0.6274446112596785 BM25b0.75
4 Q0 111 349 -0.6292182376891692 BM25b0.75
4 Q0 69 350 -0.6301939039195544 BM25b0.75
4 Q0 27 351 -0.6309944296972241 BM25b0.75
4 Q0 501 352 -0.6386692482008421 BM25b0.75
5 Q0 441 0 6.361389404501869 BM25b0.75
5 Q0 123 1 5.25046675490651 BM25b0.75
5 Q0 270 2 4.904599314457915 BM25b0.75
5 Q0 132 3 4.433532826247397 BM25b0.75
5 Q0 359 4 4.172904887186933 BM25b0.75
5 Q0 189 5 3.835895236940044 BM25b0.75
5 Q0 153 6 3.82831982914249 BM25b0.75
5 Q0 33 7 3.771169098949398 BM25b0.75
5 Q0 53 8 3.768497568285551 BM25b0.75
5 Q0 193 9 3.7639243681138246 BM25b0.75
5 Q0 128 10 3.7580166586604995 BM25b0.75
5 Q0 167 11 3.7237984249745066 BM25b0.75
5 Q0 381 12 3.6064114692490703 BM25b0.75
5 Q0 154 13 3.6051235640241392 BM25b0.75
5 Q0 88 14 3.5871152630871204 BM25b0.75
5 Q0 426 15 3.491067908870823 BM25b0.75
5 Q0 207 16 3.473217566872354 BM25b0.75
5 Q0 43 17 3.3761803828359933 BM25b0.75
5 Q0 83 18 3.321940365878111 BM25b0.75
5 Q0 11 19 3.1330950961483186 BM25b0.75
5 Q0 222 20 3.0648101577191715 BM25b0.75
5 Q0 179 21 3.034989926593115 BM25b0.75
5 Q0 171 22 2.995739204401054 BM25b0.75
5 Q0 198 23 2.8755430980830465 BM25b0.75
5 Q0 130 24 2.85948695918639 BM25b0.75
5 Q0 74 25 2.8267420484266204 BM25b0.75
5 Q0 510 26 2.7940331735438866 BM25b0.75
5 Q0 195 27 2.7402997297067886 BM25b0.75
5 Q0 162 28 2.7056632027541063 BM25b0.75
5 Q0 126 29 2.6681825649675597 BM25b0.75
5 Q0 394 30 2.6610208972759386 BM25b0.75
5 Q0 506 31 2.595659823512092 BM25b0.75
5 Q0 420 32 2.579179231716464 BM25b0.75
5 Q0 450 33 2.5700553759405382 BM25b0.75
5 Q0 346 34 2.5604713147784914 BM25b0.75
5 Q0 362 35 2.5519786308196295 BM25b0.75
5 Q0 376 36 2.537612187211865 BM25b0.75
5 Q0 276 37 2.518500276963313 BM25b0.75
5 Q0 494 38 2.4972329889377507 BM25b0.75
5 Q0 407 39 2.495000412781218 BM25b0.75
5 Q0 372 40 2.4843067003554618 BM25b0.75
5 Q0 272 41 2.483993032980047 BM25b0.75
5 Q0 114 42 2.4669693572190043 BM25b0.75
5 Q0 498 43 2.414817103545511 BM25b0.75
5 Q0 334 44 2.4135674203534165 BM25b0.75
5 Q0 402 45 2.4082385131041577 BM25b0.75
5 Q0 367 46 2.387334652904001 BM25b0.75
5 Q0 46 47 2.372064686318727 BM25b0.75
5 Q0 200 48 2.3449566336490038 BM25b0.75
5 Q0 299 49 2.3383933063890945 BM25b0.75
5 Q0 365 50 2.331209209868975 BM25b0.75
5 Q0 312 51 2.3257336331418412 BM25b0.75
5 Q0 358 52 2.2989221506297053 BM25b0.75
5 Q0 514 53 2.277764275184473 BM25b0.75
5 Q0 110 54 2.2690232699466057 BM25b0.75
5 Q0 339 55 2.2536435529705003 BM25b0.75
5 Q0 468 56 2.2507574190554047 BM25b0.75
5 Q0 490 57 2.2467060403401464 BM25b0.75
5 Q0 363 58 2.2218712502893365 BM25b0.75
5 Q0 393 59 2.207880805519732 BM25b0.75
5 Q0 491 60 2.1831079813042336 BM25b0.75
5 Q0 378 61 2.179736402376242 BM25b0.75
5 Q0 375 62 2.1735787044097554 BM25b0.75
5 Q0 306 63 2.1722429224491755 BM25b0.75
5 Q0 357 64 2.14251765186763 BM25b0.75
5 Q0 117 65 2.139834104108054 BM25b0.75
5 Q0 520 66 2.0781805063290832 BM25b0.75
5 Q0 329 67 2.066701789558111 BM25b0.75
5 Q0 170 68 2.0459861101457713 BM25b0.75
5 Q0 380 69 2.0393195768593655 BM25b0.75
5 Q0 298 70 2.0370301285332366 BM25b0.75
5 Q0 338 71 2.0102658762919385 BM25b0.75
5 Q0 368 72 1.9942472025479536 BM25b0.75
5 Q0 416 73 1.981759891089729 BM25b0.75
5 Q0 100 74 1.9631319684496824 BM25b0.75
5 Q0 97 75 1.9533111386616022 BM25b0.75
5 Q0 379 76 1.9191663253578333 BM25b0.75
5 Q0 309 77 1.9094749753301477 BM25b0.75
5 Q0 517 78 1.8674812591574246 BM25b0.75
5 Q0 523 79 1.8670508991923662 BM25b0.75
5 Q0 524 80 1.8349103825449047 BM25b0.75
5 Q0 307 81 1.8122398069889039 BM25b0.75
5 Q0 507 82 1.7890266600879086 BM25b0.75
5 Q0 186 83 1.7791582565941249 BM25b0.75
5 Q0 471 84 1.7732172718929897 BM25b0.75
5 Q0 86 85 1.715902761119413 BM25b0.75
5 Q0 244 86 1.6938498314180097 BM25b0.75
5 Q0 398 87 1.677027768716283 BM25b0.75
5 Q0 229 88 1.660601745898761 BM25b0.75
5 Q0 315 89 1.6266793783069105 BM25b0.75
5 Q0 73 90 1.6204274370244842 BM25b0.75
5 Q0 492 91 1.6086157067496354 BM25b0.75
5 Q0 435 92 1.6063587639414676 BM25b0.75
5 Q0 321 93 1.6043314229081882 BM25b0.75
5 Q0 109 94 1.6034796552418922 BM25b0.75
5 Q0 438 95 1.5912193340180059 BM25b0.75
5 Q0 102 96 1.5895853495519003 BM25b0.75
5 Q0 397 97 1.568857777664509 BM25b0.75
5 Q0 308 98 1.5642246164505327 BM25b0.75
5 Q0 369 99 1.5308006551921047 BM25b0.75
5 Q0 66 100 1.5280118506197327 BM25b0.75
5 Q0 220 101 1.5132690343044262 BM25b0.75
5 Q0 72 102 1.4961123741221838 BM25b0.75
5 Q0 125 103 1.4960844973126892 BM25b0.75
5 Q0 513 104 1.490071303883881 BM25b0.75
5 Q0 526 105 1.4667749655200475 BM25b0.75
5 Q0 290 106 1.4554409010114857 BM25b0.75
5 Q0 319 107 1.4304169314541084 BM25b0.75
5 Q0 184 108 1.4209188740947336 BM25b0.75
5 Q0 476 109 1.417400835657681 BM25b0.75
5 Q0 340 110 1.4145098187860938 BM25b0.75
5 Q0 373 111 1.381908235078238 BM25b0.75
5 Q0 374 112 1.3637166496293158 BM25b0.75
5 Q0 316 113 1.3627149328181112 BM25b0.75
5 Q0 405 114 1.3379273476685092 BM25b0.75
5 Q0 414 115 1.3271215485975467 BM25b0.75
5 Q0 4 116 1.3232045494420672 BM25b0.75
5 Q0 58 117 1.3075728647762226 BM25b0.75
5 Q0 370 118 1.2869740618341146 BM25b0.75
5 Q0 497 119 1.2554128104335198 BM25b0.75
5 Q0 403 120 1.2450005600984804 BM25b0.75
5 Q0 451 121 1.2398835063767462 BM25b0.75
5 Q0 89 122 1.238823860484253 BM25b0.75
5 Q0 1 123 1.2260696120241268 BM25b0.75
5 Q0 175 124 1.215761311362406 BM25b0.75
5 Q0 121 125 1.2136135525863139 BM25b0.75
5 Q0 95 126 1.206844199871999 BM25b0.75
5 Q0 350 127 1.202623733315629 BM25b0.75
5 Q0 301 128 1.1990491237267824 BM25b0.75
5 Q0 75 129 1.197099475543142 BM25b0.75
5 Q0 317 130 1.1941446397742408 BM25b0.75
5 Q0 24 131 1.1855045978500987 BM25b0.75
5 Q0 313 132 1.1617565221695583 BM25b0.75
5 Q0 194 133 1.1600557119721764 BM25b0.75
5 Q0 255 134 1.1600557119721764 BM25b0.75
5 Q0 455 135 1.1448092096835238 BM25b0.75
5 Q0 388 136 1.1438340833492766 BM25b0.75
5 Q0 23 137 1.1350064244503473 BM25b0.75
5 Q0 119 138 1.1349799487260743 BM25b0.75
5 Q0 108 139 1.1134506878134431 BM25b0.75
5 Q0 429 140 1.1112631588781081 BM25b0.75
5 Q0 406 141 1.1033423122744048 BM25b0.75
5 Q0 337 142 1.0924383771304298 BM25b0.75
5 Q0 183 143 1.0888328353035368 BM25b0.75
5 Q0 196 144 1.0883633827404617 BM25b0.75
5 Q0 271 145 1.087636271070141 BM25b0.75
5 Q0 281 146 1.0814576312467314 BM25b0.75
5 Q0 25 147 1.0726842882284386 BM25b0.75
5 Q0 485 148 1.0596246051244664 BM25b0.75
5 Q0 143 149 1.059266837356655 BM25b0.75
5 Q0 90 150 1.0512456414260363 BM25b0.75
5 Q0 35 151 1.0512456414260363 BM25b0.75
5 Q0 296 152 1.0506876353091603 BM25b0.75
5 Q0 488 153 1.0478594494634252 BM25b0.75
5 Q0 92 154 1.0401332161443877 BM25b0.75
5 Q0 246 155 1.0371080333250866 BM25b0.75
5 Q0 37 156 1.0363845727195728 BM25b0.75
5 Q0 199 157 1.0358921507261223 BM25b0.75
5 Q0 499 158 1.0299795253780242 BM25b0.75
5 Q0 521 159 1.0269497524928184 BM25b0.75
5 Q0 91 160 1.0109769198064291 BM25b0.75
5 Q0 300 161 1.0079965705792235 BM25b0.75
5 Q0 511 162 1.0026008785406189 BM25b0.75
5 Q0 20 163 0.9963401393477621 BM25b0.75
5 Q0 57 164 0.9911573870920065 BM25b0.75
5 Q0 71 165 0.9828653925038996 BM25b0.75
5 Q0 522 166 0.9756488703171917 BM25b0.75
5 Q0 323 167 0.9746796308698991 BM25b0.75
5 Q0 87 168 0.9668991205177905 BM25b0.75
5 Q0 361 169 0.9665925609809921 BM25b0.75
5 Q0 481 170 0.9627511345397247 BM25b0.75
5 Q0 383 171 0.9605532348117546 BM25b0.75
5 Q0 261 172 0.95627492526027 BM25b0.75
5 Q0 168 173 0.9498506041961021 BM25b0.75
5 Q0 390 174 0.9164839333864566 BM25b0.75
5 Q0 288 175 0.8930248384157837 BM25b0.75
5 Q0 227 176 0.8916597786474686 BM25b0.75
5 Q0 151 177 0.8914580659697724 BM25b0.75
5 Q0 103 178 0.8821716796064729 BM25b0.75
5 Q0 396 179 0.8790760927358447 BM25b0.75
5 Q0 48 180 0.8776006632330866 BM25b0.75
5 Q0 466 181 0.8770956949101345 BM25b0.75
5 Q0 155 182 0.87207779009763 BM25b0.75
5 Q0 215 183 0.8651484146757529 BM25b0.75
5 Q0 122 184 0.860953544465566 BM25b0.75
5 Q0 518 185 0.8584052259157464 BM25b0.75
5 Q0 328 186 0.834328790123153 BM25b0.75
5 Q0 116 187 0.8034357805141557 BM25b0.75
5 Q0 401 188 0.7976906996267331 BM25b0.75
5 Q0 305 189 0.7405005014103306 BM25b0.75
5 Q0 505 190 0.7213013313629402 BM25b0.75
5 Q0 274 191 0.6889114660358507 BM25b0.75
5 Q0 389 192 0.6841657236758133 BM25b0.75
5 Q0 509 193 0.6685138667099684 BM25b0.75
5 Q0 422 194 0.6573425609395094 BM25b0.75
5 Q0 115 195 0.6547380158951024 BM25b0.75
5 Q0 51 196 0.6381921740773784 BM25b0.75
5 Q0 377 197 0.6377150349259882 BM25b0.75
5 Q0 85 198 0.6201474011978495 BM25b0.75
5 Q0 291 199 0.6129022125953202 BM25b0.75
5 Q0 428 200 0.5775044634972976 BM25b0.75
5 Q0 413 201 0.5156184369186412 BM25b0.75
5 Q0 16 202 0.4898348415166516 BM25b0.75
5 Q0 342 203 0.4616267522996817 BM25b0.75
5 Q0 324 204 0.36436635027932085 BM25b0.75
5 Q0 248 205 0.3452675452310905 BM25b0.75
