ID_Q	ID_DOC	TF_IDF		NOMBRE_DOC
1	501	6.7201996211	www.unidesarrollo.unlu.edu.ar.txt
1	343	6.0248541343	www.educor.unlu.edu.ar.txt
1	300	5.6030991129	www.campusdigital.unlu.edu.ar.txt
1	327	5.4030347548	www.deportes.unlu.edu.ar.txt
1	435	4.7537731662	www.pefts.unlu.edu.ar.txt
1	324	4.2684123345	www.dasmi.unlu.edu.ar.txt
1	58	3.9139006337	campus.ucu.edu.ar.txt
1	510	3.9031550173	www.unnoba.edu.ar.txt
1	420	3.7769870088	www.mdp.edu.ar.txt
1	362	3.7299826521	www.favaloro.edu.ar.txt
1	175	3.7249771139	materias.unq.edu.ar.txt
1	346	3.7224832461	www.eicam.unsj.edu.ar.txt
1	451	3.7199471545	www.puntoedu.edu.ar.txt
1	313	3.7111777924	www.ceviar.unlu.edu.ar.txt
1	403	3.6995220196	www.ingresantes.uner.edu.ar.txt
1	95	3.6896007138	ead.campus.favaloro.edu.ar.txt
1	272	3.6850741560	www.21.edu.ar.txt
1	498	3.6422475442	www.uesiglo21.edu.ar.txt
1	299	3.6014376448	www.caece.edu.ar.txt
1	494	3.5955002344	www.ucine.edu.ar.txt
1	301	3.5939291255	www.campusvirtualunr.edu.ar.txt
1	506	3.5863482101	www.unlpam.edu.ar.txt
1	46	3.5796990447	bib.unne.edu.ar.txt
1	376	3.5538319574	www.fiqus.unl.edu.ar.txt
1	97	3.5442744859	eco.mdp.edu.ar.txt
1	441	3.5133265193	www.posgrado.unsl.edu.ar.txt
1	334	3.4697261552	www.ead.unsj.edu.ar.txt
1	450	3.4607539124	www.psico.unlp.edu.ar.txt
1	114	3.4586649288	exa.unne.edu.ar.txt
1	455	3.4492010221	www.qui10192.unlu.edu.ar.txt
1	23	3.4120794170	aulavirtual.odontologia.unc.edu.ar.txt
1	25	3.4093112611	ausmaweb.uncoma.edu.ar.txt
1	110	3.4071010154	entornovirtual.unl.edu.ar.txt
1	511	3.4024081718	www.uno.edu.ar.txt
1	74	3.3904682595	dch.unne.edu.ar.txt
1	485	3.3678036850	www.tyr.unlu.edu.ar.txt
1	126	3.3541547950	ffyl.uncu.edu.ar.txt
1	108	3.3312341562	empresas.unlam.edu.ar.txt
1	372	3.3236681178	www.ffha.unsj.edu.ar.txt
1	276	3.3092678265	www.3ia.unsam.edu.ar.txt
1	402	3.2966496980	www.info.unlp.edu.ar.txt
1	132	3.2939909960	fundacion.unsl.edu.ar.txt
1	380	3.2636229396	www.fpsico.unr.edu.ar.txt
1	365	3.2557450904	www.fcagr.unr.edu.ar.txt
1	379	3.2529848624	www.folp.unlp.edu.ar.txt
1	73	3.2506463586	cvd.edu.ar.txt
1	492	3.2492595469	www.ucel.edu.ar.txt
1	357	3.2206814769	www.exa.unicen.edu.ar.txt
1	281	3.2131504699	www.analisis1.unlu.edu.ar.txt
1	375	3.2097881875	www.fiq.unl.edu.ar.txt
1	317	3.1833263670	www.ci-mercosur.unsj.edu.ar.txt
1	390	3.1695199232	www.herrera.unt.edu.ar.txt
1	429	3.1693175175	www.odontologia.unt.edu.ar.txt
1	20	3.1666667390	aulavirtual.derecho.proed.unc.edu.ar.txt
1	117	3.1639317357	faa.unse.edu.ar.txt
1	57	3.1501944033	campusmoodle.proed.unc.edu.ar.txt
1	116	3.1108786612	extension.unicen.edu.ar.txt
1	490	3.0907766894	www.ucc.edu.ar.txt
1	87	3.0730943821	dgti.uncoma.edu.ar.txt
1	328	3.0688255975	www.derechoshumanos.unlp.edu.ar.txt
1	306	3.0654345859	www.cdc.unrc.edu.ar.txt
1	481	3.0599108429	www.tecc.arte.unicen.edu.ar.txt
1	383	3.0529252607	www.frp.utn.edu.ar.txt
1	102	3.0204566412	eeyn.unsam.edu.ar.txt
1	407	3.0201591399	www.ing.unrc.edu.ar.txt
1	368	2.9924509468	www.fcm.unl.edu.ar.txt
1	246	2.9912006904	uaionline.uai.edu.ar.txt
1	471	2.9851977301	www.secretariaacademica.unr.edu.ar.txt
1	143	2.9693489988	humanidades.unsam.edu.ar.txt
1	312	2.9634500136	www.cesc.unsam.edu.ar.txt
1	507	2.9593793126	www.unlu.edu.ar.txt
1	100	2.9579235302	eco.unne.edu.ar.txt
1	522	2.9529854115	www.uspt.edu.ar.txt
1	491	2.9166396349	www.uccor.edu.ar.txt
1	367	2.8952958364	www.fcjs.unl.edu.ar.txt
1	122	2.8834760529	fahuweb.uncoma.edu.ar.txt
1	339	2.8816390653	www.eco.unrc.edu.ar.txt
1	66	2.8498653762	cooperacion.unne.edu.ar.txt
1	513	2.8414176051	www.unq.edu.ar.txt
1	288	2.8382998348	www.ausal.unlu.edu.ar.txt
1	514	2.8319474146	www.unrc.edu.ar.txt
1	125	2.8307478357	fce.unse.edu.ar.txt
1	291	2.8234984189	www.bancodigitalconveniosinternacionales.unr.edu.ar.txt
1	505	2.8140307157	www.unla.edu.ar.txt
1	103	2.8038052524	eluniversitario.unne.edu.ar.txt
1	340	2.7883468967	www.ecyt.unsam.edu.ar.txt
1	229	2.7769781333	sistemas.unlpam.edu.ar.txt
1	378	2.7687486845	www.fm.unt.edu.ar.txt
1	398	2.7674407737	www.idia.unsj.edu.ar.txt
1	195	2.7589267247	posgrado.fceia.unr.edu.ar.txt
1	521	2.7302496957	www.untrefvirtual.edu.ar.txt
1	123	2.7145875100	farmacia.unsl.edu.ar.txt
1	363	2.6616477257	www.fbioyf.unr.edu.ar.txt
1	520	2.6464278469	www.untref.edu.ar.txt
1	309	2.6403075620	www.cehp.unsam.edu.ar.txt
1	86	2.6397057926	dgp.unsam.edu.ar.txt
1	51	2.6300988347	blog.unnoba.edu.ar.txt
1	523	2.6117035001	www.utdt.edu.txt
1	244	2.6111751044	teyet-revista.info.unlp.edu.ar.txt
1	298	2.5966418217	www.biol.unlp.edu.ar.txt
1	389	2.5909518975	www.gumersindo.unlp.edu.ar.txt
1	397	2.5859308836	www.ideas.unsam.edu.ar.txt
1	405	2.5774640733	www.ing.unlpam.edu.ar.txt
1	401	2.5352994492	www.iflysib.unlp.edu.ar.txt
1	270	2.5063880629	www0.unsl.edu.ar.txt
1	359	2.5056289723	www.extension.unsl.edu.ar.txt
1	517	2.4791694357	www.unsam.edu.ar.txt
1	438	2.4771754484	www.politicaygobierno.unsam.edu.ar.txt
1	428	2.4669977459	www.observatur.edu.ar.txt
1	374	2.4627445011	www.filo.unt.edu.ar.txt
1	321	2.4463854398	www.ct.unt.edu.ar.txt
1	524	2.4415634140	www.utn.edu.ar.txt
1	358	2.4215983552	www.exa.unrc.edu.ar.txt
1	85	2.4050266297	dgisrv15.unt.edu.ar.txt
1	89	2.4043183081	distancia.fcq.unc.edu.ar.txt
1	1	2.3795647705	academiacisco.unnoba.edu.ar.txt
1	422	2.3708872935	www.mendoza.edu.ar.txt
1	128	2.3653903355	fisica.mdp.edu.ar.txt
1	305	2.3535319068	www.ccu.unsj.edu.ar.txt
1	350	2.3340608395	www.entomologiaforense.unq.edu.ar.txt
1	16	2.3232336042	arq.unne.edu.ar.txt
1	24	2.3008358976	aulavirtual.psyche.unc.edu.ar.txt
1	255	2.2514445158	virtual.unrn.edu.ar.txt
1	194	2.2514445158	platdig.unlu.edu.ar.txt
1	315	2.2492747583	www.ciedal.unsam.edu.ar.txt
1	526	2.2304735905	www.vet.unicen.edu.ar.txt
1	468	2.2038763088	www.salud.unicen.edu.ar.txt
1	394	2.1935272606	www.humanasvirtual.edu.ar.txt
1	308	2.1629160565	www.ced.unsam.edu.ar.txt
1	416	2.1590596021	www.jursoc.unlp.edu.ar.txt
1	186	2.1470610059	organizaciones.unrc.edu.ar.txt
1	406	2.1413747395	www.ing.unlp.edu.ar.txt
1	196	2.1123035247	postgrado.info.unlp.edu.ar.txt
1	329	2.0882413053	www.derecho.unlz.edu.ar.txt
1	92	2.0186980686	docensci.sites.exa.unicen.edu.ar.txt
1	199	2.0104669781	publicacionesfh.mdp.edu.ar.txt
1	115	1.9881783475	extensiondigital.fpsico.unr.edu.ar.txt
1	323	1.8916652769	www.dante.edu.ar.txt
1	361	1.8759698331	www.fapyd.unr.edu.ar.txt
1	393	1.8642486652	www.hospital.uncu.edu.ar.txt
1	274	1.8210094403	www2.mdp.edu.ar.txt
1	369	1.7972267892	www.fcm.unr.edu.ar.txt
1	151	1.7301482618	iifap.proed.unc.edu.ar.txt
1	396	1.7061172386	www.icj.jursoc.unlp.edu.ar.txt
1	48	1.7032537144	blogs.ffyh.unc.edu.ar.txt
1	466	1.7022736682	www.roble.unlp.edu.ar.txt
1	338	1.6973903063	www.eco.unlpam.edu.ar.txt
1	155	1.6925348822	ingenieria.unlam.edu.ar.txt
1	215	1.6790863003	salud.unlam.edu.ar.txt
1	27	1.5974671050	auvr.uncoma.edu.ar.txt
1	69	1.5954404411	correspondencia.uncoma.edu.ar.txt
1	111	1.5929703802	essa.uncoma.edu.ar.txt
1	515	1.5884801505	www.unreditora.unr.edu.ar.txt
1	512	1.5813099480	www.unp.edu.ar.txt
1	247	1.5716431703	ubyd.ungs.edu.ar.txt
1	184	1.5688522283	ofertec.rec.utn.edu.ar.txt
1	204	1.5620780359	revistacyt.unne.edu.ar.txt
1	307	1.5593205138	www.cea.unc.edu.ar.txt
1	500	1.5567986471	www.une.unt.edu.ar.txt
1	217	1.5548471883	seminariorueda2010.unicen.edu.ar.txt
1	464	1.5478866930	www.rexuni.edu.ar.txt
1	49	1.5471515039	blogs.ufasta.edu.ar.txt
1	245	1.5397794842	trabajando.ucongreso.edu.ar.txt
1	104	1.5366398858	empleos.kennedy.edu.ar.txt
1	519	1.5363535221	www.unsj-cuim.edu.ar.txt
1	75	1.5316438252	dcm.unr.edu.ar.txt
1	509	1.5286052483	www.unlz.edu.ar.txt
1	220	1.5270771077	sg.rec.utn.edu.ar.txt
1	98	1.5223819329	economicas2.unlam.edu.ar.txt
1	94	1.5178106098	dvtt.unq.edu.ar.txt
1	502	1.5162855512	www.universidadhoy.unsj.edu.ar.txt
1	72	1.5160314993	csu.rec.utn.edu.ar.txt
1	493	1.5139424268	www.uch.edu.ar.txt
1	473	1.5084043923	www.seguridadinformatica.unlu.edu.ar.txt
1	43	1.5065972841	biblioteca.unsl.edu.ar.txt
1	330	1.5054119198	www.dga.unlu.edu.ar.txt
1	120	1.5044242921	faciasweb.uncoma.edu.ar.txt
1	228	1.4950712830	sistemas.uncu.edu.ar.txt
1	434	1.4948403487	www.palermo.edu.ar.txt
1	34	1.4934930113	biblio1.mdp.edu.ar.txt
1	271	1.4913409737	www1.unne.edu.ar.txt
1	459	1.4879509910	www.reparacion.unlu.edu.ar.txt
1	18	1.4844382191	auapsi.psyche.unc.edu.ar.txt
1	283	1.4840929169	www.argenfood.unlu.edu.ar.txt
1	197	1.4836708439	preinscripcion.uncoma.edu.ar.txt
1	342	1.4775599613	www.editorial.unlp.edu.ar.txt
1	28	1.4762368213	auzaweb.uncoma.edu.ar.txt
1	202	1.4732746047	redbiblio.unne.edu.ar.txt
1	163	1.4699575371	internacional.unlam.edu.ar.txt
1	465	1.4649346472	www.riu.edu.ar.txt
1	223	1.4618252150	sicyt.scyt.rec.utn.edu.ar.txt
1	446	1.4616524312	www.primaria.unl.edu.ar.txt
1	70	1.4546079659	criminalisticas.unne.edu.ar.txt
1	297	1.4498721302	www.biologia.unlu.edu.ar.txt
1	118	1.4479088672	facaweb.uncoma.edu.ar.txt
1	166	1.4420975696	isistan.exa.unicen.edu.ar.txt
1	227	1.4417146073	sisinfo.unrc.edu.ar.txt
1	256	1.4395666715	w3.unt.edu.ar.txt
1	7	1.4377475670	alumnos.ucu.edu.ar.txt
1	322	1.4366525715	www.cultura.unlu.edu.ar.txt
1	65	1.4354834861	congresos.unlp.edu.ar.txt
1	469	1.4350132020	www.saneamiento.unlu.edu.ar.txt
1	448	1.4290340567	www.proyectoazul.unlu.edu.ar.txt
1	37	1.4268264189	bibliotecadigital.uda.edu.ar.txt
1	121	1.4203711368	fadeweb.uncoma.edu.ar.txt
1	140	1.4147139208	guarani.unne.edu.ar.txt
1	91	1.4139919686	docencia-universitaria.uai.edu.ar.txt
1	287	1.4113918836	www.atunlu.unlu.edu.ar.txt
1	475	1.4103366507	www.siat.unrc.edu.ar.txt
1	176	1.4098096257	medicina.uncoma.edu.ar.txt
1	88	1.4080326989	digesto.unsl.edu.ar.txt
1	463	1.4071359137	www.revistaestudios.unc.edu.ar.txt
1	109	1.4047781285	enfermeria.fhu.unse.edu.ar.txt
1	496	1.3986759149	www.udemm.edu.ar.txt
1	153	1.3983139163	infoinst.unsl.edu.ar.txt
1	457	1.3961913450	www.radiouniversidad.unse.edu.ar.txt
1	190	1.3961855059	pasantias.ufasta.edu.ar.txt
1	41	1.3952111874	biblioteca.unnoba.edu.ar.txt
1	262	1.3946954041	webmail.uncu.edu.ar.txt
1	285	1.3946954041	www.arte.unicen.edu.ar.txt
1	499	1.3937372758	www.uner.edu.ar.txt
1	3	1.3910955714	agrobiotecnologia.unsam.edu.ar.txt
1	290	1.3870041646	www.ayv.unrc.edu.ar.txt
1	518	1.3849157641	www.uns.edu.ar.txt
1	29	1.3831760438	bdigital.uncu.edu.ar.txt
1	439	1.3750811674	www.polocentroeste.edu.ar.txt
1	198	1.3748730819	programas.unsl.edu.ar.txt
1	417	1.3688867702	www.laronda.unl.edu.ar.txt
1	35	1.3685276747	bibliocentral.uncoma.edu.ar.txt
1	371	1.3614767913	www.fcv.unl.edu.ar.txt
1	316	1.3597584879	www.ciged.unsam.edu.ar.txt
1	17	1.3551193977	asyt.fcm.unr.edu.ar.txt
1	433	1.3526668523	www.osunq.unq.edu.ar.txt
1	248	1.3509631430	ucesarte.uces.edu.ar.txt
1	42	1.3479906419	biblioteca.unp.edu.ar.txt
1	391	1.3392449197	www.histelea.unlu.edu.ar.txt
1	107	1.3357141900	empleos.unlpam.edu.ar.txt
1	10	1.3355832887	aluweb.rect.mdp.edu.ar.txt
1	472	1.3340357548	www.secyt.unc.edu.ar.txt
1	373	1.3169291008	www.fhumyar.unr.edu.ar.txt
1	252	1.3126840065	users.exa.unicen.edu.ar.txt
1	135	1.3076790307	gestion.rect.mdp.edu.ar.txt
1	52	1.3019996004	borromeo.kennedy.edu.ar.txt
1	404	1.2968904667	www.ingreso.unlp.edu.ar.txt
1	146	1.2925701727	ibone.unne.edu.ar.txt
1	101	1.2901926713	editorial.blog.unq.edu.ar.txt
1	310	1.2897964468	www.cel.unsam.edu.ar.txt
1	497	1.2884376534	www.udesa.edu.ar.txt
1	200	1.2838702107	rapes.unsl.edu.ar.txt
1	47	1.2806024837	bicentenario.unc.edu.ar.txt
1	5	1.2788660934	alumnos-agr.mdp.edu.ar.txt
1	259	1.2772076963	webmail.mdp.edu.ar.txt
1	265	1.2759581657	webmail.unrc.edu.ar.txt
1	487	1.2737579562	www.uai.unlu.edu.ar.txt
1	282	1.2737579562	www.analitica.unlu.edu.ar.txt
1	174	1.2728984311	mail.uca.edu.ar.txt
1	218	1.2720400651	servicios.kennedy.edu.ar.txt
1	419	1.2711828560	www.matepreuni.unlu.edu.ar.txt
1	26	1.2711828560	auth.ucel.edu.ar.txt
1	11	1.2703268015	apunsl.unsl.edu.ar.txt
1	489	1.2703268015	www.ucacer.edu.ar.txt
1	284	1.2703268015	www.artes.unne.edu.ar.txt
1	9	1.2669140823	alumnosweb.mdp.edu.ar.txt
1	19	1.2660637657	aulavirtual.cea.unc.edu.ar.txt
1	4	1.2609857394	agr.unne.edu.ar.txt
1	21	1.2584619711	aulavirtual.eco.unc.edu.ar.txt
1	482	1.2580124481	www.tecnicatura.unt.edu.ar.txt
1	335	1.2533740317	www.eas.unt.edu.ar.txt
1	488	1.2512603165	www.ub.edu.ar.txt
1	170	1.2503044492	lae.unsl.edu.ar.txt
1	355	1.2468167245	www.e-universitas.edu.ar.txt
1	8	1.2459931626	alumnos-web.mdp.edu.ar.txt
1	36	1.2451706881	biblioteca.bib.unrc.edu.ar.txt
1	253	1.2451010279	uvt.unse.edu.ar.txt
1	303	1.2435289921	www.catec.unlu.edu.ar.txt
1	105	1.2426403813	empleos.uda.edu.ar.txt
1	162	1.2396230850	inter2.unsl.edu.ar.txt
1	444	1.2396230850	www.preinscripciones.unne.edu.ar.txt
1	68	1.2386297757	correo.unq.edu.ar.txt
1	400	1.2386297757	www.iflp.fisica.unlp.edu.ar.txt
1	349	1.2386297757	www.electro.fisica.unlp.edu.ar.txt
1	478	1.2378169903	www.so.unlu.edu.ar.txt
1	185	1.2370052709	old.uda.edu.ar.txt
1	470	1.2337690113	www.secgral.unse.edu.ar.txt
1	59	1.2329625906	cegae.unne.edu.ar.txt
1	294	1.2297474220	www.becas.unlp.edu.ar.txt
1	503	1.2257519650	www.universidadnotarial.edu.ar.txt
1	318	1.2249559870	www.compras.unlu.edu.ar.txt
1	314	1.2241610422	www.cidepa.unlu.edu.ar.txt
1	454	1.2147015608	www.qui10017.unlu.edu.ar.txt
1	171	1.2146352680	licitaciones.unsl.edu.ar.txt
1	266	1.2100264313	webmail.unr.edu.ar.txt
1	53	1.2092507396	campus2.unsl.edu.ar.txt
1	189	1.2092507396	paimec.unsl.edu.ar.txt
1	460	1.2084760418	www.representacion.unt.edu.ar.txt
1	96	1.2054817954	e-basura.linti.unlp.edu.ar.txt
1	193	1.2046173942	planinst.unsl.edu.ar.txt
1	39	1.2030808259	bibliotecas.unr.edu.ar.txt
1	442	1.2030808259	www.practicaspreprofesionales.unlp.edu.ar.txt
1	45	1.1984945512	biblio.unlp.edu.ar.txt
1	453	1.1958760153	www.quequen.unicen.edu.ar.txt
1	144	1.1827143274	hum.unne.edu.ar.txt
1	261	1.1804312566	webmail.unc.edu.ar.txt
1	258	1.1768115730	webfmn.unsl.edu.ar.txt
1	311	1.1746132019	www.certificaciones.unlu.edu.ar.txt
1	345	1.1659012428	www.efu.unsj.edu.ar.txt
1	295	1.1530729462	www.becas.unr.edu.ar.txt
1	331	1.1502604567	www.diu.unr.edu.ar.txt
1	467	1.1391463735	www.rueda.edu.ar.txt
1	201	1.1391463735	rectorado.unl.edu.ar.txt
1	392	1.1336694848	www.hort.unlu.edu.ar.txt
1	134	1.1316292046	geologia.unsl.edu.ar.txt
1	84	1.1275705969	derecho.unlam.edu.ar.txt
1	83	1.1262241894	deptomat.unsl.edu.ar.txt
1	384	1.1090090232	www.fveter.unr.edu.ar.txt
1	436	1.1023441965	www.pema.unlu.edu.ar.txt
1	527	1.1011853384	www.vinctec.uner.edu.ar.txt
1	225	1.0935787252	simap.rect.mdp.edu.ar.txt
1	269	1.0822848733	wichi.rect.mdp.edu.ar.txt
1	289	1.0810443839	www.autogestionpsico.unt.edu.ar.txt
1	458	1.0767249753	www.redbien.edu.ar.txt
1	408	1.0748843486	www.insumos-labcentral.unlu.edu.ar.txt
1	366	1.0503454153	www.fca.proed.unc.edu.ar.txt
1	484	1.0491770225	www.temambiental.unlu.edu.ar.txt
1	337	1.0410704946	www.economicas.unlz.edu.ar.txt
1	250	1.0207891554	uncavim50.unc.edu.ar.txt
1	93	1.0125699416	dospu.unsl.edu.ar.txt
1	149	1.0114840362	ifas.exa.unicen.edu.ar.txt
1	90	1.0018146952	dngusisco.siu.edu.ar.txt
1	226	0.9991614889	sinfpatagonia.unrn.edu.ar.txt
1	222	0.9876524134	shya.unsl.edu.ar.txt
1	213	0.9871355701	sal06.txt
1	182	0.9658641921	odn.unne.edu.ar.txt
1	421	0.9415189308	www.med.unlp.edu.ar.txt
1	71	0.9366497751	crubweb.uncoma.edu.ar.txt
1	263	0.9126323254	webmail.unla.edu.ar.txt
1	456	0.9100874860	www.quimica.unlp.edu.ar.txt
1	447	0.9082381888	www.prolab.unlp.edu.ar.txt
1	168	0.9051873854	kinesio.med.unne.edu.ar.txt
1	319	0.8745518921	www.coneau.edu.ar.txt
1	293	0.8574578503	www.becas.unicen.edu.ar.txt
1	154	0.8284608266	info.unsl.edu.ar.txt
1	388	0.8078817581	www.gtec-ce.edu.ar.txt
1	192	0.7626822493	piduner.uner.edu.ar.txt
1	364	0.7470890209	www.fbqf.unt.edu.ar.txt
1	377	0.6077288392	www.fm.fcm.unr.edu.ar.txt
1	55	0.5726739335	campus.almagro.ort.edu.ar.txt
2	155	9.6905414349	ingenieria.unlam.edu.ar.txt
2	142	9.2796454427	humanidades.unlam.edu.ar.txt
2	131	9.2368609175	formacioncontinua.unlam.edu.ar.txt
2	84	8.2259677868	derecho.unlam.edu.ar.txt
2	98	7.9590799335	economicas2.unlam.edu.ar.txt
2	99	7.7322323672	economicas.unlam.edu.ar.txt
2	215	6.0431803546	salud.unlam.edu.ar.txt
2	108	5.6725705669	empresas.unlam.edu.ar.txt
2	362	4.7956693882	www.favaloro.edu.ar.txt
2	493	4.5606621430	www.uch.edu.ar.txt
2	450	4.4581797783	www.psico.unlp.edu.ar.txt
2	195	4.4349357550	posgrado.fceia.unr.edu.ar.txt
2	126	4.4274533528	ffyl.uncu.edu.ar.txt
2	319	4.3959344697	www.coneau.edu.ar.txt
2	328	4.2778680840	www.derechoshumanos.unlp.edu.ar.txt
2	297	4.2458742925	www.biologia.unlu.edu.ar.txt
2	100	4.2403834890	eco.unne.edu.ar.txt
2	373	4.2260369421	www.fhumyar.unr.edu.ar.txt
2	276	4.2050621998	www.3ia.unsam.edu.ar.txt
2	471	4.2000293889	www.secretariaacademica.unr.edu.ar.txt
2	339	4.1959638094	www.eco.unrc.edu.ar.txt
2	288	4.1590792311	www.ausal.unlu.edu.ar.txt
2	125	4.1081156752	fce.unse.edu.ar.txt
2	369	4.1015445735	www.fcm.unr.edu.ar.txt
2	258	4.0911231222	webfmn.unsl.edu.ar.txt
2	488	4.0805689402	www.ub.edu.ar.txt
2	119	4.0805357544	faceweb.uncoma.edu.ar.txt
2	376	4.0794582140	www.fiqus.unl.edu.ar.txt
2	496	4.0721447811	www.udemm.edu.ar.txt
2	163	4.0617785237	internacional.unlam.edu.ar.txt
2	358	3.9588869148	www.exa.unrc.edu.ar.txt
2	407	3.9438395649	www.ing.unrc.edu.ar.txt
2	405	3.8640432653	www.ing.unlpam.edu.ar.txt
2	346	3.8619434354	www.eicam.unsj.edu.ar.txt
2	507	3.8605414453	www.unlu.edu.ar.txt
2	383	3.8332671702	www.frp.utn.edu.ar.txt
2	499	3.8202398382	www.uner.edu.ar.txt
2	368	3.8006864451	www.fcm.unl.edu.ar.txt
2	492	3.7573622493	www.ucel.edu.ar.txt
2	109	3.7422179963	enfermeria.fhu.unse.edu.ar.txt
2	372	3.7000217059	www.ffha.unsj.edu.ar.txt
2	183	3.6973435020	ofertasgrado.siu.edu.ar.txt
2	517	3.6898746696	www.unsam.edu.ar.txt
2	361	3.6700571566	www.fapyd.unr.edu.ar.txt
2	490	3.5957453298	www.ucc.edu.ar.txt
2	520	3.5948517751	www.untref.edu.ar.txt
2	71	3.5819698574	crubweb.uncoma.edu.ar.txt
2	526	3.5203108341	www.vet.unicen.edu.ar.txt
2	421	3.5194969781	www.med.unlp.edu.ar.txt
2	514	3.4916847099	www.unrc.edu.ar.txt
2	375	3.4824814869	www.fiq.unl.edu.ar.txt
2	491	3.4694754828	www.uccor.edu.ar.txt
2	365	3.4667695356	www.fcagr.unr.edu.ar.txt
2	117	3.4538401791	faa.unse.edu.ar.txt
2	74	3.4532374378	dch.unne.edu.ar.txt
2	121	3.4333782980	fadeweb.uncoma.edu.ar.txt
2	498	3.3981166073	www.uesiglo21.edu.ar.txt
2	274	3.3757342809	www2.mdp.edu.ar.txt
2	452	3.3383864298	www.qgeneral.unlu.edu.ar.txt
2	143	3.3329824023	humanidades.unsam.edu.ar.txt
2	494	3.3259590841	www.ucine.edu.ar.txt
2	16	3.3224164432	arq.unne.edu.ar.txt
2	523	3.2804745112	www.utdt.edu.txt
2	414	3.2759058482	www.iuna.edu.ar.txt
2	122	3.2697536000	fahuweb.uncoma.edu.ar.txt
2	114	3.2090884123	exa.unne.edu.ar.txt
2	402	3.1876181091	www.info.unlp.edu.ar.txt
2	75	3.1865443297	dcm.unr.edu.ar.txt
2	412	3.1321198120	www.itba.edu.ar.txt
2	357	3.0870451129	www.exa.unicen.edu.ar.txt
2	97	3.0455361914	eco.mdp.edu.ar.txt
2	329	3.0447154478	www.derecho.unlz.edu.ar.txt
2	444	3.0353890902	www.preinscripciones.unne.edu.ar.txt
2	379	3.0234979370	www.folp.unlp.edu.ar.txt
2	272	3.0187302315	www.21.edu.ar.txt
2	244	3.0043169058	teyet-revista.info.unlp.edu.ar.txt
2	370	2.9829991735	www.fcpolit.unr.edu.ar.txt
2	86	2.9791072530	dgp.unsam.edu.ar.txt
2	509	2.9767969420	www.unlz.edu.ar.txt
2	270	2.9702561822	www0.unsl.edu.ar.txt
2	497	2.9645212886	www.udesa.edu.ar.txt
2	398	2.9416657600	www.idia.unsj.edu.ar.txt
2	413	2.8617150490	www.iua.edu.ar.txt
2	37	2.8116343913	bibliotecadigital.uda.edu.ar.txt
2	438	2.7626350202	www.politicaygobierno.unsam.edu.ar.txt
2	518	2.6380372314	www.uns.edu.ar.txt
2	298	2.6141192540	www.biol.unlp.edu.ar.txt
2	513	2.6000119447	www.unq.edu.ar.txt
2	481	2.5691885489	www.tecc.arte.unicen.edu.ar.txt
2	340	2.5004782359	www.ecyt.unsam.edu.ar.txt
2	406	2.4367652617	www.ing.unlp.edu.ar.txt
2	186	2.4338944171	organizaciones.unrc.edu.ar.txt
2	299	2.4155101981	www.caece.edu.ar.txt
2	524	2.3960468663	www.utn.edu.ar.txt
2	374	2.3782166306	www.filo.unt.edu.ar.txt
2	390	2.2650637711	www.herrera.unt.edu.ar.txt
2	378	2.2167733203	www.fm.unt.edu.ar.txt
2	197	2.1721518517	preinscripcion.uncoma.edu.ar.txt
2	510	2.1701874528	www.unnoba.edu.ar.txt
2	46	2.1679800006	bib.unne.edu.ar.txt
2	416	2.1648040056	www.jursoc.unlp.edu.ar.txt
2	10	2.1642552692	aluweb.rect.mdp.edu.ar.txt
2	112	2.1358848363	estudiarenargentina.siu.edu.ar.txt
2	102	2.1322395784	eeyn.unsam.edu.ar.txt
2	103	2.1280635387	eluniversitario.unne.edu.ar.txt
2	393	2.1214112144	www.hospital.uncu.edu.ar.txt
2	441	2.1123437313	www.posgrado.unsl.edu.ar.txt
2	58	2.1072076010	campus.ucu.edu.ar.txt
2	394	2.1009085197	www.humanasvirtual.edu.ar.txt
2	118	2.0851856822	facaweb.uncoma.edu.ar.txt
2	25	2.0847720661	ausmaweb.uncoma.edu.ar.txt
2	350	2.0768047787	www.entomologiaforense.unq.edu.ar.txt
2	453	2.0588002089	www.quequen.unicen.edu.ar.txt
2	434	2.0428487729	www.palermo.edu.ar.txt
2	521	2.0413220811	www.untrefvirtual.edu.ar.txt
2	468	2.0237207918	www.salud.unicen.edu.ar.txt
2	337	2.0052967821	www.economicas.unlz.edu.ar.txt
2	77	1.9998838908	dep02.txt
2	420	1.9915551280	www.mdp.edu.ar.txt
2	73	1.9844086107	cvd.edu.ar.txt
2	363	1.9843050156	www.fbioyf.unr.edu.ar.txt
2	381	1.9800042187	www.fqbf.unsl.edu.ar.txt
2	505	1.9619744131	www.unla.edu.ar.txt
2	343	1.9436046919	www.educor.unlu.edu.ar.txt
2	83	1.9397118655	deptomat.unsl.edu.ar.txt
2	367	1.9225141136	www.fcjs.unl.edu.ar.txt
2	1	1.9144234632	academiacisco.unnoba.edu.ar.txt
2	380	1.9009389843	www.fpsico.unr.edu.ar.txt
2	28	1.9003617568	auzaweb.uncoma.edu.ar.txt
2	140	1.8904434925	guarani.unne.edu.ar.txt
2	506	1.8809886953	www.unlpam.edu.ar.txt
2	168	1.8795071838	kinesio.med.unne.edu.ar.txt
2	404	1.8676986472	www.ingreso.unlp.edu.ar.txt
2	70	1.8511536364	criminalisticas.unne.edu.ar.txt
2	246	1.8482885688	uaionline.uai.edu.ar.txt
2	403	1.8480054520	www.ingresantes.uner.edu.ar.txt
2	309	1.8346921701	www.cehp.unsam.edu.ar.txt
2	284	1.8294433567	www.artes.unne.edu.ar.txt
2	301	1.8243728001	www.campusvirtualunr.edu.ar.txt
2	149	1.8164951829	ifas.exa.unicen.edu.ar.txt
2	312	1.7841317963	www.cesc.unsam.edu.ar.txt
2	352	1.7686974354	www.estadistica.unlu.edu.ar.txt
2	401	1.7617243215	www.iflysib.unlp.edu.ar.txt
2	123	1.7520603888	farmacia.unsl.edu.ar.txt
2	522	1.7387587370	www.uspt.edu.ar.txt
2	87	1.7231653157	dgti.uncoma.edu.ar.txt
2	110	1.7159286795	entornovirtual.unl.edu.ar.txt
2	3	1.7129353563	agrobiotecnologia.unsam.edu.ar.txt
2	300	1.7091251046	www.campusdigital.unlu.edu.ar.txt
2	451	1.7074609585	www.puntoedu.edu.ar.txt
2	482	1.7055395635	www.tecnicatura.unt.edu.ar.txt
2	127	1.6979465359	fhcss3w.unse.edu.ar.txt
2	311	1.6916027564	www.certificaciones.unlu.edu.ar.txt
2	33	1.6325550772	becas.unsl.edu.ar.txt
2	476	1.6296999546	www.sociales.unlu.edu.ar.txt
2	134	1.6296999546	geologia.unsl.edu.ar.txt
2	196	1.6218065733	postgrado.info.unlp.edu.ar.txt
2	54	1.6088670702	campus.administracion.ort.edu.ar.txt
2	200	1.5998392234	rapes.unsl.edu.ar.txt
2	291	1.5843355248	www.bancodigitalconveniosinternacionales.unr.edu.ar.txt
2	511	1.5817016048	www.uno.edu.ar.txt
2	388	1.5698195358	www.gtec-ce.edu.ar.txt
2	315	1.5629719987	www.ciedal.unsam.edu.ar.txt
2	338	1.5586374067	www.eco.unlpam.edu.ar.txt
2	18	1.5287413616	auapsi.psyche.unc.edu.ar.txt
2	308	1.5029632193	www.ced.unsam.edu.ar.txt
2	245	1.4935132373	trabajando.ucongreso.edu.ar.txt
2	364	1.4881260392	www.fbqf.unt.edu.ar.txt
2	204	1.4850623714	revistacyt.unne.edu.ar.txt
2	306	1.4845355023	www.cdc.unrc.edu.ar.txt
2	170	1.4804908028	lae.unsl.edu.ar.txt
2	56	1.4790557810	campus.belgrano.ort.edu.ar.txt
2	55	1.4694552204	campus.almagro.ort.edu.ar.txt
2	429	1.4582384240	www.odontologia.unt.edu.ar.txt
2	162	1.4555271901	inter2.unsl.edu.ar.txt
2	396	1.4375034872	www.icj.jursoc.unlp.edu.ar.txt
2	128	1.3316754318	fisica.mdp.edu.ar.txt
2	447	1.3079865110	www.prolab.unlp.edu.ar.txt
2	439	1.2881397041	www.polocentroeste.edu.ar.txt
2	229	1.2875291917	sistemas.unlpam.edu.ar.txt
2	397	1.2844802665	www.ideas.unsam.edu.ar.txt
2	307	1.2797189342	www.cea.unc.edu.ar.txt
2	158	1.2618136780	int02.txt
2	65	1.2576749868	congresos.unlp.edu.ar.txt
2	435	1.1533114501	www.pefts.unlu.edu.ar.txt
2	256	1.0677475625	w3.unt.edu.ar.txt
2	428	1.0292031920	www.observatur.edu.ar.txt
2	182	0.9772178157	odn.unne.edu.ar.txt
2	436	0.9606860968	www.pema.unlu.edu.ar.txt
2	115	0.9559467138	extensiondigital.fpsico.unr.edu.ar.txt
2	382	0.9348460602	www.frlp.utn.edu.ar.txt
2	313	0.9097735565	www.ceviar.unlu.edu.ar.txt
2	192	0.8811728080	piduner.uner.edu.ar.txt
2	377	0.8752121786	www.fm.fcm.unr.edu.ar.txt
2	29	0.7985269894	bdigital.uncu.edu.ar.txt
2	85	0.7167936273	dgisrv15.unt.edu.ar.txt
2	456	0.6849837842	www.quimica.unlp.edu.ar.txt
2	342	0.6335452882	www.editorial.unlp.edu.ar.txt
3	420	9.3131550567	www.mdp.edu.ar.txt
3	274	9.0350053540	www2.mdp.edu.ar.txt
3	97	6.9739920298	eco.mdp.edu.ar.txt
3	199	6.4050558604	publicacionesfh.mdp.edu.ar.txt
3	380	6.1792580704	www.fpsico.unr.edu.ar.txt
3	496	5.9126319311	www.udemm.edu.ar.txt
3	346	5.8366955054	www.eicam.unsj.edu.ar.txt
3	117	5.6885415737	faa.unse.edu.ar.txt
3	200	5.5199195108	rapes.unsl.edu.ar.txt
3	259	5.2580919123	webmail.mdp.edu.ar.txt
3	31	5.1671294604	becas.mdp.edu.ar.txt
3	453	4.7279672777	www.quequen.unicen.edu.ar.txt
3	135	4.4150906899	gestion.rect.mdp.edu.ar.txt
3	128	4.2504285307	fisica.mdp.edu.ar.txt
3	362	4.1100177281	www.favaloro.edu.ar.txt
3	364	3.9399486865	www.fbqf.unt.edu.ar.txt
3	402	3.9161988021	www.info.unlp.edu.ar.txt
3	10	3.9123981843	aluweb.rect.mdp.edu.ar.txt
3	112	3.6786457729	estudiarenargentina.siu.edu.ar.txt
3	379	3.4749175960	www.folp.unlp.edu.ar.txt
3	414	3.4554755479	www.iuna.edu.ar.txt
3	88	3.3545843733	digesto.unsl.edu.ar.txt
3	450	3.3505026880	www.psico.unlp.edu.ar.txt
3	367	3.3495077542	www.fcjs.unl.edu.ar.txt
3	361	3.3174223628	www.fapyd.unr.edu.ar.txt
3	3	3.2883484319	agrobiotecnologia.unsam.edu.ar.txt
3	306	3.2022676394	www.cdc.unrc.edu.ar.txt
3	339	3.1742872988	www.eco.unrc.edu.ar.txt
3	33	3.1340411700	becas.unsl.edu.ar.txt
3	444	3.0328852650	www.preinscripciones.unne.edu.ar.txt
3	373	3.0259585859	www.fhumyar.unr.edu.ar.txt
3	372	3.0198891117	www.ffha.unsj.edu.ar.txt
3	100	2.9901702158	eco.unne.edu.ar.txt
3	334	2.9398789879	www.ead.unsj.edu.ar.txt
3	468	2.9381954036	www.salud.unicen.edu.ar.txt
3	15	2.9299417309	arg04.txt
3	522	2.9289794809	www.uspt.edu.ar.txt
3	74	2.8908251714	dch.unne.edu.ar.txt
3	423	2.8896225632	www.mi.uade.edu.ar.txt
3	114	2.8015310853	exa.unne.edu.ar.txt
3	416	2.7318207954	www.jursoc.unlp.edu.ar.txt
3	140	2.7077742637	guarani.unne.edu.ar.txt
3	374	2.6579290491	www.filo.unt.edu.ar.txt
3	394	2.6383415269	www.humanasvirtual.edu.ar.txt
3	403	2.6092517775	www.ingresantes.uner.edu.ar.txt
3	354	2.6011341438	www.esupcom.unr.edu.ar.txt
3	5	2.5949461366	alumnos-agr.mdp.edu.ar.txt
3	118	2.5822045216	facaweb.uncoma.edu.ar.txt
3	305	2.5334246478	www.ccu.unsj.edu.ar.txt
3	490	2.5155265236	www.ucc.edu.ar.txt
3	363	2.4448521058	www.fbioyf.unr.edu.ar.txt
3	95	2.4297590034	ead.campus.favaloro.edu.ar.txt
3	186	2.4264864526	organizaciones.unrc.edu.ar.txt
3	491	2.4074084323	www.uccor.edu.ar.txt
3	208	2.3912240751	sal01.txt
3	126	2.3756380165	ffyl.uncu.edu.ar.txt
3	25	2.3536376782	ausmaweb.uncoma.edu.ar.txt
3	412	2.3418304241	www.itba.edu.ar.txt
3	143	2.2920877444	humanidades.unsam.edu.ar.txt
3	121	2.2158970130	fadeweb.uncoma.edu.ar.txt
3	85	2.1216686666	dgisrv15.unt.edu.ar.txt
3	518	2.0525346614	www.uns.edu.ar.txt
3	119	2.0038702901	faceweb.uncoma.edu.ar.txt
3	29	1.7719864079	bdigital.uncu.edu.ar.txt
3	398	1.7409674525	www.idia.unsj.edu.ar.txt
3	514	1.6592384215	www.unrc.edu.ar.txt
3	482	1.5813942344	www.tecnicatura.unt.edu.ar.txt
3	365	1.5420467349	www.fcagr.unr.edu.ar.txt
3	276	1.5073592094	www.3ia.unsam.edu.ar.txt
3	436	1.5044016270	www.pema.unlu.edu.ar.txt
3	507	1.4729063674	www.unlu.edu.ar.txt
3	369	1.4550869744	www.fcm.unr.edu.ar.txt
3	73	1.4290768728	cvd.edu.ar.txt
3	521	1.3064093337	www.untrefvirtual.edu.ar.txt
3	513	1.2491381669	www.unq.edu.ar.txt
3	435	1.1067853370	www.pefts.unlu.edu.ar.txt
3	125	1.0965457974	fce.unse.edu.ar.txt
3	517	1.0514246027	www.unsam.edu.ar.txt
3	46	0.7352526836	bib.unne.edu.ar.txt
3	407	0.6403800648	www.ing.unrc.edu.ar.txt
3	272	0.3208514305	www.21.edu.ar.txt
4	378	8.1130264248	www.fm.unt.edu.ar.txt
4	490	7.5507409190	www.ucc.edu.ar.txt
4	491	7.3101651702	www.uccor.edu.ar.txt
4	362	7.2518577287	www.favaloro.edu.ar.txt
4	368	7.2325062196	www.fcm.unl.edu.ar.txt
4	46	7.1246949927	bib.unne.edu.ar.txt
4	369	6.9116670349	www.fcm.unr.edu.ar.txt
4	468	6.7414671652	www.salud.unicen.edu.ar.txt
4	140	6.6364260752	guarani.unne.edu.ar.txt
4	168	6.4125888192	kinesio.med.unne.edu.ar.txt
4	444	6.2058033021	www.preinscripciones.unne.edu.ar.txt
4	270	6.1817988753	www0.unsl.edu.ar.txt
4	37	5.8311914154	bibliotecadigital.uda.edu.ar.txt
4	421	5.6870080269	www.med.unlp.edu.ar.txt
4	17	5.5381372915	asyt.fcm.unr.edu.ar.txt
4	18	5.4114474061	auapsi.psyche.unc.edu.ar.txt
4	526	4.9620939493	www.vet.unicen.edu.ar.txt
4	215	4.5311774415	salud.unlam.edu.ar.txt
4	65	4.5162502800	congresos.unlp.edu.ar.txt
4	186	4.0152740729	organizaciones.unrc.edu.ar.txt
4	291	3.9937627074	www.bancodigitalconveniosinternacionales.unr.edu.ar.txt
4	517	3.9507441217	www.unsam.edu.ar.txt
4	498	3.7908365344	www.uesiglo21.edu.ar.txt
4	493	3.7134643353	www.uch.edu.ar.txt
4	272	3.6991585186	www.21.edu.ar.txt
4	100	3.6718446049	eco.unne.edu.ar.txt
4	510	3.6646163183	www.unnoba.edu.ar.txt
4	297	3.6565737915	www.biologia.unlu.edu.ar.txt
4	390	3.6558650479	www.herrera.unt.edu.ar.txt
4	197	3.6558226956	preinscripcion.uncoma.edu.ar.txt
4	450	3.6150404398	www.psico.unlp.edu.ar.txt
4	16	3.6131598066	arq.unne.edu.ar.txt
4	507	3.6085670407	www.unlu.edu.ar.txt
4	346	3.5913217786	www.eicam.unsj.edu.ar.txt
4	434	3.5376891216	www.palermo.edu.ar.txt
4	118	3.5330945494	facaweb.uncoma.edu.ar.txt
4	471	3.5174569615	www.secretariaacademica.unr.edu.ar.txt
4	58	3.4833613618	campus.ucu.edu.ar.txt
4	496	3.4699280798	www.udemm.edu.ar.txt
4	342	3.4690631912	www.editorial.unlp.edu.ar.txt
4	499	3.4622238720	www.uner.edu.ar.txt
4	343	3.4617857635	www.educor.unlu.edu.ar.txt
4	85	3.4546283573	dgisrv15.unt.edu.ar.txt
4	376	3.4517071609	www.fiqus.unl.edu.ar.txt
4	328	3.4474355401	www.derechoshumanos.unlp.edu.ar.txt
4	420	3.4244418054	www.mdp.edu.ar.txt
4	506	3.4188989789	www.unlpam.edu.ar.txt
4	441	3.4168576007	www.posgrado.unsl.edu.ar.txt
4	25	3.4122099025	ausmaweb.uncoma.edu.ar.txt
4	125	3.3967265397	fce.unse.edu.ar.txt
4	28	3.3765985781	auzaweb.uncoma.edu.ar.txt
4	514	3.3320747812	www.unrc.edu.ar.txt
4	367	3.3288632200	www.fcjs.unl.edu.ar.txt
4	373	3.3119289300	www.fhumyar.unr.edu.ar.txt
4	98	3.3078364643	economicas2.unlam.edu.ar.txt
4	70	3.3057616023	criminalisticas.unne.edu.ar.txt
4	288	3.2919173164	www.ausal.unlu.edu.ar.txt
4	114	3.2883893670	exa.unne.edu.ar.txt
4	121	3.2776059052	fadeweb.uncoma.edu.ar.txt
4	358	3.2757544169	www.exa.unrc.edu.ar.txt
4	488	3.2724230635	www.ub.edu.ar.txt
4	453	3.2546762243	www.quequen.unicen.edu.ar.txt
4	375	3.2530438926	www.fiq.unl.edu.ar.txt
4	73	3.2500692203	cvd.edu.ar.txt
4	520	3.2302579415	www.untref.edu.ar.txt
4	103	3.2197436151	eluniversitario.unne.edu.ar.txt
4	402	3.2125190517	www.info.unlp.edu.ar.txt
4	405	3.2084476515	www.ing.unlpam.edu.ar.txt
4	84	3.2038805358	derecho.unlam.edu.ar.txt
4	276	3.1886445304	www.3ia.unsam.edu.ar.txt
4	523	3.1803614215	www.utdt.edu.txt
4	75	3.1745657930	dcm.unr.edu.ar.txt
4	339	3.1728571047	www.eco.unrc.edu.ar.txt
4	258	3.1676987877	webfmn.unsl.edu.ar.txt
4	404	3.1645891138	www.ingreso.unlp.edu.ar.txt
4	74	3.1424584289	dch.unne.edu.ar.txt
4	403	3.1312213802	www.ingresantes.uner.edu.ar.txt
4	3	3.1040309277	agrobiotecnologia.unsam.edu.ar.txt
4	284	3.0997701582	www.artes.unne.edu.ar.txt
4	299	3.0981497480	www.caece.edu.ar.txt
4	380	3.0943976953	www.fpsico.unr.edu.ar.txt
4	301	3.0911787143	www.campusvirtualunr.edu.ar.txt
4	122	3.0882350077	fahuweb.uncoma.edu.ar.txt
4	244	3.0671669909	teyet-revista.info.unlp.edu.ar.txt
4	83	3.0659360549	deptomat.unsl.edu.ar.txt
4	456	3.0632838620	www.quimica.unlp.edu.ar.txt
4	337	3.0463672767	www.economicas.unlz.edu.ar.txt
4	511	3.0382547403	www.uno.edu.ar.txt
4	245	3.0332927215	trabajando.ucongreso.edu.ar.txt
4	274	3.0241078748	www2.mdp.edu.ar.txt
4	379	3.0230200086	www.folp.unlp.edu.ar.txt
4	451	3.0210332365	www.puntoedu.edu.ar.txt
4	363	3.0206351209	www.fbioyf.unr.edu.ar.txt
4	524	3.0132389217	www.utn.edu.ar.txt
4	372	3.0005172813	www.ffha.unsj.edu.ar.txt
4	365	2.9776195234	www.fcagr.unr.edu.ar.txt
4	123	2.9686540928	farmacia.unsl.edu.ar.txt
4	482	2.9635520116	www.tecnicatura.unt.edu.ar.txt
4	126	2.9570653024	ffyl.uncu.edu.ar.txt
4	407	2.9464511098	www.ing.unrc.edu.ar.txt
4	306	2.9332783804	www.cdc.unrc.edu.ar.txt
4	357	2.9230417176	www.exa.unicen.edu.ar.txt
4	87	2.9196948917	dgti.uncoma.edu.ar.txt
4	340	2.9185588232	www.ecyt.unsam.edu.ar.txt
4	383	2.9005325513	www.frp.utn.edu.ar.txt
4	97	2.8965949731	eco.mdp.edu.ar.txt
4	200	2.8837094341	rapes.unsl.edu.ar.txt
4	311	2.8662159584	www.certificaciones.unlu.edu.ar.txt
4	324	2.8622387128	www.dasmi.unlu.edu.ar.txt
4	509	2.8579797344	www.unlz.edu.ar.txt
4	71	2.8469964640	crubweb.uncoma.edu.ar.txt
4	319	2.8376831504	www.coneau.edu.ar.txt
4	149	2.8279792191	ifas.exa.unicen.edu.ar.txt
4	246	2.8266624874	uaionline.uai.edu.ar.txt
4	300	2.8152875580	www.campusdigital.unlu.edu.ar.txt
4	522	2.7981977647	www.uspt.edu.ar.txt
4	433	2.7802050670	www.osunq.unq.edu.ar.txt
4	521	2.7784602698	www.untrefvirtual.edu.ar.txt
4	109	2.7678949002	enfermeria.fhu.unse.edu.ar.txt
4	134	2.7613291592	geologia.unsl.edu.ar.txt
4	494	2.7414928213	www.ucine.edu.ar.txt
4	513	2.7132537087	www.unq.edu.ar.txt
4	117	2.7051111208	faa.unse.edu.ar.txt
4	298	2.6955989453	www.biol.unlp.edu.ar.txt
4	439	2.6632208715	www.polocentroeste.edu.ar.txt
4	229	2.6623598085	sistemas.unlpam.edu.ar.txt
4	143	2.6161614910	humanidades.unsam.edu.ar.txt
4	195	2.6051916455	posgrado.fceia.unr.edu.ar.txt
4	518	2.5630073360	www.uns.edu.ar.txt
4	86	2.5212704721	dgp.unsam.edu.ar.txt
4	429	2.4708083656	www.odontologia.unt.edu.ar.txt
4	497	2.3847546886	www.udesa.edu.ar.txt
4	388	2.3777012938	www.gtec-ce.edu.ar.txt
4	428	2.3753760983	www.observatur.edu.ar.txt
4	438	2.3673460477	www.politicaygobierno.unsam.edu.ar.txt
4	313	2.3662058883	www.ceviar.unlu.edu.ar.txt
4	374	2.3480220395	www.filo.unt.edu.ar.txt
4	115	2.3020913890	extensiondigital.fpsico.unr.edu.ar.txt
4	416	2.2960093338	www.jursoc.unlp.edu.ar.txt
4	505	2.2903001068	www.unla.edu.ar.txt
4	307	2.2604211513	www.cea.unc.edu.ar.txt
4	364	2.2352150601	www.fbqf.unt.edu.ar.txt
4	102	2.2341637383	eeyn.unsam.edu.ar.txt
4	492	2.2251952676	www.ucel.edu.ar.txt
4	447	2.2162246998	www.prolab.unlp.edu.ar.txt
4	119	2.1502014557	faceweb.uncoma.edu.ar.txt
4	112	2.1358848363	estudiarenargentina.siu.edu.ar.txt
4	481	2.1107405046	www.tecc.arte.unicen.edu.ar.txt
4	394	2.1009085197	www.humanasvirtual.edu.ar.txt
4	55	2.0421291539	campus.almagro.ort.edu.ar.txt
4	131	2.0182081166	formacioncontinua.unlam.edu.ar.txt
4	361	2.0099741794	www.fapyd.unr.edu.ar.txt
4	77	1.9998838908	dep02.txt
4	381	1.9800042187	www.fqbf.unsl.edu.ar.txt
4	182	1.9430820078	odn.unne.edu.ar.txt
4	398	1.9402251097	www.idia.unsj.edu.ar.txt
4	1	1.9144234632	academiacisco.unnoba.edu.ar.txt
4	183	1.8454946038	ofertasgrado.siu.edu.ar.txt
4	352	1.7686974354	www.estadistica.unlu.edu.ar.txt
4	436	1.7420389348	www.pema.unlu.edu.ar.txt
4	127	1.6979465359	fhcss3w.unse.edu.ar.txt
4	33	1.6325550772	becas.unsl.edu.ar.txt
4	476	1.6296999546	www.sociales.unlu.edu.ar.txt
4	196	1.6218065733	postgrado.info.unlp.edu.ar.txt
4	412	1.6203828534	www.itba.edu.ar.txt
4	501	1.6168971816	www.unidesarrollo.unlu.edu.ar.txt
4	54	1.6088670702	campus.administracion.ort.edu.ar.txt
4	99	1.6056194973	economicas.unlam.edu.ar.txt
4	27	1.5974671050	auvr.uncoma.edu.ar.txt
4	69	1.5954404411	correspondencia.uncoma.edu.ar.txt
4	111	1.5929703802	essa.uncoma.edu.ar.txt
4	515	1.5884801505	www.unreditora.unr.edu.ar.txt
4	512	1.5813099480	www.unp.edu.ar.txt
4	247	1.5716431703	ubyd.ungs.edu.ar.txt
4	184	1.5688522283	ofertec.rec.utn.edu.ar.txt
4	204	1.5620780359	revistacyt.unne.edu.ar.txt
4	66	1.5596716095	cooperacion.unne.edu.ar.txt
4	338	1.5586374067	www.eco.unlpam.edu.ar.txt
4	370	1.5576679539	www.fcpolit.unr.edu.ar.txt
4	500	1.5567986471	www.une.unt.edu.ar.txt
4	217	1.5548471883	seminariorueda2010.unicen.edu.ar.txt
4	155	1.5541788886	ingenieria.unlam.edu.ar.txt
4	116	1.5515646876	extension.unicen.edu.ar.txt
4	464	1.5478866930	www.rexuni.edu.ar.txt
4	49	1.5471515039	blogs.ufasta.edu.ar.txt
4	104	1.5366398858	empleos.kennedy.edu.ar.txt
4	519	1.5363535221	www.unsj-cuim.edu.ar.txt
4	220	1.5270771077	sg.rec.utn.edu.ar.txt
4	94	1.5178106098	dvtt.unq.edu.ar.txt
4	502	1.5162855512	www.universidadhoy.unsj.edu.ar.txt
4	72	1.5160314993	csu.rec.utn.edu.ar.txt
4	473	1.5084043923	www.seguridadinformatica.unlu.edu.ar.txt
4	43	1.5065972841	biblioteca.unsl.edu.ar.txt
4	413	1.5056172837	www.iua.edu.ar.txt
4	330	1.5054119198	www.dga.unlu.edu.ar.txt
4	120	1.5044242921	faciasweb.uncoma.edu.ar.txt
4	228	1.4950712830	sistemas.uncu.edu.ar.txt
4	34	1.4934930113	biblio1.mdp.edu.ar.txt
4	271	1.4913409737	www1.unne.edu.ar.txt
4	321	1.4894325276	www.ct.unt.edu.ar.txt
4	459	1.4879509910	www.reparacion.unlu.edu.ar.txt
4	283	1.4840929169	www.argenfood.unlu.edu.ar.txt
4	377	1.4829410178	www.fm.fcm.unr.edu.ar.txt
4	142	1.4821057306	humanidades.unlam.edu.ar.txt
4	56	1.4790557810	campus.belgrano.ort.edu.ar.txt
4	202	1.4732746047	redbiblio.unne.edu.ar.txt
4	163	1.4699575371	internacional.unlam.edu.ar.txt
4	465	1.4649346472	www.riu.edu.ar.txt
4	414	1.4629501905	www.iuna.edu.ar.txt
4	223	1.4618252150	sicyt.scyt.rec.utn.edu.ar.txt
4	446	1.4616524312	www.primaria.unl.edu.ar.txt
4	166	1.4420975696	isistan.exa.unicen.edu.ar.txt
4	227	1.4417146073	sisinfo.unrc.edu.ar.txt
4	256	1.4395666715	w3.unt.edu.ar.txt
4	7	1.4377475670	alumnos.ucu.edu.ar.txt
4	322	1.4366525715	www.cultura.unlu.edu.ar.txt
4	469	1.4350132020	www.saneamiento.unlu.edu.ar.txt
4	435	1.4346719445	www.pefts.unlu.edu.ar.txt
4	448	1.4290340567	www.proyectoazul.unlu.edu.ar.txt
4	91	1.4139919686	docencia-universitaria.uai.edu.ar.txt
4	287	1.4113918836	www.atunlu.unlu.edu.ar.txt
4	475	1.4103366507	www.siat.unrc.edu.ar.txt
4	176	1.4098096257	medicina.uncoma.edu.ar.txt
4	88	1.4080326989	digesto.unsl.edu.ar.txt
4	463	1.4071359137	www.revistaestudios.unc.edu.ar.txt
4	132	1.4024282314	fundacion.unsl.edu.ar.txt
4	153	1.3983139163	infoinst.unsl.edu.ar.txt
4	457	1.3961913450	www.radiouniversidad.unse.edu.ar.txt
4	190	1.3961855059	pasantias.ufasta.edu.ar.txt
4	41	1.3952111874	biblioteca.unnoba.edu.ar.txt
4	262	1.3946954041	webmail.uncu.edu.ar.txt
4	285	1.3946954041	www.arte.unicen.edu.ar.txt
4	51	1.3914908476	blog.unnoba.edu.ar.txt
4	290	1.3870041646	www.ayv.unrc.edu.ar.txt
4	29	1.3831760438	bdigital.uncu.edu.ar.txt
4	198	1.3748730819	programas.unsl.edu.ar.txt
4	417	1.3688867702	www.laronda.unl.edu.ar.txt
4	35	1.3685276747	bibliocentral.uncoma.edu.ar.txt
4	175	1.3654187679	materias.unq.edu.ar.txt
4	371	1.3614767913	www.fcv.unl.edu.ar.txt
4	316	1.3597584879	www.ciged.unsam.edu.ar.txt
4	329	1.3597054527	www.derecho.unlz.edu.ar.txt
4	42	1.3479906419	biblioteca.unp.edu.ar.txt
4	95	1.3473487623	ead.campus.favaloro.edu.ar.txt
4	359	1.3394818545	www.extension.unsl.edu.ar.txt
4	391	1.3392449197	www.histelea.unlu.edu.ar.txt
4	107	1.3357141900	empleos.unlpam.edu.ar.txt
4	10	1.3355832887	aluweb.rect.mdp.edu.ar.txt
4	472	1.3340357548	www.secyt.unc.edu.ar.txt
4	252	1.3126840065	users.exa.unicen.edu.ar.txt
4	485	1.3112765878	www.tyr.unlu.edu.ar.txt
4	135	1.3076790307	gestion.rect.mdp.edu.ar.txt
4	52	1.3019996004	borromeo.kennedy.edu.ar.txt
4	146	1.2925701727	ibone.unne.edu.ar.txt
4	101	1.2901926713	editorial.blog.unq.edu.ar.txt
4	310	1.2897964468	www.cel.unsam.edu.ar.txt
4	47	1.2806024837	bicentenario.unc.edu.ar.txt
4	5	1.2788660934	alumnos-agr.mdp.edu.ar.txt
4	259	1.2772076963	webmail.mdp.edu.ar.txt
4	265	1.2759581657	webmail.unrc.edu.ar.txt
4	282	1.2737579562	www.analitica.unlu.edu.ar.txt
4	487	1.2737579562	www.uai.unlu.edu.ar.txt
4	452	1.2730485527	www.qgeneral.unlu.edu.ar.txt
4	174	1.2728984311	mail.uca.edu.ar.txt
4	218	1.2720400651	servicios.kennedy.edu.ar.txt
4	26	1.2711828560	auth.ucel.edu.ar.txt
4	419	1.2711828560	www.matepreuni.unlu.edu.ar.txt
4	11	1.2703268015	apunsl.unsl.edu.ar.txt
4	489	1.2703268015	www.ucacer.edu.ar.txt
4	9	1.2669140823	alumnosweb.mdp.edu.ar.txt
4	19	1.2660637657	aulavirtual.cea.unc.edu.ar.txt
4	389	1.2631181128	www.gumersindo.unlp.edu.ar.txt
4	158	1.2618136780	int02.txt
4	4	1.2609857394	agr.unne.edu.ar.txt
4	21	1.2584619711	aulavirtual.eco.unc.edu.ar.txt
4	335	1.2533740317	www.eas.unt.edu.ar.txt
4	170	1.2503044492	lae.unsl.edu.ar.txt
4	355	1.2468167245	www.e-universitas.edu.ar.txt
4	8	1.2459931626	alumnos-web.mdp.edu.ar.txt
4	36	1.2451706881	biblioteca.bib.unrc.edu.ar.txt
4	253	1.2451010279	uvt.unse.edu.ar.txt
4	303	1.2435289921	www.catec.unlu.edu.ar.txt
4	105	1.2426403813	empleos.uda.edu.ar.txt
4	162	1.2396230850	inter2.unsl.edu.ar.txt
4	349	1.2386297757	www.electro.fisica.unlp.edu.ar.txt
4	400	1.2386297757	www.iflp.fisica.unlp.edu.ar.txt
4	68	1.2386297757	correo.unq.edu.ar.txt
4	478	1.2378169903	www.so.unlu.edu.ar.txt
4	185	1.2370052709	old.uda.edu.ar.txt
4	470	1.2337690113	www.secgral.unse.edu.ar.txt
4	20	1.2329625906	aulavirtual.derecho.proed.unc.edu.ar.txt
4	59	1.2329625906	cegae.unne.edu.ar.txt
4	294	1.2297474220	www.becas.unlp.edu.ar.txt
4	455	1.2273470282	www.qui10192.unlu.edu.ar.txt
4	57	1.2265489780	campusmoodle.proed.unc.edu.ar.txt
4	503	1.2257519650	www.universidadnotarial.edu.ar.txt
4	318	1.2249559870	www.compras.unlu.edu.ar.txt
4	314	1.2241610422	www.cidepa.unlu.edu.ar.txt
4	454	1.2147015608	www.qui10017.unlu.edu.ar.txt
4	171	1.2146352680	licitaciones.unsl.edu.ar.txt
4	266	1.2100264313	webmail.unr.edu.ar.txt
4	23	1.2092507396	aulavirtual.odontologia.unc.edu.ar.txt
4	189	1.2092507396	paimec.unsl.edu.ar.txt
4	53	1.2092507396	campus2.unsl.edu.ar.txt
4	460	1.2084760418	www.representacion.unt.edu.ar.txt
4	96	1.2054817954	e-basura.linti.unlp.edu.ar.txt
4	193	1.2046173942	planinst.unsl.edu.ar.txt
4	442	1.2030808259	www.practicaspreprofesionales.unlp.edu.ar.txt
4	39	1.2030808259	bibliotecas.unr.edu.ar.txt
4	45	1.1984945512	biblio.unlp.edu.ar.txt
4	144	1.1827143274	hum.unne.edu.ar.txt
4	261	1.1804312566	webmail.unc.edu.ar.txt
4	334	1.1716947852	www.ead.unsj.edu.ar.txt
4	108	1.1702410083	empresas.unlam.edu.ar.txt
4	345	1.1659012428	www.efu.unsj.edu.ar.txt
4	295	1.1530729462	www.becas.unr.edu.ar.txt
4	331	1.1502604567	www.diu.unr.edu.ar.txt
4	201	1.1391463735	rectorado.unl.edu.ar.txt
4	467	1.1391463735	www.rueda.edu.ar.txt
4	392	1.1336694848	www.hort.unlu.edu.ar.txt
4	281	1.1142496776	www.analisis1.unlu.edu.ar.txt
4	384	1.1090090232	www.fveter.unr.edu.ar.txt
4	527	1.1011853384	www.vinctec.uner.edu.ar.txt
4	422	1.0951120970	www.mendoza.edu.ar.txt
4	225	1.0935787252	simap.rect.mdp.edu.ar.txt
4	269	1.0822848733	wichi.rect.mdp.edu.ar.txt
4	289	1.0810443839	www.autogestionpsico.unt.edu.ar.txt
4	458	1.0767249753	www.redbien.edu.ar.txt
4	408	1.0748843486	www.insumos-labcentral.unlu.edu.ar.txt
4	366	1.0503454153	www.fca.proed.unc.edu.ar.txt
4	484	1.0491770225	www.temambiental.unlu.edu.ar.txt
4	309	1.0280211718	www.cehp.unsam.edu.ar.txt
4	250	1.0207891554	uncavim50.unc.edu.ar.txt
4	93	1.0125699416	dospu.unsl.edu.ar.txt
4	397	1.0068492532	www.ideas.unsam.edu.ar.txt
4	90	1.0018146952	dngusisco.siu.edu.ar.txt
4	312	0.9996910052	www.cesc.unsam.edu.ar.txt
4	226	0.9991614889	sinfpatagonia.unrn.edu.ar.txt
4	222	0.9876524134	shya.unsl.edu.ar.txt
4	401	0.9871355701	www.iflysib.unlp.edu.ar.txt
4	213	0.9871355701	sal06.txt
4	110	0.9614751949	entornovirtual.unl.edu.ar.txt
4	382	0.9348460602	www.frlp.utn.edu.ar.txt
4	305	0.9163631781	www.ccu.unsj.edu.ar.txt
4	263	0.9126323254	webmail.unla.edu.ar.txt
4	315	0.8757699693	www.ciedal.unsam.edu.ar.txt
4	317	0.8657218136	www.ci-mercosur.unsj.edu.ar.txt
4	293	0.8574578503	www.becas.unicen.edu.ar.txt
4	308	0.8421456389	www.ced.unsam.edu.ar.txt
4	154	0.8284608266	info.unsl.edu.ar.txt
4	192	0.7626822493	piduner.uner.edu.ar.txt
4	128	0.7461690632	fisica.mdp.edu.ar.txt
4	248	0.6808653941	ucesarte.uces.edu.ar.txt
5	441	9.4010192993	www.posgrado.unsl.edu.ar.txt
5	123	7.5120768805	farmacia.unsl.edu.ar.txt
5	270	6.7640207276	www0.unsl.edu.ar.txt
5	132	6.2206147998	fundacion.unsl.edu.ar.txt
5	128	5.7203088578	fisica.mdp.edu.ar.txt
5	359	5.6368040858	www.extension.unsl.edu.ar.txt
5	74	5.0307202972	dch.unne.edu.ar.txt
5	510	4.9857063473	www.unnoba.edu.ar.txt
5	195	4.8680393098	posgrado.fceia.unr.edu.ar.txt
5	189	4.8008792408	paimec.unsl.edu.ar.txt
5	153	4.7913981117	infoinst.unsl.edu.ar.txt
5	126	4.7635926379	ffyl.uncu.edu.ar.txt
5	394	4.7337825323	www.humanasvirtual.edu.ar.txt
5	33	4.7198701535	becas.unsl.edu.ar.txt
5	53	4.7165265543	campus2.unsl.edu.ar.txt
5	193	4.7108028887	planinst.unsl.edu.ar.txt
5	167	4.6605825893	jardinmaternal.unsl.edu.ar.txt
5	420	4.6198032552	www.mdp.edu.ar.txt
5	506	4.6042853562	www.unlpam.edu.ar.txt
5	346	4.5830028619	www.eicam.unsj.edu.ar.txt
5	362	4.5603248726	www.favaloro.edu.ar.txt
5	450	4.5507616342	www.psico.unlp.edu.ar.txt
5	376	4.5344315130	www.fiqus.unl.edu.ar.txt
5	381	4.5136649692	www.fqbf.unsl.edu.ar.txt
5	154	4.5120530698	info.unsl.edu.ar.txt
5	276	4.5068843973	www.3ia.unsam.edu.ar.txt
5	88	4.4895144777	digesto.unsl.edu.ar.txt
5	494	4.4699295932	www.ucine.edu.ar.txt
5	272	4.4400520540	www.21.edu.ar.txt
5	407	4.4348846256	www.ing.unrc.edu.ar.txt
5	372	4.4133193419	www.ffha.unsj.edu.ar.txt
5	114	4.3957463381	exa.unne.edu.ar.txt
5	426	4.3693047950	www.neu.unsl.edu.ar.txt
5	207	4.3469638991	saebu.unsl.edu.ar.txt
5	334	4.3383040889	www.ead.unsj.edu.ar.txt
5	498	4.3151930116	www.uesiglo21.edu.ar.txt
5	402	4.3040958007	www.info.unlp.edu.ar.txt
5	46	4.2266413355	bib.unne.edu.ar.txt
5	43	4.2255153783	biblioteca.unsl.edu.ar.txt
5	299	4.2040810931	www.caece.edu.ar.txt
5	365	4.1948651717	www.fcagr.unr.edu.ar.txt
5	367	4.1774689553	www.fcjs.unl.edu.ar.txt
5	83	4.1576303722	deptomat.unsl.edu.ar.txt
5	312	4.1440867806	www.cesc.unsam.edu.ar.txt
5	110	4.1198430611	entornovirtual.unl.edu.ar.txt
5	468	4.0544826193	www.salud.unicen.edu.ar.txt
5	358	3.9909648346	www.exa.unrc.edu.ar.txt
5	514	3.9681415981	www.unrc.edu.ar.txt
5	490	3.9562013430	www.ucc.edu.ar.txt
5	393	3.9340918190	www.hospital.uncu.edu.ar.txt
5	339	3.9328743711	www.eco.unrc.edu.ar.txt
5	363	3.9226668238	www.fbioyf.unr.edu.ar.txt
5	11	3.9212778967	apunsl.unsl.edu.ar.txt
5	375	3.8910577247	www.fiq.unl.edu.ar.txt
5	117	3.8712658412	faa.unse.edu.ar.txt
5	378	3.8525543856	www.fm.unt.edu.ar.txt
5	357	3.8486112157	www.exa.unicen.edu.ar.txt
5	491	3.8408672039	www.uccor.edu.ar.txt
5	306	3.8390618564	www.cdc.unrc.edu.ar.txt
5	222	3.8358147328	shya.unsl.edu.ar.txt
5	179	3.7984927207	museocontacto.unsl.edu.ar.txt
5	171	3.7493678187	licitaciones.unsl.edu.ar.txt
5	329	3.7322914445	www.derecho.unlz.edu.ar.txt
5	380	3.6842319136	www.fpsico.unr.edu.ar.txt
5	520	3.6382808148	www.untref.edu.ar.txt
5	298	3.6047347411	www.biol.unlp.edu.ar.txt
5	198	3.5989343590	programas.unsl.edu.ar.txt
5	338	3.5819735006	www.eco.unlpam.edu.ar.txt
5	130	3.5788390281	florida.unsl.edu.ar.txt
5	368	3.5534307762	www.fcm.unl.edu.ar.txt
5	97	3.5416811591	eco.mdp.edu.ar.txt
5	416	3.5152860277	www.jursoc.unlp.edu.ar.txt
5	379	3.5086564519	www.folp.unlp.edu.ar.txt
5	100	3.4776178257	eco.unne.edu.ar.txt
5	309	3.4023801739	www.cehp.unsam.edu.ar.txt
5	162	3.3863183170	inter2.unsl.edu.ar.txt
5	517	3.3275540624	www.unsam.edu.ar.txt
5	523	3.2708444570	www.utdt.edu.txt
5	524	3.1686098537	www.utn.edu.ar.txt
5	507	3.1664353448	www.unlu.edu.ar.txt
5	471	3.1595906560	www.secretariaacademica.unr.edu.ar.txt
5	307	3.0911611873	www.cea.unc.edu.ar.txt
5	398	3.0688496980	www.idia.unsj.edu.ar.txt
5	86	3.0574653296	dgp.unsam.edu.ar.txt
5	186	3.0493302865	organizaciones.unrc.edu.ar.txt
5	244	3.0181705225	teyet-revista.info.unlp.edu.ar.txt
5	492	3.0082491268	www.ucel.edu.ar.txt
5	73	2.9767634952	cvd.edu.ar.txt
5	229	2.9589277314	sistemas.unlpam.edu.ar.txt
5	200	2.9348699398	rapes.unsl.edu.ar.txt
5	315	2.8984834771	www.ciedal.unsam.edu.ar.txt
5	102	2.8898479532	eeyn.unsam.edu.ar.txt
5	435	2.8776975992	www.pefts.unlu.edu.ar.txt
5	438	2.8352993280	www.politicaygobierno.unsam.edu.ar.txt
5	397	2.8323382680	www.ideas.unsam.edu.ar.txt
5	321	2.8010056475	www.ct.unt.edu.ar.txt
5	308	2.7871990423	www.ced.unsam.edu.ar.txt
5	66	2.7226736633	cooperacion.unne.edu.ar.txt
5	125	2.7142280715	fce.unse.edu.ar.txt
5	513	2.6999702785	www.unq.edu.ar.txt
5	369	2.6846851004	www.fcm.unr.edu.ar.txt
5	526	2.6711862996	www.vet.unicen.edu.ar.txt
5	109	2.6608498557	enfermeria.fhu.unse.edu.ar.txt
5	170	2.5606883495	lae.unsl.edu.ar.txt
5	340	2.5420363853	www.ecyt.unsam.edu.ar.txt
5	58	2.5377468729	campus.ucu.edu.ar.txt
5	220	2.5111523420	sg.rec.utn.edu.ar.txt
5	72	2.4826821980	csu.rec.utn.edu.ar.txt
5	374	2.4664546878	www.filo.unt.edu.ar.txt
5	403	2.4163060914	www.ingresantes.uner.edu.ar.txt
5	290	2.4151910496	www.ayv.unrc.edu.ar.txt
5	451	2.4063748765	www.puntoedu.edu.ar.txt
5	405	2.4053566643	www.ing.unlpam.edu.ar.txt
5	89	2.4043183081	distancia.fcq.unc.edu.ar.txt
5	1	2.3795647705	academiacisco.unnoba.edu.ar.txt
5	319	2.3736657171	www.coneau.edu.ar.txt
5	175	2.3595583460	materias.unq.edu.ar.txt
5	184	2.3579044291	ofertec.rec.utn.edu.ar.txt
5	476	2.3520665178	www.sociales.unlu.edu.ar.txt
5	95	2.3422519515	ead.campus.favaloro.edu.ar.txt
5	350	2.3340608395	www.entomologiaforense.unq.edu.ar.txt
5	301	2.3271232113	www.campusvirtualunr.edu.ar.txt
5	317	2.3176045534	www.ci-mercosur.unsj.edu.ar.txt
5	24	2.3008358976	aulavirtual.psyche.unc.edu.ar.txt
5	373	2.2931693058	www.fhumyar.unr.edu.ar.txt
5	316	2.2613195126	www.ciged.unsam.edu.ar.txt
5	313	2.2547454605	www.ceviar.unlu.edu.ar.txt
5	194	2.2514445158	platdig.unlu.edu.ar.txt
5	255	2.2514445158	virtual.unrn.edu.ar.txt
5	455	2.2218539939	www.qui10192.unlu.edu.ar.txt
5	23	2.2028286774	aulavirtual.odontologia.unc.edu.ar.txt
5	414	2.2022550580	www.iuna.edu.ar.txt
5	4	2.1957551023	agr.unne.edu.ar.txt
5	108	2.1609931478	empresas.unlam.edu.ar.txt
5	429	2.1567475759	www.odontologia.unt.edu.ar.txt
5	406	2.1413747395	www.ing.unlp.edu.ar.txt
5	370	2.1356334242	www.fcpolit.unr.edu.ar.txt
5	196	2.1123035247	postgrado.info.unlp.edu.ar.txt
5	281	2.0989007923	www.analisis1.unlu.edu.ar.txt
5	497	2.0832599806	www.udesa.edu.ar.txt
5	25	2.0818734247	ausmaweb.uncoma.edu.ar.txt
5	485	2.0565270973	www.tyr.unlu.edu.ar.txt
5	143	2.0558327390	humanidades.unsam.edu.ar.txt
5	92	2.0186980686	docensci.sites.exa.unicen.edu.ar.txt
5	121	2.0138973611	fadeweb.uncoma.edu.ar.txt
5	246	2.0128267719	uaionline.uai.edu.ar.txt
5	199	2.0104669781	publicacionesfh.mdp.edu.ar.txt
5	521	1.9931115070	www.untrefvirtual.edu.ar.txt
5	75	1.9864935339	dcm.unr.edu.ar.txt
5	300	1.9563270344	www.campusdigital.unlu.edu.ar.txt
5	511	1.9458550363	www.uno.edu.ar.txt
5	20	1.9337041484	aulavirtual.derecho.proed.unc.edu.ar.txt
5	57	1.9236454253	campusmoodle.proed.unc.edu.ar.txt
5	388	1.8981037556	www.gtec-ce.edu.ar.txt
5	522	1.8935463838	www.uspt.edu.ar.txt
5	323	1.8916652769	www.dante.edu.ar.txt
5	119	1.8834110074	faceweb.uncoma.edu.ar.txt
5	87	1.8765648061	dgti.uncoma.edu.ar.txt
5	361	1.8759698331	www.fapyd.unr.edu.ar.txt
5	481	1.8685143649	www.tecc.arte.unicen.edu.ar.txt
5	383	1.8642486652	www.frp.utn.edu.ar.txt
5	337	1.8128165759	www.economicas.unlz.edu.ar.txt
5	183	1.8068334595	ofertasgrado.siu.edu.ar.txt
5	271	1.8048478542	www1.unne.edu.ar.txt
5	390	1.7787186463	www.herrera.unt.edu.ar.txt
5	35	1.7444604328	bibliocentral.uncoma.edu.ar.txt
5	90	1.7444604328	dngusisco.siu.edu.ar.txt
5	296	1.7435344650	www.bibliotecacentral.unsam.edu.ar.txt
5	488	1.7388413104	www.ub.edu.ar.txt
5	288	1.7331890651	www.ausal.unlu.edu.ar.txt
5	151	1.7301482618	iifap.proed.unc.edu.ar.txt
5	37	1.7197996443	bibliotecadigital.uda.edu.ar.txt
5	103	1.7121251760	eluniversitario.unne.edu.ar.txt
5	499	1.7091709661	www.uner.edu.ar.txt
5	396	1.7061172386	www.icj.jursoc.unlp.edu.ar.txt
5	48	1.7032537144	blogs.ffyh.unc.edu.ar.txt
5	466	1.7022736682	www.roble.unlp.edu.ar.txt
5	155	1.6925348822	ingenieria.unlam.edu.ar.txt
5	215	1.6790863003	salud.unlam.edu.ar.txt
5	91	1.6776376192	docencia-universitaria.uai.edu.ar.txt
5	122	1.6709448659	fahuweb.uncoma.edu.ar.txt
5	71	1.6309887246	crubweb.uncoma.edu.ar.txt
5	328	1.6192713501	www.derechoshumanos.unlp.edu.ar.txt
5	261	1.5868639110	webmail.unc.edu.ar.txt
5	168	1.5762032495	kinesio.med.unne.edu.ar.txt
5	116	1.5593139736	extension.unicen.edu.ar.txt
5	401	1.5481638791	www.iflysib.unlp.edu.ar.txt
5	227	1.4796400975	sisinfo.unrc.edu.ar.txt
5	305	1.4371687287	www.ccu.unsj.edu.ar.txt
5	518	1.4244567520	www.uns.edu.ar.txt
5	505	1.3999068407	www.unla.edu.ar.txt
5	389	1.3278337847	www.gumersindo.unlp.edu.ar.txt
5	422	1.2757751964	www.mendoza.edu.ar.txt
5	51	1.2386079871	blog.unnoba.edu.ar.txt
5	274	1.2275304698	www2.mdp.edu.ar.txt
5	85	1.2035865614	dgisrv15.unt.edu.ar.txt
5	115	1.1937170456	extensiondigital.fpsico.unr.edu.ar.txt
5	291	1.1895250470	www.bancodigitalconveniosinternacionales.unr.edu.ar.txt
5	428	1.1208248395	www.observatur.edu.ar.txt
5	509	1.1093468009	www.unlz.edu.ar.txt
5	377	1.0582385334	www.fm.fcm.unr.edu.ar.txt
5	16	0.9506750031	arq.unne.edu.ar.txt
5	413	0.8556287191	www.iua.edu.ar.txt
5	342	0.7660337150	www.editorial.unlp.edu.ar.txt
5	324	0.7071648479	www.dasmi.unlu.edu.ar.txt
5	248	0.6700977489	ucesarte.uces.edu.ar.txt
