1 Q0 501 0 6.7201996211431005 TF_IDF
1 Q0 343 1 6.0248541342847055 TF_IDF
1 Q0 300 2 5.603099112909755 TF_IDF
1 Q0 327 3 5.4030347548467805 TF_IDF
1 Q0 435 4 4.753773166200863 TF_IDF
1 Q0 324 5 4.26841233451948 TF_IDF
1 Q0 58 6 3.9139006336955564 TF_IDF
1 Q0 510 7 3.9031550172790728 TF_IDF
1 Q0 420 8 3.776987008785886 TF_IDF
1 Q0 362 9 3.7299826521177466 TF_IDF
1 Q0 175 10 3.724977113900133 TF_IDF
1 Q0 346 11 3.722483246068207 TF_IDF
1 Q0 451 12 3.7199471544630813 TF_IDF
1 Q0 313 13 3.7111777923797167 TF_IDF
1 Q0 403 14 3.6995220195558636 TF_IDF
1 Q0 95 15 3.6896007137596496 TF_IDF
1 Q0 272 16 3.685074155969168 TF_IDF
1 Q0 498 17 3.642247544178903 TF_IDF
1 Q0 299 18 3.6014376447978975 TF_IDF
1 Q0 494 19 3.5955002343903515 TF_IDF
1 Q0 301 20 3.5939291254999777 TF_IDF
1 Q0 506 21 3.5863482100929946 TF_IDF
1 Q0 46 22 3.579699044651205 TF_IDF
1 Q0 376 23 3.5538319574425534 TF_IDF
1 Q0 97 24 3.5442744859170277 TF_IDF
1 Q0 441 25 3.513326519305328 TF_IDF
1 Q0 334 26 3.4697261551678444 TF_IDF
1 Q0 450 27 3.4607539123674296 TF_IDF
1 Q0 114 28 3.4586649288305455 TF_IDF
1 Q0 455 29 3.4492010220909335 TF_IDF
1 Q0 23 30 3.412079417024695 TF_IDF
1 Q0 25 31 3.40931126108481 TF_IDF
1 Q0 110 32 3.4071010153526897 TF_IDF
1 Q0 511 33 3.4024081718118233 TF_IDF
1 Q0 74 34 3.3904682595148996 TF_IDF
1 Q0 485 35 3.367803685033607 TF_IDF
1 Q0 126 36 3.354154795038883 TF_IDF
1 Q0 108 37 3.3312341561867562 TF_IDF
1 Q0 372 38 3.3236681178317786 TF_IDF
1 Q0 276 39 3.3092678265126008 TF_IDF
1 Q0 402 40 3.296649697995816 TF_IDF
1 Q0 132 41 3.293990996000881 TF_IDF
1 Q0 380 42 3.263622939589504 TF_IDF
1 Q0 365 43 3.2557450903870224 TF_IDF
1 Q0 379 44 3.252984862420166 TF_IDF
1 Q0 73 45 3.250646358558412 TF_IDF
1 Q0 492 46 3.2492595468657157 TF_IDF
1 Q0 357 47 3.220681476866034 TF_IDF
1 Q0 281 48 3.21315046990001 TF_IDF
1 Q0 375 49 3.209788187482949 TF_IDF
1 Q0 317 50 3.183326366997425 TF_IDF
1 Q0 390 51 3.1695199231545503 TF_IDF
1 Q0 429 52 3.1693175174829054 TF_IDF
1 Q0 20 53 3.1666667389703997 TF_IDF
1 Q0 117 54 3.1639317356741787 TF_IDF
1 Q0 57 55 3.1501944033327236 TF_IDF
1 Q0 116 56 3.110878661198112 TF_IDF
1 Q0 490 57 3.090776689365109 TF_IDF
1 Q0 87 58 3.073094382093055 TF_IDF
1 Q0 328 59 3.0688255974853194 TF_IDF
1 Q0 306 60 3.065434585865145 TF_IDF
1 Q0 481 61 3.0599108429464184 TF_IDF
1 Q0 383 62 3.0529252607247575 TF_IDF
1 Q0 102 63 3.020456641192898 TF_IDF
1 Q0 407 64 3.020159139857531 TF_IDF
1 Q0 368 65 2.9924509468290337 TF_IDF
1 Q0 246 66 2.9912006904254946 TF_IDF
1 Q0 471 67 2.9851977301064014 TF_IDF
1 Q0 143 68 2.969348998816413 TF_IDF
1 Q0 312 69 2.963450013630772 TF_IDF
1 Q0 507 70 2.95937931257422 TF_IDF
1 Q0 100 71 2.957923530180639 TF_IDF
1 Q0 522 72 2.952985411512815 TF_IDF
1 Q0 491 73 2.9166396348625048 TF_IDF
1 Q0 367 74 2.8952958364443644 TF_IDF
1 Q0 122 75 2.8834760529321817 TF_IDF
1 Q0 339 76 2.8816390653287858 TF_IDF
1 Q0 66 77 2.849865376237477 TF_IDF
1 Q0 513 78 2.8414176050655318 TF_IDF
1 Q0 288 79 2.838299834770206 TF_IDF
1 Q0 514 80 2.8319474146436523 TF_IDF
1 Q0 125 81 2.8307478357051714 TF_IDF
1 Q0 291 82 2.8234984188748875 TF_IDF
1 Q0 505 83 2.8140307157460844 TF_IDF
1 Q0 103 84 2.8038052523912342 TF_IDF
1 Q0 340 85 2.7883468966541067 TF_IDF
1 Q0 229 86 2.7769781333321815 TF_IDF
1 Q0 378 87 2.7687486845262304 TF_IDF
1 Q0 398 88 2.7674407737478197 TF_IDF
1 Q0 195 89 2.7589267247476914 TF_IDF
1 Q0 521 90 2.7302496957324296 TF_IDF
1 Q0 123 91 2.7145875100475894 TF_IDF
1 Q0 363 92 2.661647725694139 TF_IDF
1 Q0 520 93 2.646427846893051 TF_IDF
1 Q0 309 94 2.640307562044744 TF_IDF
1 Q0 86 95 2.6397057926345004 TF_IDF
1 Q0 51 96 2.63009883471987 TF_IDF
1 Q0 523 97 2.611703500118278 TF_IDF
1 Q0 244 98 2.611175104428176 TF_IDF
1 Q0 298 99 2.596641821731152 TF_IDF
1 Q0 389 100 2.590951897460295 TF_IDF
1 Q0 397 101 2.5859308835536905 TF_IDF
1 Q0 405 102 2.5774640732597556 TF_IDF
1 Q0 401 103 2.5352994491897336 TF_IDF
1 Q0 270 104 2.506388062948209 TF_IDF
1 Q0 359 105 2.5056289723335237 TF_IDF
1 Q0 517 106 2.4791694356519374 TF_IDF
1 Q0 438 107 2.4771754483858466 TF_IDF
1 Q0 428 108 2.466997745859622 TF_IDF
1 Q0 374 109 2.4627445011112368 TF_IDF
1 Q0 321 110 2.4463854397578793 TF_IDF
1 Q0 524 111 2.4415634139778724 TF_IDF
1 Q0 358 112 2.421598355172506 TF_IDF
1 Q0 85 113 2.4050266296558425 TF_IDF
1 Q0 89 114 2.4043183081075665 TF_IDF
1 Q0 1 115 2.3795647704522245 TF_IDF
1 Q0 422 116 2.3708872934756604 TF_IDF
1 Q0 128 117 2.3653903355057166 TF_IDF
1 Q0 305 118 2.3535319068265785 TF_IDF
1 Q0 350 119 2.3340608394846094 TF_IDF
1 Q0 16 120 2.3232336041797255 TF_IDF
1 Q0 24 121 2.300835897560533 TF_IDF
1 Q0 255 122 2.2514445157919334 TF_IDF
1 Q0 194 123 2.2514445157919334 TF_IDF
1 Q0 315 124 2.2492747582740047 TF_IDF
1 Q0 526 125 2.2304735905498907 TF_IDF
1 Q0 468 126 2.203876308775707 TF_IDF
1 Q0 394 127 2.19352726056839 TF_IDF
1 Q0 308 128 2.162916056460389 TF_IDF
1 Q0 416 129 2.1590596021373587 TF_IDF
1 Q0 186 130 2.1470610058998387 TF_IDF
1 Q0 406 131 2.1413747394840463 TF_IDF
1 Q0 196 132 2.112303524710838 TF_IDF
1 Q0 329 133 2.088241305291666 TF_IDF
1 Q0 92 134 2.0186980685609304 TF_IDF
1 Q0 199 135 2.010466978124045 TF_IDF
1 Q0 115 136 1.9881783474638728 TF_IDF
1 Q0 323 137 1.891665276873162 TF_IDF
1 Q0 361 138 1.8759698331437815 TF_IDF
1 Q0 393 139 1.8642486652356538 TF_IDF
1 Q0 274 140 1.82100944033346 TF_IDF
1 Q0 369 141 1.7972267891592493 TF_IDF
1 Q0 151 142 1.730148261822676 TF_IDF
1 Q0 396 143 1.706117238618785 TF_IDF
1 Q0 48 144 1.703253714368924 TF_IDF
1 Q0 466 145 1.7022736681956014 TF_IDF
1 Q0 338 146 1.6973903062506308 TF_IDF
1 Q0 155 147 1.6925348822439574 TF_IDF
1 Q0 215 148 1.679086300309107 TF_IDF
1 Q0 27 149 1.5974671049709255 TF_IDF
1 Q0 69 150 1.595440441126805 TF_IDF
1 Q0 111 151 1.5929703801641129 TF_IDF
1 Q0 515 152 1.5884801505451638 TF_IDF
1 Q0 512 153 1.5813099480062016 TF_IDF
1 Q0 247 154 1.5716431702918898 TF_IDF
1 Q0 184 155 1.5688522283403106 TF_IDF
1 Q0 204 156 1.562078035903311 TF_IDF
1 Q0 307 157 1.5593205137729966 TF_IDF
1 Q0 500 158 1.5567986471359487 TF_IDF
1 Q0 217 159 1.5548471882725297 TF_IDF
1 Q0 464 160 1.5478866929515291 TF_IDF
1 Q0 49 161 1.5471515039209776 TF_IDF
1 Q0 245 162 1.5397794842226769 TF_IDF
1 Q0 104 163 1.536639885755753 TF_IDF
1 Q0 519 164 1.5363535221169125 TF_IDF
1 Q0 75 165 1.5316438252397306 TF_IDF
1 Q0 509 166 1.52860524833043 TF_IDF
1 Q0 220 167 1.527077107669667 TF_IDF
1 Q0 98 168 1.5223819329058716 TF_IDF
1 Q0 94 169 1.5178106098230946 TF_IDF
1 Q0 502 170 1.516285551213873 TF_IDF
1 Q0 72 171 1.5160314992859514 TF_IDF
1 Q0 493 172 1.51394242683856 TF_IDF
1 Q0 473 173 1.5084043923477959 TF_IDF
1 Q0 43 174 1.5065972841001716 TF_IDF
1 Q0 330 175 1.5054119197849871 TF_IDF
1 Q0 120 176 1.5044242921211812 TF_IDF
1 Q0 228 177 1.4950712829995119 TF_IDF
1 Q0 434 178 1.4948403486992083 TF_IDF
1 Q0 34 179 1.4934930112915963 TF_IDF
1 Q0 271 180 1.4913409736519672 TF_IDF
1 Q0 459 181 1.487950990957888 TF_IDF
1 Q0 18 182 1.4844382190624343 TF_IDF
1 Q0 283 183 1.484092916904249 TF_IDF
1 Q0 197 184 1.4836708438813804 TF_IDF
1 Q0 342 185 1.4775599612669357 TF_IDF
1 Q0 28 186 1.4762368212914974 TF_IDF
1 Q0 202 187 1.47327460465873 TF_IDF
1 Q0 163 188 1.4699575370788236 TF_IDF
1 Q0 465 189 1.4649346471993845 TF_IDF
1 Q0 223 190 1.4618252149545639 TF_IDF
1 Q0 446 191 1.4616524311974965 TF_IDF
1 Q0 70 192 1.4546079659233835 TF_IDF
1 Q0 297 193 1.4498721302053668 TF_IDF
1 Q0 118 194 1.4479088671660845 TF_IDF
1 Q0 166 195 1.442097569565845 TF_IDF
1 Q0 227 196 1.4417146073152687 TF_IDF
1 Q0 256 197 1.439566671488451 TF_IDF
1 Q0 7 198 1.4377475670142486 TF_IDF
1 Q0 322 199 1.4366525715094753 TF_IDF
1 Q0 65 200 1.4354834861236463 TF_IDF
1 Q0 469 201 1.4350132020107447 TF_IDF
1 Q0 448 202 1.4290340567372268 TF_IDF
1 Q0 37 203 1.4268264188612372 TF_IDF
1 Q0 121 204 1.420371136756636 TF_IDF
1 Q0 140 205 1.4147139207785657 TF_IDF
1 Q0 91 206 1.413991968601329 TF_IDF
1 Q0 287 207 1.4113918836236439 TF_IDF
1 Q0 475 208 1.410336650662859 TF_IDF
1 Q0 176 209 1.4098096256733068 TF_IDF
1 Q0 88 210 1.4080326988503213 TF_IDF
1 Q0 463 211 1.4071359136908175 TF_IDF
1 Q0 109 212 1.4047781284602543 TF_IDF
1 Q0 496 213 1.3986759148982033 TF_IDF
1 Q0 153 214 1.3983139162702565 TF_IDF
1 Q0 457 215 1.3961913449954901 TF_IDF
1 Q0 190 216 1.3961855058717807 TF_IDF
1 Q0 41 217 1.395211187412859 TF_IDF
1 Q0 262 218 1.394695404127085 TF_IDF
1 Q0 285 219 1.394695404127085 TF_IDF
1 Q0 499 220 1.3937372757774695 TF_IDF
1 Q0 3 221 1.3910955713865218 TF_IDF
1 Q0 290 222 1.3870041645659752 TF_IDF
1 Q0 518 223 1.3849157640828567 TF_IDF
1 Q0 29 224 1.3831760437957765 TF_IDF
1 Q0 439 225 1.3750811674084242 TF_IDF
1 Q0 198 226 1.3748730819418615 TF_IDF
1 Q0 417 227 1.3688867702431968 TF_IDF
1 Q0 35 228 1.368527674670619 TF_IDF
1 Q0 371 229 1.3614767913236787 TF_IDF
1 Q0 316 230 1.3597584878554105 TF_IDF
1 Q0 17 231 1.355119397707523 TF_IDF
1 Q0 433 232 1.3526668522828054 TF_IDF
1 Q0 248 233 1.350963142953865 TF_IDF
1 Q0 42 234 1.3479906418774965 TF_IDF
1 Q0 391 235 1.3392449196756033 TF_IDF
1 Q0 107 236 1.3357141899852711 TF_IDF
1 Q0 10 237 1.3355832886543346 TF_IDF
1 Q0 472 238 1.3340357547566288 TF_IDF
1 Q0 373 239 1.3169291008446153 TF_IDF
1 Q0 252 240 1.3126840065170466 TF_IDF
1 Q0 135 241 1.3076790306992945 TF_IDF
1 Q0 52 242 1.3019996004312757 TF_IDF
1 Q0 404 243 1.2968904666579786 TF_IDF
1 Q0 146 244 1.2925701727205596 TF_IDF
1 Q0 101 245 1.290192671278645 TF_IDF
1 Q0 310 246 1.2897964467751062 TF_IDF
1 Q0 497 247 1.2884376534187982 TF_IDF
1 Q0 200 248 1.283870210707728 TF_IDF
1 Q0 47 249 1.2806024836950558 TF_IDF
1 Q0 5 250 1.2788660934036922 TF_IDF
1 Q0 259 251 1.2772076962594905 TF_IDF
1 Q0 265 252 1.2759581656658794 TF_IDF
1 Q0 487 253 1.2737579562282701 TF_IDF
1 Q0 282 254 1.2737579562282701 TF_IDF
1 Q0 174 255 1.2728984310535187 TF_IDF
1 Q0 218 256 1.272040065102671 TF_IDF
1 Q0 419 257 1.2711828560321752 TF_IDF
1 Q0 26 258 1.2711828560321752 TF_IDF
1 Q0 11 259 1.2703268015047917 TF_IDF
1 Q0 489 260 1.2703268015047917 TF_IDF
1 Q0 284 261 1.2703268015047917 TF_IDF
1 Q0 9 262 1.2669140823013716 TF_IDF
1 Q0 19 263 1.2660637656504374 TF_IDF
1 Q0 4 264 1.2609857393545303 TF_IDF
1 Q0 21 265 1.258461971138733 TF_IDF
1 Q0 482 266 1.2580124481002422 TF_IDF
1 Q0 335 267 1.2533740317236395 TF_IDF
1 Q0 488 268 1.251260316539972 TF_IDF
1 Q0 170 269 1.250304449215142 TF_IDF
1 Q0 355 270 1.2468167244856172 TF_IDF
1 Q0 8 271 1.2459931626390484 TF_IDF
1 Q0 36 272 1.2451706880515598 TF_IDF
1 Q0 253 273 1.2451010279105723 TF_IDF
1 Q0 303 274 1.2435289920528394 TF_IDF
1 Q0 105 275 1.2426403812833662 TF_IDF
1 Q0 162 276 1.2396230849833711 TF_IDF
1 Q0 444 277 1.2396230849833711 TF_IDF
1 Q0 68 278 1.2386297756655955 TF_IDF
1 Q0 400 279 1.2386297756655955 TF_IDF
1 Q0 349 280 1.2386297756655955 TF_IDF
1 Q0 478 281 1.2378169902618699 TF_IDF
1 Q0 185 282 1.2370052708536705 TF_IDF
1 Q0 470 283 1.2337690113431905 TF_IDF
1 Q0 59 284 1.232962590585764 TF_IDF
1 Q0 294 285 1.2297474219817217 TF_IDF
1 Q0 503 286 1.2257519649579571 TF_IDF
1 Q0 318 287 1.2249559870335947 TF_IDF
1 Q0 314 288 1.224161042221488 TF_IDF
1 Q0 454 289 1.214701560762166 TF_IDF
1 Q0 171 290 1.2146352679647956 TF_IDF
1 Q0 266 291 1.2100264313478803 TF_IDF
1 Q0 53 292 1.2092507396217982 TF_IDF
1 Q0 189 293 1.2092507396217982 TF_IDF
1 Q0 460 294 1.2084760417784366 TF_IDF
1 Q0 96 295 1.2054817953933903 TF_IDF
1 Q0 193 296 1.2046173941598977 TF_IDF
1 Q0 39 297 1.2030808258530055 TF_IDF
1 Q0 442 298 1.2030808258530055 TF_IDF
1 Q0 45 299 1.1984945511928342 TF_IDF
1 Q0 453 300 1.1958760153079737 TF_IDF
1 Q0 144 301 1.1827143274392995 TF_IDF
1 Q0 261 302 1.180431256612692 TF_IDF
1 Q0 258 303 1.17681157300718 TF_IDF
1 Q0 311 304 1.1746132019203914 TF_IDF
1 Q0 345 305 1.165901242789501 TF_IDF
1 Q0 295 306 1.153072946165339 TF_IDF
1 Q0 331 307 1.1502604566999577 TF_IDF
1 Q0 467 308 1.13914637346506 TF_IDF
1 Q0 201 309 1.13914637346506 TF_IDF
1 Q0 392 310 1.1336694847564819 TF_IDF
1 Q0 134 311 1.1316292046317604 TF_IDF
1 Q0 84 312 1.1275705968823713 TF_IDF
1 Q0 83 313 1.126224189359549 TF_IDF
1 Q0 384 314 1.1090090231909775 TF_IDF
1 Q0 436 315 1.1023441964750151 TF_IDF
1 Q0 527 316 1.1011853384150379 TF_IDF
1 Q0 225 317 1.093578725154959 TF_IDF
1 Q0 269 318 1.0822848732978236 TF_IDF
1 Q0 289 319 1.0810443839208461 TF_IDF
1 Q0 458 320 1.076724975284984 TF_IDF
1 Q0 408 321 1.0748843485698147 TF_IDF
1 Q0 366 322 1.0503454152581218 TF_IDF
1 Q0 484 323 1.0491770225149957 TF_IDF
1 Q0 337 324 1.0410704945549996 TF_IDF
1 Q0 250 325 1.0207891554346606 TF_IDF
1 Q0 93 326 1.012569941623597 TF_IDF
1 Q0 149 327 1.0114840362054487 TF_IDF
1 Q0 90 328 1.001814695207769 TF_IDF
1 Q0 226 329 0.9991614888513345 TF_IDF
1 Q0 222 330 0.9876524134061233 TF_IDF
1 Q0 213 331 0.9871355701294888 TF_IDF
1 Q0 182 332 0.9658641920950185 TF_IDF
1 Q0 421 333 0.9415189307672397 TF_IDF
1 Q0 71 334 0.9366497751047622 TF_IDF
1 Q0 263 335 0.9126323253642106 TF_IDF
1 Q0 456 336 0.9100874860116881 TF_IDF
1 Q0 447 337 0.9082381888358197 TF_IDF
1 Q0 168 338 0.9051873853620008 TF_IDF
1 Q0 319 339 0.8745518921026585 TF_IDF
1 Q0 293 340 0.8574578503450547 TF_IDF
1 Q0 154 341 0.8284608265986194 TF_IDF
1 Q0 388 342 0.8078817580565065 TF_IDF
1 Q0 192 343 0.7626822493039548 TF_IDF
1 Q0 364 344 0.7470890209394513 TF_IDF
1 Q0 377 345 0.6077288391675492 TF_IDF
1 Q0 55 346 0.5726739334897701 TF_IDF
2 Q0 155 0 9.690541434868301 TF_IDF
2 Q0 142 1 9.27964544274237 TF_IDF
2 Q0 131 2 9.236860917533651 TF_IDF
2 Q0 84 3 8.22596778675344 TF_IDF
2 Q0 98 4 7.959079933475348 TF_IDF
2 Q0 99 5 7.732232367248202 TF_IDF
2 Q0 215 6 6.043180354559676 TF_IDF
2 Q0 108 7 5.672570566857227 TF_IDF
2 Q0 362 8 4.795669388211191 TF_IDF
2 Q0 493 9 4.560662143047788 TF_IDF
2 Q0 450 10 4.458179778267777 TF_IDF
2 Q0 195 11 4.434935755045691 TF_IDF
2 Q0 126 12 4.427453352799848 TF_IDF
2 Q0 319 13 4.395934469650936 TF_IDF
2 Q0 328 14 4.277868084011125 TF_IDF
2 Q0 297 15 4.245874292476547 TF_IDF
2 Q0 100 16 4.240383489044195 TF_IDF
2 Q0 373 17 4.22603694205708 TF_IDF
2 Q0 276 18 4.205062199825145 TF_IDF
2 Q0 471 19 4.200029388903587 TF_IDF
2 Q0 339 20 4.195963809379584 TF_IDF
2 Q0 288 21 4.159079231148149 TF_IDF
2 Q0 125 22 4.108115675199764 TF_IDF
2 Q0 369 23 4.101544573506991 TF_IDF
2 Q0 258 24 4.091123122219768 TF_IDF
2 Q0 488 25 4.080568940154095 TF_IDF
2 Q0 119 26 4.0805357543598895 TF_IDF
2 Q0 376 27 4.079458214025567 TF_IDF
2 Q0 496 28 4.072144781092336 TF_IDF
2 Q0 163 29 4.061778523670934 TF_IDF
2 Q0 358 30 3.9588869148184975 TF_IDF
2 Q0 407 31 3.9438395648730173 TF_IDF
2 Q0 405 32 3.864043265292267 TF_IDF
2 Q0 346 33 3.861943435428617 TF_IDF
2 Q0 507 34 3.860541445250999 TF_IDF
2 Q0 383 35 3.833267170185952 TF_IDF
2 Q0 499 36 3.8202398381903837 TF_IDF
2 Q0 368 37 3.8006864451155047 TF_IDF
2 Q0 492 38 3.7573622492727727 TF_IDF
2 Q0 109 39 3.742217996276933 TF_IDF
2 Q0 372 40 3.700021705945022 TF_IDF
2 Q0 183 41 3.6973435019723553 TF_IDF
2 Q0 517 42 3.689874669600913 TF_IDF
2 Q0 361 43 3.6700571566345834 TF_IDF
2 Q0 490 44 3.595745329806517 TF_IDF
2 Q0 520 45 3.594851775115273 TF_IDF
2 Q0 71 46 3.5819698573719876 TF_IDF
2 Q0 526 47 3.520310834105284 TF_IDF
2 Q0 421 48 3.519496978105706 TF_IDF
2 Q0 514 49 3.491684709904342 TF_IDF
2 Q0 375 50 3.482481486931837 TF_IDF
2 Q0 491 51 3.469475482800841 TF_IDF
2 Q0 365 52 3.4667695355627113 TF_IDF
2 Q0 117 53 3.4538401790680426 TF_IDF
2 Q0 74 54 3.453237437814244 TF_IDF
2 Q0 121 55 3.4333782980486682 TF_IDF
2 Q0 498 56 3.398116607252309 TF_IDF
2 Q0 274 57 3.375734280861073 TF_IDF
2 Q0 452 58 3.338386429785724 TF_IDF
2 Q0 143 59 3.332982402318384 TF_IDF
2 Q0 494 60 3.3259590841303477 TF_IDF
2 Q0 16 61 3.3224164431766035 TF_IDF
2 Q0 523 62 3.2804745112052496 TF_IDF
2 Q0 414 63 3.2759058481915506 TF_IDF
2 Q0 122 64 3.269753599980974 TF_IDF
2 Q0 114 65 3.2090884122928545 TF_IDF
2 Q0 402 66 3.1876181091457676 TF_IDF
2 Q0 75 67 3.1865443296952147 TF_IDF
2 Q0 412 68 3.1321198120310036 TF_IDF
2 Q0 357 69 3.087045112892362 TF_IDF
2 Q0 97 70 3.045536191385983 TF_IDF
2 Q0 329 71 3.0447154477908276 TF_IDF
2 Q0 444 72 3.0353890902321865 TF_IDF
2 Q0 379 73 3.0234979369976314 TF_IDF
2 Q0 272 74 3.0187302314958946 TF_IDF
2 Q0 244 75 3.004316905773056 TF_IDF
2 Q0 370 76 2.9829991735182926 TF_IDF
2 Q0 86 77 2.9791072529760667 TF_IDF
2 Q0 509 78 2.976796941957965 TF_IDF
2 Q0 270 79 2.9702561822333244 TF_IDF
2 Q0 497 80 2.964521288646723 TF_IDF
2 Q0 398 81 2.9416657599964307 TF_IDF
2 Q0 413 82 2.8617150490365155 TF_IDF
2 Q0 37 83 2.811634391291049 TF_IDF
2 Q0 438 84 2.762635020154789 TF_IDF
2 Q0 518 85 2.638037231351517 TF_IDF
2 Q0 298 86 2.614119254038391 TF_IDF
2 Q0 513 87 2.600011944654792 TF_IDF
2 Q0 481 88 2.5691885489156774 TF_IDF
2 Q0 340 89 2.5004782358576887 TF_IDF
2 Q0 406 90 2.436765261693848 TF_IDF
2 Q0 186 91 2.4338944170622017 TF_IDF
2 Q0 299 92 2.4155101980571954 TF_IDF
2 Q0 524 93 2.3960468663005123 TF_IDF
2 Q0 374 94 2.378216630564871 TF_IDF
2 Q0 390 95 2.265063771069351 TF_IDF
2 Q0 378 96 2.2167733203329387 TF_IDF
2 Q0 197 97 2.1721518517383553 TF_IDF
2 Q0 510 98 2.170187452762016 TF_IDF
2 Q0 46 99 2.167980000609447 TF_IDF
2 Q0 416 100 2.1648040056064675 TF_IDF
2 Q0 10 101 2.164255269220652 TF_IDF
2 Q0 112 102 2.1358848362713334 TF_IDF
2 Q0 102 103 2.132239578386264 TF_IDF
2 Q0 103 104 2.1280635387155846 TF_IDF
2 Q0 393 105 2.121411214414491 TF_IDF
2 Q0 441 106 2.1123437313325275 TF_IDF
2 Q0 58 107 2.1072076009565768 TF_IDF
2 Q0 394 108 2.100908519702297 TF_IDF
2 Q0 118 109 2.0851856821936496 TF_IDF
2 Q0 25 110 2.084772066145569 TF_IDF
2 Q0 350 111 2.0768047787148736 TF_IDF
2 Q0 453 112 2.0588002089471042 TF_IDF
2 Q0 434 113 2.042848772879551 TF_IDF
2 Q0 521 114 2.0413220810626287 TF_IDF
2 Q0 468 115 2.0237207918206663 TF_IDF
2 Q0 337 116 2.0052967821080956 TF_IDF
2 Q0 77 117 1.9998838908373056 TF_IDF
2 Q0 420 118 1.9915551280344634 TF_IDF
2 Q0 73 119 1.9844086106806065 TF_IDF
2 Q0 363 120 1.9843050155867477 TF_IDF
2 Q0 381 121 1.9800042187114932 TF_IDF
2 Q0 505 122 1.9619744131152945 TF_IDF
2 Q0 343 123 1.943604691859363 TF_IDF
2 Q0 83 124 1.9397118655349892 TF_IDF
2 Q0 367 125 1.9225141136427182 TF_IDF
2 Q0 1 126 1.9144234631573434 TF_IDF
2 Q0 380 127 1.9009389842656128 TF_IDF
2 Q0 28 128 1.9003617568370297 TF_IDF
2 Q0 140 129 1.8904434924770495 TF_IDF
2 Q0 506 130 1.8809886953297206 TF_IDF
2 Q0 168 131 1.8795071838183444 TF_IDF
2 Q0 404 132 1.8676986471818204 TF_IDF
2 Q0 70 133 1.8511536363816177 TF_IDF
2 Q0 246 134 1.8482885687995296 TF_IDF
2 Q0 403 135 1.8480054520342375 TF_IDF
2 Q0 309 136 1.834692170058365 TF_IDF
2 Q0 284 137 1.8294433567418744 TF_IDF
2 Q0 301 138 1.8243728001276291 TF_IDF
2 Q0 149 139 1.816495182863816 TF_IDF
2 Q0 312 140 1.7841317962572976 TF_IDF
2 Q0 352 141 1.768697435384216 TF_IDF
2 Q0 401 142 1.7617243214572378 TF_IDF
2 Q0 123 143 1.752060388772686 TF_IDF
2 Q0 522 144 1.7387587370121094 TF_IDF
2 Q0 87 145 1.7231653156765907 TF_IDF
2 Q0 110 146 1.7159286795415742 TF_IDF
2 Q0 3 147 1.7129353562984198 TF_IDF
2 Q0 300 148 1.709125104643185 TF_IDF
2 Q0 451 149 1.7074609585474152 TF_IDF
2 Q0 482 150 1.7055395634527226 TF_IDF
2 Q0 127 151 1.6979465359409083 TF_IDF
2 Q0 311 152 1.6916027564316929 TF_IDF
2 Q0 33 153 1.6325550772136894 TF_IDF
2 Q0 476 154 1.6296999545757092 TF_IDF
2 Q0 134 155 1.6296999545757092 TF_IDF
2 Q0 196 156 1.6218065732762013 TF_IDF
2 Q0 54 157 1.608867070197388 TF_IDF
2 Q0 200 158 1.5998392234306211 TF_IDF
2 Q0 291 159 1.584335524837286 TF_IDF
2 Q0 511 160 1.5817016047901937 TF_IDF
2 Q0 388 161 1.5698195357651332 TF_IDF
2 Q0 315 162 1.5629719986558537 TF_IDF
2 Q0 338 163 1.558637406698418 TF_IDF
2 Q0 18 164 1.5287413615675631 TF_IDF
2 Q0 308 165 1.502963219257766 TF_IDF
2 Q0 245 166 1.4935132372878779 TF_IDF
2 Q0 364 167 1.4881260392016717 TF_IDF
2 Q0 204 168 1.4850623713530653 TF_IDF
2 Q0 306 169 1.4845355022582052 TF_IDF
2 Q0 170 170 1.4804908027685997 TF_IDF
2 Q0 56 171 1.479055780959083 TF_IDF
2 Q0 55 172 1.4694552204455744 TF_IDF
2 Q0 429 173 1.4582384239594504 TF_IDF
2 Q0 162 174 1.455527190111578 TF_IDF
2 Q0 396 175 1.437503487236344 TF_IDF
2 Q0 128 176 1.3316754318260537 TF_IDF
2 Q0 447 177 1.3079865109802573 TF_IDF
2 Q0 439 178 1.2881397040852407 TF_IDF
2 Q0 229 179 1.2875291916911746 TF_IDF
2 Q0 397 180 1.2844802664762676 TF_IDF
2 Q0 307 181 1.2797189341746047 TF_IDF
2 Q0 158 182 1.2618136779630558 TF_IDF
2 Q0 65 183 1.2576749868387767 TF_IDF
2 Q0 435 184 1.153311450093711 TF_IDF
2 Q0 256 185 1.0677475624975428 TF_IDF
2 Q0 428 186 1.0292031919669646 TF_IDF
2 Q0 182 187 0.9772178156753871 TF_IDF
2 Q0 436 188 0.9606860968363129 TF_IDF
2 Q0 115 189 0.9559467137971833 TF_IDF
2 Q0 382 190 0.9348460602131372 TF_IDF
2 Q0 313 191 0.9097735564674843 TF_IDF
2 Q0 192 192 0.8811728080030449 TF_IDF
2 Q0 377 193 0.8752121786287683 TF_IDF
2 Q0 29 194 0.7985269893972708 TF_IDF
2 Q0 85 195 0.7167936273097801 TF_IDF
2 Q0 456 196 0.6849837841525563 TF_IDF
2 Q0 342 197 0.6335452882029308 TF_IDF
3 Q0 420 0 9.31315505668128 TF_IDF
3 Q0 274 1 9.035005354047836 TF_IDF
3 Q0 97 2 6.973992029844486 TF_IDF
3 Q0 199 3 6.405055860372243 TF_IDF
3 Q0 380 4 6.179258070439382 TF_IDF
3 Q0 496 5 5.9126319310704005 TF_IDF
3 Q0 346 6 5.836695505370367 TF_IDF
3 Q0 117 7 5.688541573692309 TF_IDF
3 Q0 200 8 5.519919510826647 TF_IDF
3 Q0 259 9 5.258091912256074 TF_IDF
3 Q0 31 10 5.16712946041577 TF_IDF
3 Q0 453 11 4.727967277723307 TF_IDF
3 Q0 135 12 4.41509068985372 TF_IDF
3 Q0 128 13 4.2504285307389065 TF_IDF
3 Q0 362 14 4.110017728116653 TF_IDF
3 Q0 364 15 3.9399486864925777 TF_IDF
3 Q0 402 16 3.9161988021361562 TF_IDF
3 Q0 10 17 3.912398184332031 TF_IDF
3 Q0 112 18 3.6786457728793276 TF_IDF
3 Q0 379 19 3.474917595960454 TF_IDF
3 Q0 414 20 3.455475547927644 TF_IDF
3 Q0 88 21 3.354584373307598 TF_IDF
3 Q0 450 22 3.3505026879536706 TF_IDF
3 Q0 367 23 3.3495077541770284 TF_IDF
3 Q0 361 24 3.317422362838919 TF_IDF
3 Q0 3 25 3.288348431942066 TF_IDF
3 Q0 306 26 3.2022676393627525 TF_IDF
3 Q0 339 27 3.1742872987561417 TF_IDF
3 Q0 33 28 3.1340411700156623 TF_IDF
3 Q0 444 29 3.0328852649600764 TF_IDF
3 Q0 373 30 3.0259585859459524 TF_IDF
3 Q0 372 31 3.019889111682164 TF_IDF
3 Q0 100 32 2.9901702157902093 TF_IDF
3 Q0 334 33 2.939878987876819 TF_IDF
3 Q0 468 34 2.9381954035710445 TF_IDF
3 Q0 15 35 2.9299417308992792 TF_IDF
3 Q0 522 36 2.928979480861414 TF_IDF
3 Q0 74 37 2.8908251714085527 TF_IDF
3 Q0 423 38 2.88962256324607 TF_IDF
3 Q0 114 39 2.801531085329557 TF_IDF
3 Q0 416 40 2.7318207954122293 TF_IDF
3 Q0 140 41 2.707774263731717 TF_IDF
3 Q0 374 42 2.6579290490883998 TF_IDF
3 Q0 394 43 2.638341526893962 TF_IDF
3 Q0 403 44 2.6092517774854485 TF_IDF
3 Q0 354 45 2.601134143845885 TF_IDF
3 Q0 5 46 2.5949461365984043 TF_IDF
3 Q0 118 47 2.5822045216221206 TF_IDF
3 Q0 305 48 2.5334246477930638 TF_IDF
3 Q0 490 49 2.5155265236323885 TF_IDF
3 Q0 363 50 2.4448521058455586 TF_IDF
3 Q0 95 51 2.429759003429198 TF_IDF
3 Q0 186 52 2.4264864526124814 TF_IDF
3 Q0 491 53 2.4074084322675793 TF_IDF
3 Q0 208 54 2.3912240750650584 TF_IDF
3 Q0 126 55 2.3756380164871818 TF_IDF
3 Q0 25 56 2.353637678189825 TF_IDF
3 Q0 412 57 2.3418304240707526 TF_IDF
3 Q0 143 58 2.292087744428181 TF_IDF
3 Q0 121 59 2.2158970129643722 TF_IDF
3 Q0 85 60 2.12166866662101 TF_IDF
3 Q0 518 61 2.05253466136168 TF_IDF
3 Q0 119 62 2.0038702901351235 TF_IDF
3 Q0 29 63 1.771986407891088 TF_IDF
3 Q0 398 64 1.7409674524544463 TF_IDF
3 Q0 514 65 1.6592384214524387 TF_IDF
3 Q0 482 66 1.5813942344142788 TF_IDF
3 Q0 365 67 1.542046734912385 TF_IDF
3 Q0 276 68 1.507359209362904 TF_IDF
3 Q0 436 69 1.5044016270239151 TF_IDF
3 Q0 507 70 1.4729063674048068 TF_IDF
3 Q0 369 71 1.4550869744449832 TF_IDF
3 Q0 73 72 1.4290768728409295 TF_IDF
3 Q0 521 73 1.30640933370824 TF_IDF
3 Q0 513 74 1.2491381668879455 TF_IDF
3 Q0 435 75 1.1067853369664042 TF_IDF
3 Q0 125 76 1.0965457974407606 TF_IDF
3 Q0 517 77 1.0514246027247731 TF_IDF
3 Q0 46 78 0.7352526835770017 TF_IDF
3 Q0 407 79 0.6403800647544754 TF_IDF
3 Q0 272 80 0.32085143048535325 TF_IDF
4 Q0 378 0 8.113026424838871 TF_IDF
4 Q0 490 1 7.550740918962612 TF_IDF
4 Q0 491 2 7.310165170153741 TF_IDF
4 Q0 362 3 7.251857728659047 TF_IDF
4 Q0 368 4 7.232506219625659 TF_IDF
4 Q0 46 5 7.124694992730435 TF_IDF
4 Q0 369 6 6.911667034906925 TF_IDF
4 Q0 468 7 6.741467165193249 TF_IDF
4 Q0 140 8 6.636426075239655 TF_IDF
4 Q0 168 9 6.412588819248329 TF_IDF
4 Q0 444 10 6.205803302063072 TF_IDF
4 Q0 270 11 6.1817988753197515 TF_IDF
4 Q0 37 12 5.831191415391239 TF_IDF
4 Q0 421 13 5.687008026899877 TF_IDF
4 Q0 17 14 5.538137291464564 TF_IDF
4 Q0 18 15 5.411447406069801 TF_IDF
4 Q0 526 16 4.962093949261055 TF_IDF
4 Q0 215 17 4.531177441543624 TF_IDF
4 Q0 65 18 4.516250280020417 TF_IDF
4 Q0 186 19 4.015274072878537 TF_IDF
4 Q0 291 20 3.9937627074224187 TF_IDF
4 Q0 517 21 3.950744121696388 TF_IDF
4 Q0 498 22 3.7908365344300305 TF_IDF
4 Q0 493 23 3.713464335307937 TF_IDF
4 Q0 272 24 3.699158518618714 TF_IDF
4 Q0 100 25 3.6718446048602527 TF_IDF
4 Q0 510 26 3.664616318285971 TF_IDF
4 Q0 297 27 3.656573791465836 TF_IDF
4 Q0 390 28 3.6558650479216386 TF_IDF
4 Q0 197 29 3.6558226956197357 TF_IDF
4 Q0 450 30 3.6150404398077844 TF_IDF
4 Q0 16 31 3.613159806593866 TF_IDF
4 Q0 507 32 3.6085670406548824 TF_IDF
4 Q0 346 33 3.591321778636729 TF_IDF
4 Q0 434 34 3.537689121578759 TF_IDF
4 Q0 118 35 3.533094549359734 TF_IDF
4 Q0 471 36 3.5174569615401086 TF_IDF
4 Q0 58 37 3.483361361793855 TF_IDF
4 Q0 496 38 3.4699280798215297 TF_IDF
4 Q0 342 39 3.4690631911740937 TF_IDF
4 Q0 499 40 3.462223872023515 TF_IDF
4 Q0 343 41 3.461785763531677 TF_IDF
4 Q0 85 42 3.45462835730614 TF_IDF
4 Q0 376 43 3.45170716090309 TF_IDF
4 Q0 328 44 3.4474355400866328 TF_IDF
4 Q0 420 45 3.4244418053739833 TF_IDF
4 Q0 506 46 3.4188989788732846 TF_IDF
4 Q0 441 47 3.416857600744967 TF_IDF
4 Q0 25 48 3.4122099025460852 TF_IDF
4 Q0 125 49 3.396726539720178 TF_IDF
4 Q0 28 50 3.376598578128527 TF_IDF
4 Q0 514 51 3.3320747811693843 TF_IDF
4 Q0 367 52 3.3288632200114794 TF_IDF
4 Q0 373 53 3.311928930005552 TF_IDF
4 Q0 98 54 3.307836464311932 TF_IDF
4 Q0 70 55 3.305761602305001 TF_IDF
4 Q0 288 56 3.2919173163648505 TF_IDF
4 Q0 114 57 3.2883893670466544 TF_IDF
4 Q0 121 58 3.2776059051640853 TF_IDF
4 Q0 358 59 3.275754416935246 TF_IDF
4 Q0 488 60 3.272423063535875 TF_IDF
4 Q0 453 61 3.254676224255078 TF_IDF
4 Q0 375 62 3.2530438926041576 TF_IDF
4 Q0 73 63 3.250069220306198 TF_IDF
4 Q0 520 64 3.2302579415435053 TF_IDF
4 Q0 103 65 3.2197436151009713 TF_IDF
4 Q0 402 66 3.212519051723244 TF_IDF
4 Q0 405 67 3.208447651503638 TF_IDF
4 Q0 84 68 3.203880535820778 TF_IDF
4 Q0 276 69 3.188644530449195 TF_IDF
4 Q0 523 70 3.1803614215117366 TF_IDF
4 Q0 75 71 3.1745657929601014 TF_IDF
4 Q0 339 72 3.1728571047168144 TF_IDF
4 Q0 258 73 3.1676987877445124 TF_IDF
4 Q0 404 74 3.1645891138397992 TF_IDF
4 Q0 74 75 3.1424584289136313 TF_IDF
4 Q0 403 76 3.131221380198829 TF_IDF
4 Q0 3 77 3.1040309276849416 TF_IDF
4 Q0 284 78 3.099770158246666 TF_IDF
4 Q0 299 79 3.098149747962321 TF_IDF
4 Q0 380 80 3.0943976952798584 TF_IDF
4 Q0 301 81 3.0911787142860674 TF_IDF
4 Q0 122 82 3.088235007727702 TF_IDF
4 Q0 244 83 3.067166990937434 TF_IDF
4 Q0 83 84 3.0659360548945385 TF_IDF
4 Q0 456 85 3.0632838619855143 TF_IDF
4 Q0 337 86 3.046367276663095 TF_IDF
4 Q0 511 87 3.0382547403116646 TF_IDF
4 Q0 245 88 3.0332927215105547 TF_IDF
4 Q0 274 89 3.0241078747522794 TF_IDF
4 Q0 379 90 3.0230200086118533 TF_IDF
4 Q0 451 91 3.0210332364909878 TF_IDF
4 Q0 363 92 3.0206351209029636 TF_IDF
4 Q0 524 93 3.01323892170859 TF_IDF
4 Q0 372 94 3.000517281250503 TF_IDF
4 Q0 365 95 2.9776195234278733 TF_IDF
4 Q0 123 96 2.96865409281426 TF_IDF
4 Q0 482 97 2.9635520115529648 TF_IDF
4 Q0 126 98 2.9570653023622615 TF_IDF
4 Q0 407 99 2.9464511098009813 TF_IDF
4 Q0 306 100 2.933278380360716 TF_IDF
4 Q0 357 101 2.92304171761553 TF_IDF
4 Q0 87 102 2.919694891659682 TF_IDF
4 Q0 340 103 2.918558823247867 TF_IDF
4 Q0 383 104 2.9005325512605644 TF_IDF
4 Q0 97 105 2.8965949731427045 TF_IDF
4 Q0 200 106 2.883709434138349 TF_IDF
4 Q0 311 107 2.8662159583520843 TF_IDF
4 Q0 324 108 2.862238712757115 TF_IDF
4 Q0 509 109 2.8579797343686195 TF_IDF
4 Q0 71 110 2.8469964639660104 TF_IDF
4 Q0 319 111 2.837683150362428 TF_IDF
4 Q0 149 112 2.827979219069265 TF_IDF
4 Q0 246 113 2.82666248735915 TF_IDF
4 Q0 300 114 2.8152875579705183 TF_IDF
4 Q0 522 115 2.798197764722522 TF_IDF
4 Q0 433 116 2.7802050669920875 TF_IDF
4 Q0 521 117 2.778460269837283 TF_IDF
4 Q0 109 118 2.7678949001978417 TF_IDF
4 Q0 134 119 2.7613291592074694 TF_IDF
4 Q0 494 120 2.7414928212626855 TF_IDF
4 Q0 513 121 2.713253708744631 TF_IDF
4 Q0 117 122 2.705111120805452 TF_IDF
4 Q0 298 123 2.69559894533931 TF_IDF
4 Q0 439 124 2.6632208714936647 TF_IDF
4 Q0 229 125 2.6623598084815745 TF_IDF
4 Q0 143 126 2.6161614909593913 TF_IDF
4 Q0 195 127 2.6051916455266375 TF_IDF
4 Q0 518 128 2.563007335982574 TF_IDF
4 Q0 86 129 2.5212704720817127 TF_IDF
4 Q0 429 130 2.4708083655830473 TF_IDF
4 Q0 497 131 2.3847546885949837 TF_IDF
4 Q0 388 132 2.37770129382164 TF_IDF
4 Q0 428 133 2.3753760983230694 TF_IDF
4 Q0 438 134 2.367346047696922 TF_IDF
4 Q0 313 135 2.3662058883232353 TF_IDF
4 Q0 374 136 2.348022039521018 TF_IDF
4 Q0 115 137 2.3020913890263346 TF_IDF
4 Q0 416 138 2.296009333833732 TF_IDF
4 Q0 505 139 2.290300106762543 TF_IDF
4 Q0 307 140 2.2604211512727406 TF_IDF
4 Q0 364 141 2.235215060141123 TF_IDF
4 Q0 102 142 2.234163738270161 TF_IDF
4 Q0 492 143 2.225195267554966 TF_IDF
4 Q0 447 144 2.216224699816077 TF_IDF
4 Q0 119 145 2.1502014557309854 TF_IDF
4 Q0 112 146 2.1358848362713334 TF_IDF
4 Q0 481 147 2.1107405046059395 TF_IDF
4 Q0 394 148 2.100908519702297 TF_IDF
4 Q0 55 149 2.0421291539353446 TF_IDF
4 Q0 131 150 2.0182081166030303 TF_IDF
4 Q0 361 151 2.009974179355209 TF_IDF
4 Q0 77 152 1.9998838908373056 TF_IDF
4 Q0 381 153 1.9800042187114932 TF_IDF
4 Q0 182 154 1.9430820077704056 TF_IDF
4 Q0 398 155 1.9402251096649965 TF_IDF
4 Q0 1 156 1.9144234631573434 TF_IDF
4 Q0 183 157 1.8454946038320041 TF_IDF
4 Q0 352 158 1.768697435384216 TF_IDF
4 Q0 436 159 1.7420389348413186 TF_IDF
4 Q0 127 160 1.6979465359409083 TF_IDF
4 Q0 33 161 1.6325550772136894 TF_IDF
4 Q0 476 162 1.6296999545757092 TF_IDF
4 Q0 196 163 1.6218065732762013 TF_IDF
4 Q0 412 164 1.6203828534399125 TF_IDF
4 Q0 501 165 1.6168971815597712 TF_IDF
4 Q0 54 166 1.608867070197388 TF_IDF
4 Q0 99 167 1.6056194973209157 TF_IDF
4 Q0 27 168 1.5974671049709255 TF_IDF
4 Q0 69 169 1.595440441126805 TF_IDF
4 Q0 111 170 1.5929703801641129 TF_IDF
4 Q0 515 171 1.5884801505451638 TF_IDF
4 Q0 512 172 1.5813099480062016 TF_IDF
4 Q0 247 173 1.5716431702918898 TF_IDF
4 Q0 184 174 1.5688522283403106 TF_IDF
4 Q0 204 175 1.562078035903311 TF_IDF
4 Q0 66 176 1.5596716094994474 TF_IDF
4 Q0 338 177 1.558637406698418 TF_IDF
4 Q0 370 178 1.557667953900132 TF_IDF
4 Q0 500 179 1.5567986471359487 TF_IDF
4 Q0 217 180 1.5548471882725297 TF_IDF
4 Q0 155 181 1.5541788885518761 TF_IDF
4 Q0 116 182 1.5515646876007885 TF_IDF
4 Q0 464 183 1.5478866929515291 TF_IDF
4 Q0 49 184 1.5471515039209776 TF_IDF
4 Q0 104 185 1.536639885755753 TF_IDF
4 Q0 519 186 1.5363535221169125 TF_IDF
4 Q0 220 187 1.527077107669667 TF_IDF
4 Q0 94 188 1.5178106098230946 TF_IDF
4 Q0 502 189 1.516285551213873 TF_IDF
4 Q0 72 190 1.5160314992859514 TF_IDF
4 Q0 473 191 1.5084043923477959 TF_IDF
4 Q0 43 192 1.5065972841001716 TF_IDF
4 Q0 413 193 1.5056172837053972 TF_IDF
4 Q0 330 194 1.5054119197849871 TF_IDF
4 Q0 120 195 1.5044242921211812 TF_IDF
4 Q0 228 196 1.4950712829995119 TF_IDF
4 Q0 34 197 1.4934930112915963 TF_IDF
4 Q0 271 198 1.4913409736519672 TF_IDF
4 Q0 321 199 1.4894325276145577 TF_IDF
4 Q0 459 200 1.487950990957888 TF_IDF
4 Q0 283 201 1.484092916904249 TF_IDF
4 Q0 377 202 1.4829410177963176 TF_IDF
4 Q0 142 203 1.4821057305927332 TF_IDF
4 Q0 56 204 1.479055780959083 TF_IDF
4 Q0 202 205 1.47327460465873 TF_IDF
4 Q0 163 206 1.4699575370788236 TF_IDF
4 Q0 465 207 1.4649346471993845 TF_IDF
4 Q0 414 208 1.4629501904771294 TF_IDF
4 Q0 223 209 1.4618252149545639 TF_IDF
4 Q0 446 210 1.4616524311974965 TF_IDF
4 Q0 166 211 1.442097569565845 TF_IDF
4 Q0 227 212 1.4417146073152687 TF_IDF
4 Q0 256 213 1.439566671488451 TF_IDF
4 Q0 7 214 1.4377475670142486 TF_IDF
4 Q0 322 215 1.4366525715094753 TF_IDF
4 Q0 469 216 1.4350132020107447 TF_IDF
4 Q0 435 217 1.4346719445338822 TF_IDF
4 Q0 448 218 1.4290340567372268 TF_IDF
4 Q0 91 219 1.413991968601329 TF_IDF
4 Q0 287 220 1.4113918836236439 TF_IDF
4 Q0 475 221 1.410336650662859 TF_IDF
4 Q0 176 222 1.4098096256733068 TF_IDF
4 Q0 88 223 1.4080326988503213 TF_IDF
4 Q0 463 224 1.4071359136908175 TF_IDF
4 Q0 132 225 1.4024282313830017 TF_IDF
4 Q0 153 226 1.3983139162702565 TF_IDF
4 Q0 457 227 1.3961913449954901 TF_IDF
4 Q0 190 228 1.3961855058717807 TF_IDF
4 Q0 41 229 1.395211187412859 TF_IDF
4 Q0 262 230 1.394695404127085 TF_IDF
4 Q0 285 231 1.394695404127085 TF_IDF
4 Q0 51 232 1.3914908476042418 TF_IDF
4 Q0 290 233 1.3870041645659752 TF_IDF
4 Q0 29 234 1.3831760437957765 TF_IDF
4 Q0 198 235 1.3748730819418615 TF_IDF
4 Q0 417 236 1.3688867702431968 TF_IDF
4 Q0 35 237 1.368527674670619 TF_IDF
4 Q0 175 238 1.3654187679260137 TF_IDF
4 Q0 371 239 1.3614767913236787 TF_IDF
4 Q0 316 240 1.3597584878554105 TF_IDF
4 Q0 329 241 1.3597054526927899 TF_IDF
4 Q0 42 242 1.3479906418774965 TF_IDF
4 Q0 95 243 1.3473487622583016 TF_IDF
4 Q0 359 244 1.3394818544978748 TF_IDF
4 Q0 391 245 1.3392449196756033 TF_IDF
4 Q0 107 246 1.3357141899852711 TF_IDF
4 Q0 10 247 1.3355832886543346 TF_IDF
4 Q0 472 248 1.3340357547566288 TF_IDF
4 Q0 252 249 1.3126840065170466 TF_IDF
4 Q0 485 250 1.311276587770461 TF_IDF
4 Q0 135 251 1.3076790306992945 TF_IDF
4 Q0 52 252 1.3019996004312757 TF_IDF
4 Q0 146 253 1.2925701727205596 TF_IDF
4 Q0 101 254 1.290192671278645 TF_IDF
4 Q0 310 255 1.2897964467751062 TF_IDF
4 Q0 47 256 1.2806024836950558 TF_IDF
4 Q0 5 257 1.2788660934036922 TF_IDF
4 Q0 259 258 1.2772076962594905 TF_IDF
4 Q0 265 259 1.2759581656658794 TF_IDF
4 Q0 282 260 1.2737579562282701 TF_IDF
4 Q0 487 261 1.2737579562282701 TF_IDF
4 Q0 452 262 1.2730485526638826 TF_IDF
4 Q0 174 263 1.2728984310535187 TF_IDF
4 Q0 218 264 1.272040065102671 TF_IDF
4 Q0 26 265 1.2711828560321752 TF_IDF
4 Q0 419 266 1.2711828560321752 TF_IDF
4 Q0 11 267 1.2703268015047917 TF_IDF
4 Q0 489 268 1.2703268015047917 TF_IDF
4 Q0 9 269 1.2669140823013716 TF_IDF
4 Q0 19 270 1.2660637656504374 TF_IDF
4 Q0 389 271 1.263118112784552 TF_IDF
4 Q0 158 272 1.2618136779630558 TF_IDF
4 Q0 4 273 1.2609857393545303 TF_IDF
4 Q0 21 274 1.258461971138733 TF_IDF
4 Q0 335 275 1.2533740317236395 TF_IDF
4 Q0 170 276 1.250304449215142 TF_IDF
4 Q0 355 277 1.2468167244856172 TF_IDF
4 Q0 8 278 1.2459931626390484 TF_IDF
4 Q0 36 279 1.2451706880515598 TF_IDF
4 Q0 253 280 1.2451010279105723 TF_IDF
4 Q0 303 281 1.2435289920528394 TF_IDF
4 Q0 105 282 1.2426403812833662 TF_IDF
4 Q0 162 283 1.2396230849833711 TF_IDF
4 Q0 349 284 1.2386297756655955 TF_IDF
4 Q0 400 285 1.2386297756655955 TF_IDF
4 Q0 68 286 1.2386297756655955 TF_IDF
4 Q0 478 287 1.2378169902618699 TF_IDF
4 Q0 185 288 1.2370052708536705 TF_IDF
4 Q0 470 289 1.2337690113431905 TF_IDF
4 Q0 20 290 1.232962590585764 TF_IDF
4 Q0 59 291 1.232962590585764 TF_IDF
4 Q0 294 292 1.2297474219817217 TF_IDF
4 Q0 455 293 1.2273470282097443 TF_IDF
4 Q0 57 294 1.226548978009838 TF_IDF
4 Q0 503 295 1.2257519649579571 TF_IDF
4 Q0 318 296 1.2249559870335947 TF_IDF
4 Q0 314 297 1.224161042221488 TF_IDF
4 Q0 454 298 1.214701560762166 TF_IDF
4 Q0 171 299 1.2146352679647956 TF_IDF
4 Q0 266 300 1.2100264313478803 TF_IDF
4 Q0 23 301 1.2092507396217982 TF_IDF
4 Q0 189 302 1.2092507396217982 TF_IDF
4 Q0 53 303 1.2092507396217982 TF_IDF
4 Q0 460 304 1.2084760417784366 TF_IDF
4 Q0 96 305 1.2054817953933903 TF_IDF
4 Q0 193 306 1.2046173941598977 TF_IDF
4 Q0 442 307 1.2030808258530055 TF_IDF
4 Q0 39 308 1.2030808258530055 TF_IDF
4 Q0 45 309 1.1984945511928342 TF_IDF
4 Q0 144 310 1.1827143274392995 TF_IDF
4 Q0 261 311 1.180431256612692 TF_IDF
4 Q0 334 312 1.1716947851889647 TF_IDF
4 Q0 108 313 1.1702410083486472 TF_IDF
4 Q0 345 314 1.165901242789501 TF_IDF
4 Q0 295 315 1.153072946165339 TF_IDF
4 Q0 331 316 1.1502604566999577 TF_IDF
4 Q0 201 317 1.13914637346506 TF_IDF
4 Q0 467 318 1.13914637346506 TF_IDF
4 Q0 392 319 1.1336694847564819 TF_IDF
4 Q0 281 320 1.1142496776334168 TF_IDF
4 Q0 384 321 1.1090090231909775 TF_IDF
4 Q0 527 322 1.1011853384150379 TF_IDF
4 Q0 422 323 1.0951120970345953 TF_IDF
4 Q0 225 324 1.093578725154959 TF_IDF
4 Q0 269 325 1.0822848732978236 TF_IDF
4 Q0 289 326 1.0810443839208461 TF_IDF
4 Q0 458 327 1.076724975284984 TF_IDF
4 Q0 408 328 1.0748843485698147 TF_IDF
4 Q0 366 329 1.0503454152581218 TF_IDF
4 Q0 484 330 1.0491770225149957 TF_IDF
4 Q0 309 331 1.0280211717827692 TF_IDF
4 Q0 250 332 1.0207891554346606 TF_IDF
4 Q0 93 333 1.012569941623597 TF_IDF
4 Q0 397 334 1.006849253198884 TF_IDF
4 Q0 90 335 1.001814695207769 TF_IDF
4 Q0 312 336 0.9996910052463879 TF_IDF
4 Q0 226 337 0.9991614888513345 TF_IDF
4 Q0 222 338 0.9876524134061233 TF_IDF
4 Q0 401 339 0.9871355701294888 TF_IDF
4 Q0 213 340 0.9871355701294888 TF_IDF
4 Q0 110 341 0.9614751949270446 TF_IDF
4 Q0 382 342 0.9348460602131372 TF_IDF
4 Q0 305 343 0.9163631780875808 TF_IDF
4 Q0 263 344 0.9126323253642106 TF_IDF
4 Q0 315 345 0.8757699693408149 TF_IDF
4 Q0 317 346 0.8657218135822072 TF_IDF
4 Q0 293 347 0.8574578503450547 TF_IDF
4 Q0 308 348 0.842145638937686 TF_IDF
4 Q0 154 349 0.8284608265986194 TF_IDF
4 Q0 192 350 0.7626822493039548 TF_IDF
4 Q0 128 351 0.7461690632366925 TF_IDF
4 Q0 248 352 0.6808653940535722 TF_IDF
5 Q0 441 0 9.401019299274463 TF_IDF
5 Q0 123 1 7.512076880516652 TF_IDF
5 Q0 270 2 6.76402072763552 TF_IDF
5 Q0 132 3 6.220614799818163 TF_IDF
5 Q0 128 4 5.720308857781035 TF_IDF
5 Q0 359 5 5.636804085790912 TF_IDF
5 Q0 74 6 5.030720297206816 TF_IDF
5 Q0 510 7 4.985706347301851 TF_IDF
5 Q0 195 8 4.868039309768468 TF_IDF
5 Q0 189 9 4.8008792408323675 TF_IDF
5 Q0 153 10 4.791398111711352 TF_IDF
5 Q0 126 11 4.763592637854106 TF_IDF
5 Q0 394 12 4.733782532333995 TF_IDF
5 Q0 33 13 4.719870153507442 TF_IDF
5 Q0 53 14 4.716526554343993 TF_IDF
5 Q0 193 15 4.710802888703394 TF_IDF
5 Q0 167 16 4.660582589259021 TF_IDF
5 Q0 420 17 4.619803255196987 TF_IDF
5 Q0 506 18 4.604285356225132 TF_IDF
5 Q0 346 19 4.583002861922901 TF_IDF
5 Q0 362 20 4.560324872628619 TF_IDF
5 Q0 450 21 4.550761634217807 TF_IDF
5 Q0 376 22 4.53443151301199 TF_IDF
5 Q0 381 23 4.513664969231338 TF_IDF
5 Q0 154 24 4.5120530697719925 TF_IDF
5 Q0 276 25 4.506884397250885 TF_IDF
5 Q0 88 26 4.4895144776596165 TF_IDF
5 Q0 494 27 4.469929593155484 TF_IDF
5 Q0 272 28 4.440052054015439 TF_IDF
5 Q0 407 29 4.434884625574568 TF_IDF
5 Q0 372 30 4.413319341892808 TF_IDF
5 Q0 114 31 4.395746338140004 TF_IDF
5 Q0 426 32 4.3693047950402 TF_IDF
5 Q0 207 33 4.346963899095772 TF_IDF
5 Q0 334 34 4.338304088905433 TF_IDF
5 Q0 498 35 4.315193011616175 TF_IDF
5 Q0 402 36 4.304095800711193 TF_IDF
5 Q0 46 37 4.226641335533666 TF_IDF
5 Q0 43 38 4.225515378306496 TF_IDF
5 Q0 299 39 4.204081093139992 TF_IDF
5 Q0 365 40 4.194865171669635 TF_IDF
5 Q0 367 41 4.177468955301764 TF_IDF
5 Q0 83 42 4.157630372238599 TF_IDF
5 Q0 312 43 4.1440867805901656 TF_IDF
5 Q0 110 44 4.1198430610681145 TF_IDF
5 Q0 468 45 4.054482619260246 TF_IDF
5 Q0 358 46 3.990964834616457 TF_IDF
5 Q0 514 47 3.9681415981402344 TF_IDF
5 Q0 490 48 3.956201343011757 TF_IDF
5 Q0 393 49 3.93409181898135 TF_IDF
5 Q0 339 50 3.9328743710905485 TF_IDF
5 Q0 363 51 3.9226668237511446 TF_IDF
5 Q0 11 52 3.921277896695399 TF_IDF
5 Q0 375 53 3.8910577246777844 TF_IDF
5 Q0 117 54 3.871265841162894 TF_IDF
5 Q0 378 55 3.8525543856119793 TF_IDF
5 Q0 357 56 3.8486112156828804 TF_IDF
5 Q0 491 57 3.8408672038581555 TF_IDF
5 Q0 306 58 3.83906185641003 TF_IDF
5 Q0 222 59 3.8358147327880543 TF_IDF
5 Q0 179 60 3.798492720656119 TF_IDF
5 Q0 171 61 3.749367818718009 TF_IDF
5 Q0 329 62 3.7322914444860835 TF_IDF
5 Q0 380 63 3.684231913594944 TF_IDF
5 Q0 520 64 3.638280814764377 TF_IDF
5 Q0 298 65 3.604734741099547 TF_IDF
5 Q0 198 66 3.598934358988978 TF_IDF
5 Q0 338 67 3.581973500619215 TF_IDF
5 Q0 130 68 3.578839028132557 TF_IDF
5 Q0 368 69 3.553430776225039 TF_IDF
5 Q0 97 70 3.5416811590660435 TF_IDF
5 Q0 416 71 3.5152860277447155 TF_IDF
5 Q0 379 72 3.5086564519238674 TF_IDF
5 Q0 100 73 3.477617825682626 TF_IDF
5 Q0 309 74 3.402380173882449 TF_IDF
5 Q0 162 75 3.386318316959092 TF_IDF
5 Q0 517 76 3.3275540624226663 TF_IDF
5 Q0 523 77 3.2708444570066026 TF_IDF
5 Q0 524 78 3.1686098537496354 TF_IDF
5 Q0 507 79 3.16643534478911 TF_IDF
5 Q0 471 80 3.159590655976783 TF_IDF
5 Q0 307 81 3.091161187321765 TF_IDF
5 Q0 398 82 3.068849697976834 TF_IDF
5 Q0 86 83 3.057465329564441 TF_IDF
5 Q0 186 84 3.049330286535845 TF_IDF
5 Q0 244 85 3.018170522477952 TF_IDF
5 Q0 492 86 3.0082491268255267 TF_IDF
5 Q0 73 87 2.976763495203916 TF_IDF
5 Q0 229 88 2.958927731421901 TF_IDF
5 Q0 200 89 2.934869939805297 TF_IDF
5 Q0 315 90 2.8984834771442514 TF_IDF
5 Q0 102 91 2.8898479531879686 TF_IDF
5 Q0 435 92 2.8776975991842555 TF_IDF
5 Q0 438 93 2.835299327986862 TF_IDF
5 Q0 397 94 2.8323382680223617 TF_IDF
5 Q0 321 95 2.8010056475132394 TF_IDF
5 Q0 308 96 2.7871990422864714 TF_IDF
5 Q0 66 97 2.7226736632707764 TF_IDF
5 Q0 125 98 2.714228071463034 TF_IDF
5 Q0 513 99 2.6999702784503556 TF_IDF
5 Q0 369 100 2.6846851003533865 TF_IDF
5 Q0 526 101 2.6711862995798907 TF_IDF
5 Q0 109 102 2.6608498557352633 TF_IDF
5 Q0 170 103 2.560688349524841 TF_IDF
5 Q0 340 104 2.5420363853134615 TF_IDF
5 Q0 58 105 2.537746872858278 TF_IDF
5 Q0 220 106 2.511152342004704 TF_IDF
5 Q0 72 107 2.4826821979516875 TF_IDF
5 Q0 374 108 2.4664546878301863 TF_IDF
5 Q0 403 109 2.416306091391272 TF_IDF
5 Q0 290 110 2.4151910495574067 TF_IDF
5 Q0 451 111 2.406374876519509 TF_IDF
5 Q0 405 112 2.4053566642915225 TF_IDF
5 Q0 89 113 2.4043183081075665 TF_IDF
5 Q0 1 114 2.3795647704522245 TF_IDF
5 Q0 319 115 2.3736657170912294 TF_IDF
5 Q0 175 116 2.359558345974119 TF_IDF
5 Q0 184 117 2.3579044291498206 TF_IDF
5 Q0 476 118 2.3520665178067603 TF_IDF
5 Q0 95 119 2.342251951501348 TF_IDF
5 Q0 350 120 2.3340608394846094 TF_IDF
5 Q0 301 121 2.3271232113415397 TF_IDF
5 Q0 317 122 2.317604553415218 TF_IDF
5 Q0 24 123 2.300835897560533 TF_IDF
5 Q0 373 124 2.2931693058447955 TF_IDF
5 Q0 316 125 2.2613195125636723 TF_IDF
5 Q0 313 126 2.2547454605239654 TF_IDF
5 Q0 194 127 2.2514445157919334 TF_IDF
5 Q0 255 128 2.2514445157919334 TF_IDF
5 Q0 455 129 2.221853993881189 TF_IDF
5 Q0 23 130 2.2028286774028967 TF_IDF
5 Q0 414 131 2.2022550579827804 TF_IDF
5 Q0 4 132 2.1957551023371313 TF_IDF
5 Q0 108 133 2.1609931478381093 TF_IDF
5 Q0 429 134 2.1567475758593084 TF_IDF
5 Q0 406 135 2.1413747394840463 TF_IDF
5 Q0 370 136 2.1356334242043977 TF_IDF
5 Q0 196 137 2.112303524710838 TF_IDF
5 Q0 281 138 2.098900792266593 TF_IDF
5 Q0 497 139 2.083259980636492 TF_IDF
5 Q0 25 140 2.081873424684294 TF_IDF
5 Q0 485 141 2.056527097263146 TF_IDF
5 Q0 143 142 2.0558327389918554 TF_IDF
5 Q0 92 143 2.0186980685609304 TF_IDF
5 Q0 121 144 2.013897361130228 TF_IDF
5 Q0 246 145 2.012826771865874 TF_IDF
5 Q0 199 146 2.010466978124045 TF_IDF
5 Q0 521 147 1.9931115069577752 TF_IDF
5 Q0 75 148 1.9864935338510499 TF_IDF
5 Q0 300 149 1.9563270344227233 TF_IDF
5 Q0 511 150 1.9458550362903526 TF_IDF
5 Q0 20 151 1.9337041483846356 TF_IDF
5 Q0 57 152 1.9236454253228856 TF_IDF
5 Q0 388 153 1.898103755613827 TF_IDF
5 Q0 522 154 1.8935463838024027 TF_IDF
5 Q0 323 155 1.891665276873162 TF_IDF
5 Q0 119 156 1.8834110074035266 TF_IDF
5 Q0 87 157 1.8765648061099636 TF_IDF
5 Q0 361 158 1.8759698331437815 TF_IDF
5 Q0 481 159 1.868514364923806 TF_IDF
5 Q0 383 160 1.8642486652356538 TF_IDF
5 Q0 337 161 1.8128165759288437 TF_IDF
5 Q0 183 162 1.8068334595116362 TF_IDF
5 Q0 271 163 1.8048478541705264 TF_IDF
5 Q0 390 164 1.7787186463022628 TF_IDF
5 Q0 35 165 1.7444604327760067 TF_IDF
5 Q0 90 166 1.7444604327760067 TF_IDF
5 Q0 296 167 1.743534464996662 TF_IDF
5 Q0 488 168 1.7388413104093767 TF_IDF
5 Q0 288 169 1.7331890651174318 TF_IDF
5 Q0 151 170 1.730148261822676 TF_IDF
5 Q0 37 171 1.7197996443497892 TF_IDF
5 Q0 103 172 1.7121251760058478 TF_IDF
5 Q0 499 173 1.709170966125514 TF_IDF
5 Q0 396 174 1.706117238618785 TF_IDF
5 Q0 48 175 1.703253714368924 TF_IDF
5 Q0 466 176 1.7022736681956014 TF_IDF
5 Q0 155 177 1.6925348822439574 TF_IDF
5 Q0 215 178 1.679086300309107 TF_IDF
5 Q0 91 179 1.6776376191769087 TF_IDF
5 Q0 122 180 1.6709448658661636 TF_IDF
5 Q0 71 181 1.6309887246163164 TF_IDF
5 Q0 328 182 1.6192713500773188 TF_IDF
5 Q0 261 183 1.58686391099748 TF_IDF
5 Q0 168 184 1.5762032495285885 TF_IDF
5 Q0 116 185 1.5593139735973236 TF_IDF
5 Q0 401 186 1.5481638790602448 TF_IDF
5 Q0 227 187 1.4796400974736037 TF_IDF
5 Q0 305 188 1.4371687287389976 TF_IDF
5 Q0 518 189 1.4244567519603144 TF_IDF
5 Q0 505 190 1.399906840654789 TF_IDF
5 Q0 389 191 1.327833784675743 TF_IDF
5 Q0 422 192 1.275775196441065 TF_IDF
5 Q0 51 193 1.2386079871156281 TF_IDF
5 Q0 274 194 1.2275304698326326 TF_IDF
5 Q0 85 195 1.2035865614038768 TF_IDF
5 Q0 115 196 1.1937170455667088 TF_IDF
5 Q0 291 197 1.1895250469639271 TF_IDF
5 Q0 428 198 1.1208248395035172 TF_IDF
5 Q0 509 199 1.1093468008634635 TF_IDF
5 Q0 377 200 1.0582385333894646 TF_IDF
5 Q0 16 201 0.9506750031009951 TF_IDF
5 Q0 413 202 0.8556287190824624 TF_IDF
5 Q0 342 203 0.766033715017637 TF_IDF
5 Q0 324 204 0.7071648478682507 TF_IDF
5 Q0 248 205 0.6700977489002929 TF_IDF
